{
  "category": {
    "id": 5,
    "name": "Stickman",
    "alias": "stickman",
    "count": 300
  },
  "page": 1,
  "totalPages": 13,
  "totalItems": 300,
  "items": [
    {
      "id": "33256",
      "name": "Assassin Knight",
      "image": "https://img.gamemonetize.com/ksq2yt870myyw9a0bzk6spzdxqzew0nv/512x384.jpg",
      "categoryId": 5
    },
    {
      "id": "33130",
      "name": "Castle Wars: Cell Battle",
      "image": "https://img.gamemonetize.com/gq4qclr7cm0m08dakx3i7arzw5caq9tb/512x384.jpg",
      "categoryId": 5
    },
    {
      "id": "33057",
      "name": "Draw Save Puzzles",
      "image": "https://img.gamemonetize.com/bl9mbkidqt65a2zi3akccumx2irkes65/512x384.jpg",
      "categoryId": 5
    },
    {
      "id": "33029",
      "name": "Sprunki Master",
      "image": "https://img.gamemonetize.com/d81gftv0bjirnvsqazb705woirohi6id/512x384.jpg",
      "categoryId": 5
    },
    {
      "id": "32890",
      "name": "Sprunki Rage Stickman Incredibox",
      "image": "https://img.gamemonetize.com/m8x6penzlmav9y79ypzlw9i10usli9ld/512x384.jpg",
      "categoryId": 5
    },
    {
      "id": "32887",
      "name": "Tall Boss Run",
      "image": "https://img.gamemonetize.com/skiossve1c9yi6q6lewmovlmntq35iis/512x384.jpg",
      "categoryId": 5
    },
    {
      "id": "32672",
      "name": "Santa Stick",
      "image": "https://img.gamemonetize.com/08g52hfq31xhdc73b4dr3zm6254ci1lq/512x384.jpg",
      "categoryId": 5
    },
    {
      "id": "32586",
      "name": "Mob Control Shoot",
      "image": "https://img.gamemonetize.com/mak258eeak9s5x0um9vjkb0zqgx4m3pv/512x384.jpg",
      "categoryId": 5
    },
    {
      "id": "32457",
      "name": "Stick Archer Champion",
      "image": "https://img.gamemonetize.com/sau8efctplff566hb06hzx5jyhgu6xyd/512x384.jpg",
      "categoryId": 5
    },
    {
      "id": "32339",
      "name": "Draw Save Puzzle",
      "image": "https://img.gamemonetize.com/76kn0zqb9ti95c31997em839qaaq0bj2/512x384.jpg",
      "categoryId": 5
    },
    {
      "id": "32305",
      "name": "Stick Man Battle Fighting",
      "image": "https://img.gamemonetize.com/lyqrzmhsa4gdejjhe2c1fadi6uw6gaen/512x384.jpg",
      "categoryId": 5
    },
    {
      "id": "32304",
      "name": "Dont be angry with match man",
      "image": "https://img.gamemonetize.com/ab073sarz93hhpqep83h98auqq9o4yyf/512x384.jpg",
      "categoryId": 5
    },
    {
      "id": "31868",
      "name": "Stickman vs Zombies Minecraft",
      "image": "https://img.gamemonetize.com/bztju5apx957kapkxnzocq3au3f8kq3y/512x384.jpg",
      "categoryId": 5
    },
    {
      "id": "31840",
      "name": "Zombie Royale Io",
      "image": "https://img.gamemonetize.com/d3zex3l2rordlog1xeiq4id7521xskby/512x384.jpg",
      "categoryId": 5
    },
    {
      "id": "31823",
      "name": "City Run.io",
      "image": "https://img.gamemonetize.com/yffqin0i6g8wp9s0d2ceppd0nafsp15m/512x384.jpg",
      "categoryId": 5
    },
    {
      "id": "31819",
      "name": "Stickman The Flash",
      "image": "https://img.gamemonetize.com/qfh8jceadtfl6m0ilctnpy6elqpdp04p/512x384.jpg",
      "categoryId": 5
    },
    {
      "id": "31774",
      "name": "Wood Man Cutter",
      "image": "https://img.gamemonetize.com/9dn6qz1nr6ldwr082r4t7o55aeyo3owt/512x384.jpg",
      "categoryId": 5
    },
    {
      "id": "31716",
      "name": "Javelin Battle",
      "image": "https://img.gamemonetize.com/a006nqrea1p11ps579qsfeljddvark7m/512x384.jpg",
      "categoryId": 5
    },
    {
      "id": "31657",
      "name": "Party Games Mini Shooter Battle",
      "image": "https://img.gamemonetize.com/ss99whqqix1wim1twd1aq59xtdqw8iu5/512x384.jpg",
      "categoryId": 5
    },
    {
      "id": "31558",
      "name": "Princess Fashion Makeover",
      "image": "https://img.gamemonetize.com/sc9ejt7r48hraoupnzd2kw0smy7j8wvu/512x384.jpg",
      "categoryId": 5
    },
    {
      "id": "31493",
      "name": "Desert Jump",
      "image": "https://img.gamemonetize.com/i3ki8ewmijq0g4lwi8u8wstx5toljd0c/512x384.jpg",
      "categoryId": 5
    },
    {
      "id": "31470",
      "name": "Count Escape Rush",
      "image": "https://img.gamemonetize.com/f09c7w9y94ke2bn2nlisnx1l7ad1mc23/512x384.jpg",
      "categoryId": 5
    },
    {
      "id": "31456",
      "name": "Figher Stick Hero",
      "image": "https://img.gamemonetize.com/6is41jnk4xgxy8n18o6fkto7vasca5yj/512x384.jpg",
      "categoryId": 5
    },
    {
      "id": "31443",
      "name": "Pop It 3D Fidget Toy Maker",
      "image": "https://img.gamemonetize.com/1n2sqpxhwi08qaxtp8fu8tcpagguqu3y/512x384.jpg",
      "categoryId": 5
    }
  ]
}
