{
  "category": {
    "id": 5,
    "name": "Stickman",
    "alias": "stickman",
    "count": 300
  },
  "page": 10,
  "totalPages": 13,
  "totalItems": 300,
  "items": [
    {
      "id": "9826",
      "name": "Stickman Rope Hook : Catch And Swing",
      "image": "https://img.gamemonetize.com/s0q21zdnyhwjjova6bh4tg53y04xp4yi/512x384.jpg",
      "categoryId": 5
    },
    {
      "id": "9782",
      "name": "Batman Ninja Game Adventure - Gotham Knights",
      "image": "https://img.gamemonetize.com/hhllsv1o5qiysxq6pbv27jyudqdu475l/512x384.jpg",
      "categoryId": 5
    },
    {
      "id": "9758",
      "name": "hangman questions April",
      "image": "https://img.gamemonetize.com/sfrac3ii4u0e1jsji4n3xgkosfyvn6rg/512x384.jpg",
      "categoryId": 5
    },
    {
      "id": "9746",
      "name": "stickman vs zombies",
      "image": "https://img.gamemonetize.com/m7qycrdmphk8170y1gu2piopurle4tiq/512x384.jpg",
      "categoryId": 5
    },
    {
      "id": "9742",
      "name": "Color Snake 2",
      "image": "https://img.gamemonetize.com/6fap095wgmipvj0m0j1zryngixb6lces/512x384.jpg",
      "categoryId": 5
    },
    {
      "id": "9643",
      "name": "Stickman Dragon Legend Super Battle Fight",
      "image": "https://img.gamemonetize.com/xgw01prvacl7a2yohfmu0o1c29d51zbz/512x384.jpg",
      "categoryId": 5
    },
    {
      "id": "9615",
      "name": "Fill Juice Glass",
      "image": "https://img.gamemonetize.com/7r0lj319t1zkm4733fls9og6xhspxe04/512x384.jpg",
      "categoryId": 5
    },
    {
      "id": "9598",
      "name": "Stickman Rope Hook",
      "image": "https://img.gamemonetize.com/5e84vl1yt3qt1gy57p432a8uos5522o7/512x384.jpg",
      "categoryId": 5
    },
    {
      "id": "9451",
      "name": "Iron Man - Stickman Fight ",
      "image": "https://img.gamemonetize.com/p09ealu80klnmbghq4kniesy6s71dqk3/512x384.jpg",
      "categoryId": 5
    },
    {
      "id": "9445",
      "name": "Stickman Backflip Killer",
      "image": "https://img.gamemonetize.com/98r95qx89742pharpw9k8iseywsnz439/512x384.jpg",
      "categoryId": 5
    },
    {
      "id": "9434",
      "name": "slenderman kill 2",
      "image": "https://img.gamemonetize.com/iz3jcpjihv5w0jjx0psr6jukoehqra6a/512x384.jpg",
      "categoryId": 5
    },
    {
      "id": "9363",
      "name": "Stickman Samurai Katana",
      "image": "https://img.gamemonetize.com/enq339249k78j14l0uutkbh2q0v4j8ex/512x384.jpg",
      "categoryId": 5
    },
    {
      "id": "9349",
      "name": "Prison Escape Stickman",
      "image": "https://img.gamemonetize.com/p2lelfgxnuuoeofsvr5s62u969qiu2ej/512x384.jpg",
      "categoryId": 5
    },
    {
      "id": "9316",
      "name": "Drunken Table Wars ",
      "image": "https://img.gamemonetize.com/b21nrk7dyi3zw766vs5bh7rzd8sfmrvx/512x384.jpg",
      "categoryId": 5
    },
    {
      "id": "9168",
      "name": "Stickman VS StickMan Bullet shooting",
      "image": "https://img.gamemonetize.com/2qt527t3xctpvcfv0yw2mzibgikhex5h/512x384.jpg",
      "categoryId": 5
    },
    {
      "id": "9121",
      "name": "Dragon Shadow Super Hero Legend",
      "image": "https://img.gamemonetize.com/be4zxgtq0m98u4a99gq96a5tvhsc5ufh/512x384.jpg",
      "categoryId": 5
    },
    {
      "id": "9002",
      "name": "3 LINK KIDS",
      "image": "https://img.gamemonetize.com/zylxgr03e2uwz8d8l5zzybjhg50pclac/512x384.jpg",
      "categoryId": 5
    },
    {
      "id": "8885",
      "name": "BLOO KID 2",
      "image": "https://img.gamemonetize.com/yjult3xfcqnd7t6rnqb9z93w9u2101iy/512x384.jpg",
      "categoryId": 5
    },
    {
      "id": "8834",
      "name": "Super Heroes Finger",
      "image": "https://img.gamemonetize.com/6pgqqpii1mjr34k39obz7n3m6l0qacth/512x384.jpg",
      "categoryId": 5
    },
    {
      "id": "8833",
      "name": "Complete The Track",
      "image": "https://img.gamemonetize.com/bi1nxtd43h2ajujy9hav1dleq73qu455/512x384.jpg",
      "categoryId": 5
    },
    {
      "id": "8759",
      "name": "Stickman Dragon Ball Archero",
      "image": "https://img.gamemonetize.com/lp9n5zkybfgw4rxig707c2z7olvokri6/512x384.jpg",
      "categoryId": 5
    },
    {
      "id": "8744",
      "name": "Warriror Ragdoll ",
      "image": "https://img.gamemonetize.com/r80j9flew8xomr0frag50nsw2ewx3pxu/512x384.jpg",
      "categoryId": 5
    },
    {
      "id": "8623",
      "name": "Irresponsible Ninja 2",
      "image": "https://img.gamemonetize.com/vn9ofr5t2r1x7g86pjmvsg9os04iwxls/512x384.jpg",
      "categoryId": 5
    },
    {
      "id": "8370",
      "name": "stickman strike: shadow warriors",
      "image": "https://img.gamemonetize.com/1w4mzbwicipth2i7sbcao8juxtemt8lv/512x384.jpg",
      "categoryId": 5
    }
  ]
}
