{
  "category": {
    "id": 5,
    "name": "Stickman",
    "alias": "stickman",
    "count": 300
  },
  "page": 12,
  "totalPages": 13,
  "totalItems": 300,
  "items": [
    {
      "id": "5766",
      "name": "Battle Simulator: Counter Stickman",
      "image": "https://img.gamemonetize.com/xq2vnsqj92v2g5c3y8silywsg3bxiyyf/512x384.jpg",
      "categoryId": 5
    },
    {
      "id": "5761",
      "name": "Tanks attack!",
      "image": "https://img.gamemonetize.com/xmnk239e5g2rbwpa73pe0kwwucc1vn1t/512x384.jpg",
      "categoryId": 5
    },
    {
      "id": "5722",
      "name": "Stickman City Shooter",
      "image": "https://img.gamemonetize.com/uc6bb1ntki2ot5ngbq7f67mwp8d5339x/512x384.jpg",
      "categoryId": 5
    },
    {
      "id": "5364",
      "name": "Stickman Sports Badminton",
      "image": "https://img.gamemonetize.com/c6zx75jasrpsm0b6a4utgps07dxhs3h5/512x384.jpg",
      "categoryId": 5
    },
    {
      "id": "5030",
      "name": "Mr Spy 3D",
      "image": "https://img.gamemonetize.com/de8ye4lvl4wzc2ha890lzy3x46swazwn/512x384.jpg",
      "categoryId": 5
    },
    {
      "id": "4997",
      "name": "police Stick man Fighting Game",
      "image": "https://img.gamemonetize.com/xlqsy3lky21x6z6wzj2421yqihn3nr3l/512x384.jpg",
      "categoryId": 5
    },
    {
      "id": "4899",
      "name": "Stickman Bike Runner",
      "image": "https://img.gamemonetize.com/0zkh910goccyxzzy132k8cizu1chqclr/512x384.jpg",
      "categoryId": 5
    },
    {
      "id": "4750",
      "name": "StickMan Jump Fun",
      "image": "https://img.gamemonetize.com/3ry6hzrfc19f99l7nwnh0k15amamsmmv/512x384.jpg",
      "categoryId": 5
    },
    {
      "id": "4732",
      "name": "Stickman Fighting 2 Player",
      "image": "https://img.gamemonetize.com/xw8b7fhz3kobelvwy1zvvryy03lh18iy/512x384.jpg",
      "categoryId": 5
    },
    {
      "id": "4430",
      "name": "Stickman Neon Warriors: Sword Fighting",
      "image": "https://img.gamemonetize.com/iyei6rf0ssd8g0plsiw41befnl0foof7/512x384.jpg",
      "categoryId": 5
    },
    {
      "id": "4227",
      "name": "Stickman Police VS Gangsters Street Fight",
      "image": "https://img.gamemonetize.com/r8r1f4ujb3xn758fhslv42c9vv0o6oqx/512x384.jpg",
      "categoryId": 5
    },
    {
      "id": "4194",
      "name": "Stickman Sniper 3D",
      "image": "https://img.gamemonetize.com/t708ya7vk969h80uv3mi7hd296mhykir/512x384.jpg",
      "categoryId": 5
    },
    {
      "id": "4113",
      "name": "Stickman Fighting 3D",
      "image": "https://img.gamemonetize.com/pnlvbjavslmuh2qvcbymodsbpwybce91/512x384.jpg",
      "categoryId": 5
    },
    {
      "id": "3673",
      "name": "Stickman Run: Shadow Adventure",
      "image": "https://img.gamemonetize.com/jq12638mn4qzb6631gfg8ksn7rnk82ks/512x384.jpg",
      "categoryId": 5
    },
    {
      "id": "3429",
      "name": "Stickman Run",
      "image": "https://img.gamemonetize.com/x4ro0pdbh1la57jn39kbju3qxcd44jb2/512x384.jpg",
      "categoryId": 5
    },
    {
      "id": "3012",
      "name": "Sniper Shot 3D",
      "image": "https://img.gamemonetize.com/rweudmo4b1aj1yt8mx0xkcfgc4lhhnn9/512x384.jpg",
      "categoryId": 5
    },
    {
      "id": "2960",
      "name": "Ragdoll Physics",
      "image": "https://img.gamemonetize.com/6t6lb5ayvfr47ejoxasgb2t0ur2mvfe1/512x384.jpg",
      "categoryId": 5
    },
    {
      "id": "2875",
      "name": "Stickman Zombie 3D",
      "image": "https://img.gamemonetize.com/w7pel9e6qj8iuoouohapgp2dzk3zcpd8/512x384.jpg",
      "categoryId": 5
    },
    {
      "id": "2816",
      "name": "Killer City",
      "image": "https://img.gamemonetize.com/i13i9qs9e7mmpzpv5bxnhdwyfszm5mso/512x384.jpg",
      "categoryId": 5
    },
    {
      "id": "2752",
      "name": "Stickman Tennis 3D",
      "image": "https://img.gamemonetize.com/2u8d0464psswc2s9sik8sl0g8uizbxkd/512x384.jpg",
      "categoryId": 5
    },
    {
      "id": "2685",
      "name": "Toilet Rush 2",
      "image": "https://img.gamemonetize.com/uu3nllu760qcv3ylk4ts9wd0ugiiihqc/512x384.jpg",
      "categoryId": 5
    },
    {
      "id": "2498",
      "name": "Stickman Street Fighting",
      "image": "https://img.gamemonetize.com/1eaqreng04kywpopd6bayxb6fedhq6mr/512x384.jpg",
      "categoryId": 5
    },
    {
      "id": "2455",
      "name": "Stickman Simulator: Final Battle!!",
      "image": "https://img.gamemonetize.com/h0evomipes1po2zkz5zhp9fn7e7yu3fc/512x384.jpg",
      "categoryId": 5
    },
    {
      "id": "2348",
      "name": "Stickman Crash",
      "image": "https://img.gamemonetize.com/u2zbs0rhlvi3g1wc5zs63veshbb6yons/512x384.jpg",
      "categoryId": 5
    }
  ]
}
