{
  "category": {
    "id": 5,
    "name": "Stickman",
    "alias": "stickman",
    "count": 300
  },
  "page": 5,
  "totalPages": 13,
  "totalItems": 300,
  "items": [
    {
      "id": "22328",
      "name": "Stickman Bridge Constructor",
      "image": "https://img.gamemonetize.com/yhxbomastpavyk2shmrp2pdo3wpsxoea/512x384.jpg",
      "categoryId": 5
    },
    {
      "id": "22180",
      "name": "Stickman Duel Battle",
      "image": "https://img.gamemonetize.com/3rk4otwaf8um65l46h1w1ot6s3jw9n9u/512x384.jpg",
      "categoryId": 5
    },
    {
      "id": "21596",
      "name": "Stickman Sniper : Tap To Kill",
      "image": "https://img.gamemonetize.com/t2rb13zf55lngb76b1xbqrk9164xzkci/512x384.jpg",
      "categoryId": 5
    },
    {
      "id": "21345",
      "name": "Stickman Killer: Top gun Shots",
      "image": "https://img.gamemonetize.com/3iguufxew1w7kbzroz77yv9r2mrap7fe/512x384.jpg",
      "categoryId": 5
    },
    {
      "id": "21279",
      "name": "Stickman Fighter Training Camp",
      "image": "https://img.gamemonetize.com/l32hwgcoe7hwdg7eh4iij67059amfpzg/512x384.jpg",
      "categoryId": 5
    },
    {
      "id": "21278",
      "name": "Stickman Boxing KO Champion",
      "image": "https://img.gamemonetize.com/6tmp9phczxm9yfyona4ntvjrnvd70huc/512x384.jpg",
      "categoryId": 5
    },
    {
      "id": "20792",
      "name": "Stickman Boxing KO",
      "image": "https://img.gamemonetize.com/dmzl9eimmp3oubqzq2ses7kh0rda9sbp/512x384.jpg",
      "categoryId": 5
    },
    {
      "id": "20735",
      "name": "Stickman Fighter: Epic Battle",
      "image": "https://img.gamemonetize.com/p27n60wut6rqymgjr3um08eoy0cg3ru6/512x384.jpg",
      "categoryId": 5
    },
    {
      "id": "20732",
      "name": "Ragdoll Heroes War",
      "image": "https://img.gamemonetize.com/h5e7v7g9nrzukc410sepq1nll5gpvuun/512x384.jpg",
      "categoryId": 5
    },
    {
      "id": "20245",
      "name": "Doddle Warrior 2D",
      "image": "https://img.gamemonetize.com/vspsvzchmktsvp89x26dc7u039cq0hx7/512x384.jpg",
      "categoryId": 5
    },
    {
      "id": "20175",
      "name": "StickMan Fly",
      "image": "https://img.gamemonetize.com/4ywlg1t7p7auy29j5340wuqfttu763o0/512x384.jpg",
      "categoryId": 5
    },
    {
      "id": "20136",
      "name": "Serious Stickness",
      "image": "https://img.gamemonetize.com/6ig9ljcov6odvhvd46nbp42bcoq8unfa/512x384.jpg",
      "categoryId": 5
    },
    {
      "id": "19974",
      "name": "Stickman Shadow Fighter",
      "image": "https://img.gamemonetize.com/r8bnwrkp0ne1lu6nqnc6h0m61gei9ttu/512x384.jpg",
      "categoryId": 5
    },
    {
      "id": "19827",
      "name": "456 Minimal Bubble Shooter",
      "image": "https://img.gamemonetize.com/38mkqmjp4j4dcznqgqs0084iosnvzvcd/512x384.jpg",
      "categoryId": 5
    },
    {
      "id": "19654",
      "name": "Stickman vs Aliens",
      "image": "https://img.gamemonetize.com/r7drhkl4vp5ip0107pz9rtd6qgb9hp5t/512x384.jpg",
      "categoryId": 5
    },
    {
      "id": "19569",
      "name": "Stickman Dragon Ball Fight - Super Stick Warriors",
      "image": "https://img.gamemonetize.com/f0hbsg1m7jfual8m1e8gtwqmu286chsr/512x384.jpg",
      "categoryId": 5
    },
    {
      "id": "19471",
      "name": "Spy Shot Laser Bounce",
      "image": "https://img.gamemonetize.com/9e2ca7f45zgk7nqcybwxtr771qo0rhgw/512x384.jpg",
      "categoryId": 5
    },
    {
      "id": "19305",
      "name": "Stick War Adventure",
      "image": "https://img.gamemonetize.com/47exn8zffr5x2qqbq83ywfcbsk60q4sz/512x384.jpg",
      "categoryId": 5
    },
    {
      "id": "18812",
      "name": "Stickman Archer",
      "image": "https://img.gamemonetize.com/a4aoxbnnozyaokbtif3wpdaho9ymoe7t/512x384.jpg",
      "categoryId": 5
    },
    {
      "id": "18689",
      "name": "Stickman City Battle",
      "image": "https://img.gamemonetize.com/ycr80m0r7urjhq8rnjh6f00oi4s8gvug/512x384.jpg",
      "categoryId": 5
    },
    {
      "id": "18582",
      "name": "Tactical Squad Stickman",
      "image": "https://img.gamemonetize.com/3x78cxj7rteyfv6l4fo0m104tee36dtk/512x384.jpg",
      "categoryId": 5
    },
    {
      "id": "18275",
      "name": "Army The Resistance",
      "image": "https://img.gamemonetize.com/z5lfi4ddwo5brn4saghigc5oonpkpktv/512x384.jpg",
      "categoryId": 5
    },
    {
      "id": "18246",
      "name": " Stickman Ping Pong Match",
      "image": "https://img.gamemonetize.com/nrvq1ezin78m7vtbhiebwlobtbzrwji3/512x384.jpg",
      "categoryId": 5
    },
    {
      "id": "17762",
      "name": "Avoid You Dying",
      "image": "https://img.gamemonetize.com/yizrneany65nygcz9q3f9o25exoa480a/512x384.jpg",
      "categoryId": 5
    }
  ]
}
