{
  "category": {
    "id": 5,
    "name": "Stickman",
    "alias": "stickman",
    "count": 300
  },
  "page": 7,
  "totalPages": 13,
  "totalItems": 300,
  "items": [
    {
      "id": "15374",
      "name": "Stickman Shooter 3 Among Monsters",
      "image": "https://img.gamemonetize.com/2lr8r7zgvsgccdenhk1a62oeuzzz5lqe/512x384.jpg",
      "categoryId": 5
    },
    {
      "id": "15330",
      "name": "Stickman Climb",
      "image": "https://img.gamemonetize.com/p119i9rb086uekl7rfh6alonr8o2dyj2/512x384.jpg",
      "categoryId": 5
    },
    {
      "id": "15039",
      "name": "Archer Peerless.io",
      "image": "https://img.gamemonetize.com/m1pic4ayty2tp1p2uyatyrx1e9uesgsg/512x384.jpg",
      "categoryId": 5
    },
    {
      "id": "15037",
      "name": "Crowd Pull Rope",
      "image": "https://img.gamemonetize.com/1mhi67ozg4ycdxwtnr6vpzs46h5caez4/512x384.jpg",
      "categoryId": 5
    },
    {
      "id": "15036",
      "name": "Hulk Smash Breaker wall",
      "image": "https://img.gamemonetize.com/6e72e041n8nq1biykx2m0ywjte2so8nu/512x384.jpg",
      "categoryId": 5
    },
    {
      "id": "14899",
      "name": "Stickman Shadow Hero",
      "image": "https://img.gamemonetize.com/vo752qw0gt9a77j0e8sfkm5wso4vun4d/512x384.jpg",
      "categoryId": 5
    },
    {
      "id": "14770",
      "name": "My dolphin show - game",
      "image": "https://img.gamemonetize.com/30xan59o1vddqirxpux9732ovug7z5az/512x384.jpg",
      "categoryId": 5
    },
    {
      "id": "14722",
      "name": "Stickman Escape Parkour",
      "image": "https://img.gamemonetize.com/ts7y4ik94if0lj7khxbt147a4oihslcl/512x384.jpg",
      "categoryId": 5
    },
    {
      "id": "14616",
      "name": "Shadow Archers",
      "image": "https://img.gamemonetize.com/4t5ud1unv0v4z6o106i7dk2xrck4prir/512x384.jpg",
      "categoryId": 5
    },
    {
      "id": "14583",
      "name": "Bubble Shooter - puzzle",
      "image": "https://img.gamemonetize.com/6lfjdkrujhim8t417hsjv8r9a18f9yfo/512x384.jpg",
      "categoryId": 5
    },
    {
      "id": "14410",
      "name": "Punch Hero Master",
      "image": "https://img.gamemonetize.com/dk4tz5fcurlt6jecq2m478kmuqbnn4zs/512x384.jpg",
      "categoryId": 5
    },
    {
      "id": "14281",
      "name": "Ninja Stick",
      "image": "https://img.gamemonetize.com/ug562lbaywh1th7dwbek2qaxu3hybyal/512x384.jpg",
      "categoryId": 5
    },
    {
      "id": "14227",
      "name": "Stickman Peacekeeper",
      "image": "https://img.gamemonetize.com/xfw5cdy6ksg3r0z9wd54iiyw731mx565/512x384.jpg",
      "categoryId": 5
    },
    {
      "id": "14198",
      "name": "Mr Stickman",
      "image": "https://img.gamemonetize.com/jndurw3pmdos9ehy9ca8jmwepxlkh0ja/512x384.jpg",
      "categoryId": 5
    },
    {
      "id": "14128",
      "name": "Stickman Street Fight",
      "image": "https://img.gamemonetize.com/vnl2say6v42wgl1g140h0j9a8aiawe8o/512x384.jpg",
      "categoryId": 5
    },
    {
      "id": "14073",
      "name": "Stickman Archer 4",
      "image": "https://img.gamemonetize.com/ygn25doepay8cbhkuqr2wg9xwr9rnyxm/512x384.jpg",
      "categoryId": 5
    },
    {
      "id": "14019",
      "name": "Sniper Trigger Revenge",
      "image": "https://img.gamemonetize.com/ypkr83xou762l59mbcuopkxrhwwwulcl/512x384.jpg",
      "categoryId": 5
    },
    {
      "id": "13947",
      "name": "Funny Ragdoll Wrestlers",
      "image": "https://img.gamemonetize.com/jds5fxchg40of8edr3ho3qhwpo703p9x/512x384.jpg",
      "categoryId": 5
    },
    {
      "id": "13933",
      "name": "Stickman Gun Battle Simulator",
      "image": "https://img.gamemonetize.com/vty93a9n4siz0l29etq402p3ktq5zmdj/512x384.jpg",
      "categoryId": 5
    },
    {
      "id": "13879",
      "name": "Stickman Merge 2",
      "image": "https://img.gamemonetize.com/0enartbxbeoct0y3pt4c3ffy1v5gks1l/512x384.jpg",
      "categoryId": 5
    },
    {
      "id": "13819",
      "name": "Stickman Jigsaw",
      "image": "https://img.gamemonetize.com/fwbs1xo9ta2w0bafkkfppcnds3eq1mns/512x384.jpg",
      "categoryId": 5
    },
    {
      "id": "13814",
      "name": "Stickman Tower Defender",
      "image": "https://img.gamemonetize.com/gtaprsmat7o4o6vkg3unma7vxbw1w7dg/512x384.jpg",
      "categoryId": 5
    },
    {
      "id": "13804",
      "name": "Wheelie Ride",
      "image": "https://img.gamemonetize.com/brupr143ni1os34nbmk1bgobvwxfpcwv/512x384.jpg",
      "categoryId": 5
    },
    {
      "id": "13802",
      "name": "Stick Fight The Game",
      "image": "https://img.gamemonetize.com/hqjf5yakd0qajttjzydupbno3illn68t/512x384.jpg",
      "categoryId": 5
    }
  ]
}
