{
  "category": {
    "id": 5,
    "name": "Stickman",
    "alias": "stickman",
    "count": 300
  },
  "page": 9,
  "totalPages": 13,
  "totalItems": 300,
  "items": [
    {
      "id": "11812",
      "name": "Stickman Shadow Ninja Force",
      "image": "https://img.gamemonetize.com/dzu7wgkcldljvgh37v2kqqhnjedtu4g7/512x384.jpg",
      "categoryId": 5
    },
    {
      "id": "11336",
      "name": "Stickman Incredible Monster Hero City Fight",
      "image": "https://img.gamemonetize.com/4519hb3heq708m9y2j5yy32qj7xsf74j/512x384.jpg",
      "categoryId": 5
    },
    {
      "id": "11290",
      "name": "WATER FLOW",
      "image": "https://img.gamemonetize.com/hhnbpg76uvlj0v25b7q8l9tlcrpnbfvt/512x384.jpg",
      "categoryId": 5
    },
    {
      "id": "11239",
      "name": "Classic",
      "image": "https://img.gamemonetize.com/b1xhs9srby4hvh2r1kjeh5lns7hhehqp/512x384.jpg",
      "categoryId": 5
    },
    {
      "id": "11219",
      "name": "Stickman Bike",
      "image": "https://img.gamemonetize.com/oeidb57q5fuk7k4h5eh9wy3ql6e5ru7g/512x384.jpg",
      "categoryId": 5
    },
    {
      "id": "10956",
      "name": "ZombieShooter",
      "image": "https://img.gamemonetize.com/6xtkqsfxltm8jmkmqnzn65i83iwjb3yh/512x384.jpg",
      "categoryId": 5
    },
    {
      "id": "10938",
      "name": "FNAF piano tiles",
      "image": "https://img.gamemonetize.com/t0zn7b0ekbzutts01kemoqtzvg8dqodk/512x384.jpg",
      "categoryId": 5
    },
    {
      "id": "10916",
      "name": "Flip Spider-Man Hero - Spderman Hook Online Games",
      "image": "https://img.gamemonetize.com/ce9aw4d0l12vp74nwaqcxgr6cfk1a76n/512x384.jpg",
      "categoryId": 5
    },
    {
      "id": "10805",
      "name": "Wingsuit Stickman",
      "image": "https://img.gamemonetize.com/hwbdvp0nmxtqnexdy2n5say08jdj8ldp/512x384.jpg",
      "categoryId": 5
    },
    {
      "id": "10764",
      "name": "Fidget Spinner Master Game",
      "image": "https://img.gamemonetize.com/k1z54y1cla9gogv8s6dvh64g5mo0ho62/512x384.jpg",
      "categoryId": 5
    },
    {
      "id": "10706",
      "name": "Stack Master!",
      "image": "https://img.gamemonetize.com/qpr5whf8qeqad821vbltj7qclfbm38zt/512x384.jpg",
      "categoryId": 5
    },
    {
      "id": "10599",
      "name": "Draw Rider Free - Top Bike Stickman Racing Games",
      "image": "https://img.gamemonetize.com/y3k63kz1i7a09u1elyvul94nwp2sh73f/512x384.jpg",
      "categoryId": 5
    },
    {
      "id": "10558",
      "name": "Sunset Bike Racer - Motocross Game",
      "image": "https://img.gamemonetize.com/u9hj2yjkvs8olk7vg4q8gthe98myv56p/512x384.jpg",
      "categoryId": 5
    },
    {
      "id": "10361",
      "name": "Word.Puzzle.Search",
      "image": "https://img.gamemonetize.com/mjo2zxicdr3hs3w4t95gvx15augt3e8q/512x384.jpg",
      "categoryId": 5
    },
    {
      "id": "10342",
      "name": "Robin Hook (Spiderman Edition)",
      "image": "https://img.gamemonetize.com/3wcnzdcy1kwntl8v273u65k109psixil/512x384.jpg",
      "categoryId": 5
    },
    {
      "id": "10292",
      "name": "Dentist.Master",
      "image": "https://img.gamemonetize.com/9emeshsq8px3xrnoq674i574uykedu1n/512x384.jpg",
      "categoryId": 5
    },
    {
      "id": "10221",
      "name": "Hangram",
      "image": "https://img.gamemonetize.com/jvwtf6um2neijb9hl7qr9nr3czl3jlh3/512x384.jpg",
      "categoryId": 5
    },
    {
      "id": "10210",
      "name": "Game Clash of Viking",
      "image": "https://img.gamemonetize.com/9etr0k3j53uzn4zekqreddhpcopqns2x/512x384.jpg",
      "categoryId": 5
    },
    {
      "id": "10208",
      "name": "monster run 2",
      "image": "https://img.gamemonetize.com/e92cng1nt012xfpz1vgeyr0hrxww2vkh/512x384.jpg",
      "categoryId": 5
    },
    {
      "id": "10085",
      "name": "Light It Up - ninja Jump Up",
      "image": "https://img.gamemonetize.com/91q2e9v8rszvfwmdnc7re6etgfwfskq1/512x384.jpg",
      "categoryId": 5
    },
    {
      "id": "10056",
      "name": "Sanctuary Rescue Plan",
      "image": "https://img.gamemonetize.com/27g4fhy0qft8gu9mdgk4p0hp0ez2lg9n/512x384.jpg",
      "categoryId": 5
    },
    {
      "id": "9917",
      "name": "Super hero hook ",
      "image": "https://img.gamemonetize.com/783nkq8duj1b4f5i824ac07q9mizcs0j/512x384.jpg",
      "categoryId": 5
    },
    {
      "id": "9895",
      "name": "Naruto Flip Game Adventure - Endless Hook Online",
      "image": "https://img.gamemonetize.com/trgtsl0el5lz7gyimf550d2bvws2172u/512x384.jpg",
      "categoryId": 5
    },
    {
      "id": "9894",
      "name": "Naruto: Shippuden Flip Game - Endless Hook Online",
      "image": "https://img.gamemonetize.com/aweys3im1ropdh8fggheiq2sxxvjifgs/512x384.jpg",
      "categoryId": 5
    }
  ]
}
