{
  "category": {
    "id": 1,
    "name": "Action",
    "alias": "action",
    "count": 300
  },
  "page": 10,
  "totalPages": 13,
  "totalItems": 300,
  "items": [
    {
      "id": "28895",
      "name": "Car Racing: 3D Drive Mad",
      "image": "https://img.gamemonetize.com/u92w5m8oarc9vrcbaya824qonh7lgij3/512x384.jpg",
      "categoryId": 1
    },
    {
      "id": "28894",
      "name": "Skibidi Toilet Friends",
      "image": "https://img.gamemonetize.com/jvgcmyn4aqpf23w7gmww6x8cdo9nzefi/512x384.jpg",
      "categoryId": 1
    },
    {
      "id": "28846",
      "name": "Bus Parking Cityscape Depot",
      "image": "https://img.gamemonetize.com/q1njcj2p3xvtvvd5zw5nm4lj2mig6871/512x384.jpg",
      "categoryId": 1
    },
    {
      "id": "28833",
      "name": "Deads On The Road",
      "image": "https://img.gamemonetize.com/vlu85s3libx4w9xxlda5rwtktzu1g8hg/512x384.jpg",
      "categoryId": 1
    },
    {
      "id": "28796",
      "name": "Parking Supercar Unlocking Skills",
      "image": "https://img.gamemonetize.com/b2en4jdgzx3qhbtnt2l9pbtvgnagg3ps/512x384.jpg",
      "categoryId": 1
    },
    {
      "id": "28773",
      "name": "Garten Of Rainbow Monsters",
      "image": "https://img.gamemonetize.com/5mv8c9ym2sod7trmhxna4818oyf0auxb/512x384.jpg",
      "categoryId": 1
    },
    {
      "id": "28764",
      "name": "Fight Bros",
      "image": "https://img.gamemonetize.com/c0z600ozef8ao5r4r4d3nh5mzgsnab3n/512x384.jpg",
      "categoryId": 1
    },
    {
      "id": "28763",
      "name": "They Are Coming 3D Game",
      "image": "https://img.gamemonetize.com/v3hg782f33e4eze3aivitkli2qz8cmh8/512x384.jpg",
      "categoryId": 1
    },
    {
      "id": "28743",
      "name": "Noob Shooter Zombie",
      "image": "https://img.gamemonetize.com/88m7kpxmeiot3pk2m0knnzk1kfxfoion/512x384.jpg",
      "categoryId": 1
    },
    {
      "id": "28742",
      "name": "Shortcut Race Game",
      "image": "https://img.gamemonetize.com/ri07xc9oo8zl64wz6bf5fihult0o5eqz/512x384.jpg",
      "categoryId": 1
    },
    {
      "id": "28734",
      "name": "Skibidi Toilet Maze",
      "image": "https://img.gamemonetize.com/oha7j6w9safr5whk73kmo567mtveip5t/512x384.jpg",
      "categoryId": 1
    },
    {
      "id": "28711",
      "name": "Zombie Area",
      "image": "https://img.gamemonetize.com/9n6r71bt2anodx733obqb4rtfvqi8byl/512x384.jpg",
      "categoryId": 1
    },
    {
      "id": "28710",
      "name": "Realistic Wheelbarrow",
      "image": "https://img.gamemonetize.com/bbxkyuh2uii2h15ex5lyv50qvxlbrpn7/512x384.jpg",
      "categoryId": 1
    },
    {
      "id": "28679",
      "name": "Zombie Day",
      "image": "https://img.gamemonetize.com/auoime421spx19so4r9bvghillz15sm8/512x384.jpg",
      "categoryId": 1
    },
    {
      "id": "28637",
      "name": "Police Supercar Parking Mania",
      "image": "https://img.gamemonetize.com/4g9mk8my1dstafnobami3xqn53ttnxms/512x384.jpg",
      "categoryId": 1
    },
    {
      "id": "28611",
      "name": "Tank War   Two Player ",
      "image": "https://img.gamemonetize.com/8d4lepf0zxvoc52dn8lrrccdie38t5ic/512x384.jpg",
      "categoryId": 1
    },
    {
      "id": "28602",
      "name": "Recoil Arena 1VS1",
      "image": "https://img.gamemonetize.com/762l0g0flcv0pufi9gh4b1rd1j9zin4k/512x384.jpg",
      "categoryId": 1
    },
    {
      "id": "28599",
      "name": "Monster Squid Survival",
      "image": "https://img.gamemonetize.com/a2q5eyrlp7zuinrksifmql9fcaghq8jj/512x384.jpg",
      "categoryId": 1
    },
    {
      "id": "28484",
      "name": "Knock Balls PRO",
      "image": "https://img.gamemonetize.com/dl90plk5qyup0nwzox437yil0bbncji5/512x384.jpg",
      "categoryId": 1
    },
    {
      "id": "28466",
      "name": "Crazy Miner",
      "image": "https://img.gamemonetize.com/gn6om0ebybhkh9g36owmr7yvnhllqlzk/512x384.jpg",
      "categoryId": 1
    },
    {
      "id": "28396",
      "name": "Special Agent",
      "image": "https://img.gamemonetize.com/hvcecbmcxlgv5wx174dhsv3iqqte8xzr/512x384.jpg",
      "categoryId": 1
    },
    {
      "id": "28367",
      "name": "Castel Wars Modern",
      "image": "https://img.gamemonetize.com/rw5k5ekk03iec3i23ltx15t6xyxwtsj7/512x384.jpg",
      "categoryId": 1
    },
    {
      "id": "28366",
      "name": "Zombie Mission 13",
      "image": "https://img.gamemonetize.com/6q98zdles0q633z6v6nq6lkafaqmvxk3/512x384.jpg",
      "categoryId": 1
    },
    {
      "id": "28314",
      "name": "Killer Brothers Shoot",
      "image": "https://img.gamemonetize.com/xxecmlhx12mqfm0dmghjq192ap3jnels/512x384.jpg",
      "categoryId": 1
    }
  ]
}
