{
  "category": {
    "id": 1,
    "name": "Action",
    "alias": "action",
    "count": 300
  },
  "page": 11,
  "totalPages": 13,
  "totalItems": 300,
  "items": [
    {
      "id": "28233",
      "name": "NabNab Imposter",
      "image": "https://img.gamemonetize.com/w1voyhhgd4z7kgx9e4aid2iwjsr0qjec/512x384.jpg",
      "categoryId": 1
    },
    {
      "id": "28222",
      "name": "155 Police Dragon Panzer Drive",
      "image": "https://img.gamemonetize.com/l3axzdhmojpazkbj2cngt8l91gaf32ve/512x384.jpg",
      "categoryId": 1
    },
    {
      "id": "28165",
      "name": "Tri Achnid",
      "image": "https://img.gamemonetize.com/nd9piv269z3dzilndqmv8dka11yyr11q/512x384.jpg",
      "categoryId": 1
    },
    {
      "id": "28164",
      "name": "Blumgi Slime Jump Game",
      "image": "https://img.gamemonetize.com/gvpbnor2tt5g4ww5kzwvumobrij83cq4/512x384.jpg",
      "categoryId": 1
    },
    {
      "id": "28126",
      "name": "War Lands 2",
      "image": "https://img.gamemonetize.com/oljjmrqt012pa246cjetkvm1natym9ia/512x384.jpg",
      "categoryId": 1
    },
    {
      "id": "28125",
      "name": "Furious Soldier 2",
      "image": "https://img.gamemonetize.com/472hspapj0lxuu92tik08vbtqcurhs1d/512x384.jpg",
      "categoryId": 1
    },
    {
      "id": "28107",
      "name": "Mad GunZ Online Game ",
      "image": "https://img.gamemonetize.com/yyalqiiv14u7gd3c1jx14xdw6yfyqcip/512x384.jpg",
      "categoryId": 1
    },
    {
      "id": "28065",
      "name": "Doomsday shooter",
      "image": "https://img.gamemonetize.com/umrlvtu0w3ipioz6kk026p4ep09cv72i/512x384.jpg",
      "categoryId": 1
    },
    {
      "id": "28008",
      "name": "Art of War",
      "image": "https://img.gamemonetize.com/qgtwou637cbipjd1klwhi4hqnnjszkme/512x384.jpg",
      "categoryId": 1
    },
    {
      "id": "27983",
      "name": "Police Evolution Idle",
      "image": "https://img.gamemonetize.com/gefwpdcmo9m45ee82wcduxketbs325c5/512x384.jpg",
      "categoryId": 1
    },
    {
      "id": "27851",
      "name": "Wall Kickers",
      "image": "https://img.gamemonetize.com/c8ipumojsd6jlqeo5uuebqq3c9rgzc2t/512x384.jpg",
      "categoryId": 1
    },
    {
      "id": "27842",
      "name": "Zombie Defense GO",
      "image": "https://img.gamemonetize.com/j8ig43vouu9d4efw843psfv68vpuj2e6/512x384.jpg",
      "categoryId": 1
    },
    {
      "id": "27800",
      "name": "Undisputed MMA",
      "image": "https://img.gamemonetize.com/z44n1kw2x4acsiywbs5tjpgmh11rgfsd/512x384.jpg",
      "categoryId": 1
    },
    {
      "id": "27770",
      "name": "Quadcopter FX Simulator",
      "image": "https://img.gamemonetize.com/f8neovy0y1ul7c83s21eywntu92hxlge/512x384.jpg",
      "categoryId": 1
    },
    {
      "id": "27683",
      "name": "Merge Master: Merge Poppy",
      "image": "https://img.gamemonetize.com/vedqr40pw3qzjkligvckg199rxqgk3ak/512x384.jpg",
      "categoryId": 1
    },
    {
      "id": "27667",
      "name": "Fashion Zombies",
      "image": "https://img.gamemonetize.com/8rey9somdz5hkxazkkray9402ko8djbd/512x384.jpg",
      "categoryId": 1
    },
    {
      "id": "27662",
      "name": "Stealing the Diamond",
      "image": "https://img.gamemonetize.com/czbprybj2u58l36092j6ba6hs1jo2220/512x384.jpg",
      "categoryId": 1
    },
    {
      "id": "27657",
      "name": "Kickin it old School",
      "image": "https://img.gamemonetize.com/1y26ayznapzwgr008pgp4z46isfyjg02/512x384.jpg",
      "categoryId": 1
    },
    {
      "id": "27655",
      "name": "Whack Your Boss",
      "image": "https://img.gamemonetize.com/rdo1rokdiqfmgwtg1on0mrrrxq3sal2y/512x384.jpg",
      "categoryId": 1
    },
    {
      "id": "27634",
      "name": "Gun Fest Blast",
      "image": "https://img.gamemonetize.com/m8vuboqgy1k52vmrgqb2icwqi87h9zdq/512x384.jpg",
      "categoryId": 1
    },
    {
      "id": "27571",
      "name": "Greedy frog",
      "image": "https://img.gamemonetize.com/x7geqst6f6c477ylcmibsmjmpbc11mv2/512x384.jpg",
      "categoryId": 1
    },
    {
      "id": "27570",
      "name": "Super Archer fun",
      "image": "https://img.gamemonetize.com/iqz8ya4c0yu1f5bhvn7a9afx392p3ec5/512x384.jpg",
      "categoryId": 1
    },
    {
      "id": "27569",
      "name": "The strongest boxer",
      "image": "https://img.gamemonetize.com/8xwc0qmla9qi1s9f9rvx6zt9j0ds2dlz/512x384.jpg",
      "categoryId": 1
    },
    {
      "id": "27568",
      "name": "Battlefield conflict",
      "image": "https://img.gamemonetize.com/5x1ls8rfaqtnjfl4ie7drrv6wob27kzn/512x384.jpg",
      "categoryId": 1
    }
  ]
}
