{
  "category": {
    "id": 1,
    "name": "Action",
    "alias": "action",
    "count": 300
  },
  "page": 12,
  "totalPages": 13,
  "totalItems": 300,
  "items": [
    {
      "id": "27567",
      "name": "Archery cowboy",
      "image": "https://img.gamemonetize.com/8e2uboysjrvg610vm8j6d4ojw5u79emw/512x384.jpg",
      "categoryId": 1
    },
    {
      "id": "27565",
      "name": "Crazy bike fun",
      "image": "https://img.gamemonetize.com/ym5taplyepdcw1dsk689mm7v1vvlghtc/512x384.jpg",
      "categoryId": 1
    },
    {
      "id": "27564",
      "name": "Running chicken",
      "image": "https://img.gamemonetize.com/3953bz5scqmb8kvruom72s4ez17kq1r6/512x384.jpg",
      "categoryId": 1
    },
    {
      "id": "27560",
      "name": "The king of war",
      "image": "https://img.gamemonetize.com/1u5n9u5ptgpn5j1u5l2rct4cdi2vdeni/512x384.jpg",
      "categoryId": 1
    },
    {
      "id": "27558",
      "name": "Cast iron sword",
      "image": "https://img.gamemonetize.com/7lw270vciarnaoitguk6tkromyq3q80q/512x384.jpg",
      "categoryId": 1
    },
    {
      "id": "27556",
      "name": "Bus Parking Simulator Online",
      "image": "https://img.gamemonetize.com/ffpf197dio6ysag7v10k6mg8e1zzwwip/512x384.jpg",
      "categoryId": 1
    },
    {
      "id": "27494",
      "name": "Ultimate Hero Clash 2",
      "image": "https://img.gamemonetize.com/usw5g0vhzsknc0hwbs9848ow9ou3fb0e/512x384.jpg",
      "categoryId": 1
    },
    {
      "id": "27484",
      "name": "155 Riot Control-(Riot Police)",
      "image": "https://img.gamemonetize.com/ad5trvjdq9t3uen55vd4qowlul4l6lvy/512x384.jpg",
      "categoryId": 1
    },
    {
      "id": "27474",
      "name": "Truck Transport",
      "image": "https://img.gamemonetize.com/2xmah9fs3tksr65a9u48mebmz3dfdb3a/512x384.jpg",
      "categoryId": 1
    },
    {
      "id": "27470",
      "name": "Ultimate Hero Clash!",
      "image": "https://img.gamemonetize.com/d3q0env6e78mzpnk09mh87by4tefdtk9/512x384.jpg",
      "categoryId": 1
    },
    {
      "id": "27433",
      "name": "Roller Ball 3D Fidget",
      "image": "https://img.gamemonetize.com/hbp4liecpwkf4g994tjmy0pa7nz36xa0/512x384.jpg",
      "categoryId": 1
    },
    {
      "id": "27428",
      "name": "axe castle",
      "image": "https://img.gamemonetize.com/f7c2foeivusa5h2cf6obae19oq1cp9a1/512x384.jpg",
      "categoryId": 1
    },
    {
      "id": "27388",
      "name": "Dad n Me",
      "image": "https://img.gamemonetize.com/mvvyuy94ue42hbol2mpfagcytxteg6be/512x384.jpg",
      "categoryId": 1
    },
    {
      "id": "27386",
      "name": "Avatar the Last Airbender",
      "image": "https://img.gamemonetize.com/67m3h9bf8jppt9tw6twy691ly41j6r3v/512x384.jpg",
      "categoryId": 1
    },
    {
      "id": "27376",
      "name": "Dress Up Celebrity",
      "image": "https://img.gamemonetize.com/wdd97x3k3ncguf6vdijuoxcxhsevhq35/512x384.jpg",
      "categoryId": 1
    },
    {
      "id": "27368",
      "name": "Unicycle Mayhem",
      "image": "https://img.gamemonetize.com/vsbkqfrol82xjmz4rnercyxb2j31bzdq/512x384.jpg",
      "categoryId": 1
    },
    {
      "id": "27365",
      "name": "ZOMBIE CRAFT 3D",
      "image": "https://img.gamemonetize.com/zg490lv7tqo5pfpyauk99r48dw9fzhqe/512x384.jpg",
      "categoryId": 1
    },
    {
      "id": "27361",
      "name": "Sweet Baby Hotel ",
      "image": "https://img.gamemonetize.com/2mw7nsgrjs1nw2azdqoqec68fy6yj847/512x384.jpg",
      "categoryId": 1
    },
    {
      "id": "27306",
      "name": "Crazy Sheep Hooper",
      "image": "https://img.gamemonetize.com/lpi7wafhcdyxm0cmuf3kmiclurt24x5f/512x384.jpg",
      "categoryId": 1
    },
    {
      "id": "27300",
      "name": "Wobbly Boxing 3D",
      "image": "https://img.gamemonetize.com/i90pmk0ibj4i23n35bie0ft0g32dfbu9/512x384.jpg",
      "categoryId": 1
    },
    {
      "id": "27269",
      "name": "Zombie Derby: Blocky Roads",
      "image": "https://img.gamemonetize.com/9agsinuf4euxbtz27gprn2bj9eidwn7u/512x384.jpg",
      "categoryId": 1
    },
    {
      "id": "27265",
      "name": "Pokemon Shoot 2",
      "image": "https://img.gamemonetize.com/tc62dt6b7y4rdms3qy4d0thxl70zjvgv/512x384.jpg",
      "categoryId": 1
    },
    {
      "id": "27236",
      "name": "Escape Plan",
      "image": "https://img.gamemonetize.com/ldn52nbs45z7wy04zw7r29iaknb1kwbi/512x384.jpg",
      "categoryId": 1
    },
    {
      "id": "27232",
      "name": "Garten Banban vs Poppy",
      "image": "https://img.gamemonetize.com/29l5kmuquoajls3rkh9mde1uj9slblni/512x384.jpg",
      "categoryId": 1
    }
  ]
}
