{
  "category": {
    "id": 1,
    "name": "Action",
    "alias": "action",
    "count": 300
  },
  "page": 13,
  "totalPages": 13,
  "totalItems": 300,
  "items": [
    {
      "id": "27209",
      "name": "BMX Offroad Trial Stunts",
      "image": "https://img.gamemonetize.com/xhsb3d093scosen4my5jxvtwokq7vonz/512x384.jpg",
      "categoryId": 1
    },
    {
      "id": "27165",
      "name": "Death Copters",
      "image": "https://img.gamemonetize.com/809s73gdw3qnqnlrvrdw6dadmym740zv/512x384.jpg",
      "categoryId": 1
    },
    {
      "id": "27155",
      "name": "Ninja Boy Flying",
      "image": "https://img.gamemonetize.com/zrrw0ua3o8crkke7s6jm8nqxo0hkej5q/512x384.jpg",
      "categoryId": 1
    },
    {
      "id": "27152",
      "name": "The Driver Theft Simulator",
      "image": "https://img.gamemonetize.com/c83tdcj6ls2mvsv9kv042yiz7u1yijf0/512x384.jpg",
      "categoryId": 1
    },
    {
      "id": "27131",
      "name": "War island",
      "image": "https://img.gamemonetize.com/7n02dsuax4fem8hrign84krwp9hh9glq/512x384.jpg",
      "categoryId": 1
    },
    {
      "id": "27105",
      "name": "Extreme Car Driving Simulator 3D",
      "image": "https://img.gamemonetize.com/ad1g56ndbl8zxvyoj6hhriwrvf4zmbt1/512x384.jpg",
      "categoryId": 1
    },
    {
      "id": "27014",
      "name": "Rescue Beach Boat Parking",
      "image": "https://img.gamemonetize.com/tx76elvbmzc1bh2mqxzxj9cwgr7fkrf5/512x384.jpg",
      "categoryId": 1
    },
    {
      "id": "26996",
      "name": "Royal Thumble",
      "image": "https://img.gamemonetize.com/feoaj2s4ngmyxl52688bk1ne1dzdkg7q/512x384.jpg",
      "categoryId": 1
    },
    {
      "id": "26937",
      "name": "Iron Man Parkour",
      "image": "https://img.gamemonetize.com/s8a6556doo90o88i2vyvuxlgl7z2s1h3/512x384.jpg",
      "categoryId": 1
    },
    {
      "id": "26932",
      "name": "Street Fighter 2",
      "image": "https://img.gamemonetize.com/e3zre024895vjks5hwqh1x7j8xhse33s/512x384.jpg",
      "categoryId": 1
    },
    {
      "id": "26923",
      "name": "Kick Kings Game",
      "image": "https://img.gamemonetize.com/b60quhddx03koy1dw21tik76ii9egzrt/512x384.jpg",
      "categoryId": 1
    },
    {
      "id": "26893",
      "name": "Gun Mayhem Redux",
      "image": "https://img.gamemonetize.com/j0d6wcfjd9on0yb8k6zb68vaq2y6lp61/512x384.jpg",
      "categoryId": 1
    }
  ]
}
