{
  "category": {
    "id": 1,
    "name": "Action",
    "alias": "action",
    "count": 300
  },
  "page": 2,
  "totalPages": 13,
  "totalItems": 300,
  "items": [
    {
      "id": "32519",
      "name": "Truck Driving Construction Transport",
      "image": "https://img.gamemonetize.com/fhqjmji6kcucsvwoaplxbtfxoqpya1pz/512x384.jpg",
      "categoryId": 1
    },
    {
      "id": "32509",
      "name": "Fire Truck Driving Simulator 2024",
      "image": "https://img.gamemonetize.com/ndh1rwjfkejjktdkkwb2bl80tgpg5l03/512x384.jpg",
      "categoryId": 1
    },
    {
      "id": "32386",
      "name": "Animate.Space: Create Animated GIF!",
      "image": "https://img.gamemonetize.com/zvluq2l3w4mxywskmoca63u5mm21uvd6/512x384.jpg",
      "categoryId": 1
    },
    {
      "id": "32345",
      "name": "American Block Sniper Survival Online",
      "image": "https://img.gamemonetize.com/dy2tps9hmgrhuwhk557cdykcx3puevbb/512x384.jpg",
      "categoryId": 1
    },
    {
      "id": "32287",
      "name": "Warriors Line Up",
      "image": "https://img.gamemonetize.com/qxne2dcajybwp6dh2txkiignwfyp569x/512x384.jpg",
      "categoryId": 1
    },
    {
      "id": "32247",
      "name": "Offroad Truck Army Driving",
      "image": "https://img.gamemonetize.com/43fe8rc64mstpvw5zf24lct45nptj2mn/512x384.jpg",
      "categoryId": 1
    },
    {
      "id": "32246",
      "name": "Goodnight My Baby",
      "image": "https://img.gamemonetize.com/34sllctljd4vlu5n7cno56dm97mlfafb/512x384.jpg",
      "categoryId": 1
    },
    {
      "id": "32234",
      "name": "Offroad Cargo Truck 2024",
      "image": "https://img.gamemonetize.com/uayd9hwxcusn9oarblbqypwsq5g520xk/512x384.jpg",
      "categoryId": 1
    },
    {
      "id": "32225",
      "name": "Vehicle Transport Police Simulator",
      "image": "https://img.gamemonetize.com/sro33w89adskjdtlk9cwktqjdd1csm90/512x384.jpg",
      "categoryId": 1
    },
    {
      "id": "32217",
      "name": "Truck Simulator Construction",
      "image": "https://img.gamemonetize.com/u06e6by2a28avhtl0x368c7wv2jnh1tz/512x384.jpg",
      "categoryId": 1
    },
    {
      "id": "32191",
      "name": "Fall Guys 2024",
      "image": "https://img.gamemonetize.com/bzv8wjffafspjcaof9hsu8y37iq4toxc/512x384.jpg",
      "categoryId": 1
    },
    {
      "id": "32179",
      "name": "Noob City The Gangster",
      "image": "https://img.gamemonetize.com/jsi5x60oq85umikv4g48xnnqms323v4t/512x384.jpg",
      "categoryId": 1
    },
    {
      "id": "32135",
      "name": "Auto Bus Driving 2024",
      "image": "https://img.gamemonetize.com/ypz3l7ed6h45ovjr0k2bg498umzkx7u7/512x384.jpg",
      "categoryId": 1
    },
    {
      "id": "32124",
      "name": "Army Bus Driving 2024",
      "image": "https://img.gamemonetize.com/x768a5mk67izz2hv8kxhucmlw49i2ane/512x384.jpg",
      "categoryId": 1
    },
    {
      "id": "32113",
      "name": "Car Stunt Ramp Challenge",
      "image": "https://img.gamemonetize.com/omk3dx57djeoq1l1b8kj1r0mz43trze3/512x384.jpg",
      "categoryId": 1
    },
    {
      "id": "32097",
      "name": "Real Bus Parking Oick and Drop",
      "image": "https://img.gamemonetize.com/9gtk3fuj8b3956ikmbul44mumh11hftl/512x384.jpg",
      "categoryId": 1
    },
    {
      "id": "32082",
      "name": "TukTuk Rickshaw City Driving Sim",
      "image": "https://img.gamemonetize.com/jykqi5zuiofupq2hb774wo0nrtplkfua/512x384.jpg",
      "categoryId": 1
    },
    {
      "id": "32060",
      "name": "Polygon Flight Simulator",
      "image": "https://img.gamemonetize.com/jxcgkmz8u2tpdhvvfed9ecl25bqkspxt/512x384.jpg",
      "categoryId": 1
    },
    {
      "id": "32058",
      "name": "Imposter Assassin 3D",
      "image": "https://img.gamemonetize.com/kjixdc9mw89s3k1rdka4eotbmrgggvkn/512x384.jpg",
      "categoryId": 1
    },
    {
      "id": "32053",
      "name": "Water Slide Adventure",
      "image": "https://img.gamemonetize.com/9jiw9pzfxozl2lnrio0tb50nnwsmwdxq/512x384.jpg",
      "categoryId": 1
    },
    {
      "id": "32041",
      "name": "Super Hero Sponge",
      "image": "https://img.gamemonetize.com/wgoul13b9vne3iifz3cpspkq9hf5dcam/512x384.jpg",
      "categoryId": 1
    },
    {
      "id": "32037",
      "name": "Realistic Lion Hunting Animal 2024",
      "image": "https://img.gamemonetize.com/4xgs7sshdp0wpeqsoztn42pdttjiy5jq/512x384.jpg",
      "categoryId": 1
    },
    {
      "id": "31986",
      "name": "Fish Grow Eating Fish",
      "image": "https://img.gamemonetize.com/jfhu1t3dbwz31jo1ka00z0j043vfjzge/512x384.jpg",
      "categoryId": 1
    },
    {
      "id": "31976",
      "name": "Silent Assassin 2024",
      "image": "https://img.gamemonetize.com/bigltd28j37dj9b4n1kz1rufoub9fjyd/512x384.jpg",
      "categoryId": 1
    }
  ]
}
