{
  "category": {
    "id": 1,
    "name": "Action",
    "alias": "action",
    "count": 300
  },
  "page": 7,
  "totalPages": 13,
  "totalItems": 300,
  "items": [
    {
      "id": "30042",
      "name": "Ragdoll Arena 2 Player",
      "image": "https://img.gamemonetize.com/ympogr90zckrhth1abu4t2c0j3f3c65w/512x384.jpg",
      "categoryId": 1
    },
    {
      "id": "30028",
      "name": "Super Runner 3d Game",
      "image": "https://img.gamemonetize.com/swov3o7f8jo3inwleep867xn3bzgf1y2/512x384.jpg",
      "categoryId": 1
    },
    {
      "id": "30024",
      "name": "Bike Stunts Pro HTML5",
      "image": "https://img.gamemonetize.com/v9jayb60n11w8sg409kifm8orsum76cf/512x384.jpg",
      "categoryId": 1
    },
    {
      "id": "30023",
      "name": "Barbershop Inc Online",
      "image": "https://img.gamemonetize.com/4u9kkjguyfoycyp186ukvh8o0l4u9x5c/512x384.jpg",
      "categoryId": 1
    },
    {
      "id": "30016",
      "name": "Scooter Brothers",
      "image": "https://img.gamemonetize.com/2ht1jwm5vwhx1s17iytiqmp27df8k7u4/512x384.jpg",
      "categoryId": 1
    },
    {
      "id": "30013",
      "name": "Building construction",
      "image": "https://img.gamemonetize.com/0pxd94iawcq5djp4gga1xhn2z08vbbnq/512x384.jpg",
      "categoryId": 1
    },
    {
      "id": "30012",
      "name": "Soccer Championship 2023 HTML5",
      "image": "https://img.gamemonetize.com/pcjz3wh0nk5vdc626avfw2qf8pq4vsk2/512x384.jpg",
      "categoryId": 1
    },
    {
      "id": "29999",
      "name": "Merge Digital Circus vs Toilet",
      "image": "https://img.gamemonetize.com/7czenc9qf3qtdyejc62009k9wat5xh87/512x384.jpg",
      "categoryId": 1
    },
    {
      "id": "29991",
      "name": "Fish Stab Getting Big",
      "image": "https://img.gamemonetize.com/s43t6t4u4vi2bxo4w061myb5jrbnr5e0/512x384.jpg",
      "categoryId": 1
    },
    {
      "id": "29988",
      "name": "Bus Stunt 3D Simulator 2024",
      "image": "https://img.gamemonetize.com/6oast3vyx8wjv2o4c44tdsczn3kexdpq/512x384.jpg",
      "categoryId": 1
    },
    {
      "id": "29979",
      "name": "Island Battle 3D",
      "image": "https://img.gamemonetize.com/xt2j7aqkio7orm6km73231nh06tnmv9q/512x384.jpg",
      "categoryId": 1
    },
    {
      "id": "29933",
      "name": "Bike Offroad Stunts 2024",
      "image": "https://img.gamemonetize.com/m2gbuldfl4myy3u4sb6j3wdk0ofzlbdg/512x384.jpg",
      "categoryId": 1
    },
    {
      "id": "29912",
      "name": "Bike Attack Race 2024",
      "image": "https://img.gamemonetize.com/11t28nnliejw8d7yde2fl8osjuai8zam/512x384.jpg",
      "categoryId": 1
    },
    {
      "id": "29885",
      "name": "Cargo Truck Offroad",
      "image": "https://img.gamemonetize.com/bqypgh7mizibuctv597a3akm4cl3fd2d/512x384.jpg",
      "categoryId": 1
    },
    {
      "id": "29872",
      "name": "Bike Stunts 2024",
      "image": "https://img.gamemonetize.com/bmozm1zrhtvbe4d4us8whh6bywqmweam/512x384.jpg",
      "categoryId": 1
    },
    {
      "id": "29865",
      "name": "Gang Brawlers",
      "image": "https://img.gamemonetize.com/dmjz4ty5drd9aww9yq588icmnenprlu6/512x384.jpg",
      "categoryId": 1
    },
    {
      "id": "29859",
      "name": "Sumo Battle!",
      "image": "https://img.gamemonetize.com/7mdskoub4xtdgvith418pqnpxjv1ewx3/512x384.jpg",
      "categoryId": 1
    },
    {
      "id": "29855",
      "name": "Army Vehicle Transporting",
      "image": "https://img.gamemonetize.com/9bs240ik4h7sx6u3ftzis7b6jrvz7nhj/512x384.jpg",
      "categoryId": 1
    },
    {
      "id": "29845",
      "name": "Peugeot 2008 Offroad Driving",
      "image": "https://img.gamemonetize.com/aex8hojuz54uc98vfzrcfa4492jyz4mh/512x384.jpg",
      "categoryId": 1
    },
    {
      "id": "29822",
      "name": "2d Car Parking 2023",
      "image": "https://img.gamemonetize.com/9lx3p9zy4t1avawxsrutro46dulssm32/512x384.jpg",
      "categoryId": 1
    },
    {
      "id": "29801",
      "name": "Mini Fighters Strike",
      "image": "https://img.gamemonetize.com/try5tbigkk2s4hkx0azpr3ucxo24940r/512x384.jpg",
      "categoryId": 1
    },
    {
      "id": "29773",
      "name": "Super John Wick",
      "image": "https://img.gamemonetize.com/5v9lcitp50ylhqzjxnf7w37n0q0dt78d/512x384.jpg",
      "categoryId": 1
    },
    {
      "id": "29759",
      "name": "Ghostly Night Harvest",
      "image": "https://img.gamemonetize.com/1h9grfehwwf24efl9f24ux2656bc57y7/512x384.jpg",
      "categoryId": 1
    },
    {
      "id": "29737",
      "name": "Police Clash 3D",
      "image": "https://img.gamemonetize.com/cr8vj2mekjhpjfakxecw0gquwgii0nr1/512x384.jpg",
      "categoryId": 1
    }
  ]
}
