{
  "category": {
    "id": 1,
    "name": "Action",
    "alias": "action",
    "count": 300
  },
  "page": 8,
  "totalPages": 13,
  "totalItems": 300,
  "items": [
    {
      "id": "29716",
      "name": "Hungry Warrior Fight",
      "image": "https://img.gamemonetize.com/fwumbh5fj5obd6vho6p7ymv40xpm11hu/512x384.jpg",
      "categoryId": 1
    },
    {
      "id": "29684",
      "name": "Mini Duels Battle",
      "image": "https://img.gamemonetize.com/o7ktob2oilxl4yot4ksso7svsoxz0udb/512x384.jpg",
      "categoryId": 1
    },
    {
      "id": "29661",
      "name": "Mega Car Crash Simulator",
      "image": "https://img.gamemonetize.com/3uxkgiopjrkxmppgzgof64q5sgsc25rv/512x384.jpg",
      "categoryId": 1
    },
    {
      "id": "29649",
      "name": "Heavy Tractor Towing",
      "image": "https://img.gamemonetize.com/8vegqqzw0d9k0lj0e9y81afxv2wco261/512x384.jpg",
      "categoryId": 1
    },
    {
      "id": "29643",
      "name": "Car Parking Lot 2023",
      "image": "https://img.gamemonetize.com/7t4u52tdicqex560gqzzkls0l5j55nhd/512x384.jpg",
      "categoryId": 1
    },
    {
      "id": "29638",
      "name": "TankBattle 2 Player",
      "image": "https://img.gamemonetize.com/6iozl4kuor3xettbokhiadh8fcxai1pv/512x384.jpg",
      "categoryId": 1
    },
    {
      "id": "29610",
      "name": "Five Nights at Shreks Hotel",
      "image": "https://img.gamemonetize.com/90npw9ketxil8j0c5vfuxcwv67djgita/512x384.jpg",
      "categoryId": 1
    },
    {
      "id": "29578",
      "name": "Fighter Legends Duo",
      "image": "https://img.gamemonetize.com/8nv3jd35egnqso4tamip9k8u04mdfgun/512x384.jpg",
      "categoryId": 1
    },
    {
      "id": "29464",
      "name": "Ninja Stickman Warrior HTML5",
      "image": "https://img.gamemonetize.com/qkf5109t7ye847az9c0p1jffbq031ikn/512x384.jpg",
      "categoryId": 1
    },
    {
      "id": "29449",
      "name": "Monsters Dungeon Battle",
      "image": "https://img.gamemonetize.com/cb4lyqk01r8nugfoqxnaps191l2xvq9f/512x384.jpg",
      "categoryId": 1
    },
    {
      "id": "29433",
      "name": "Grimace Shake Escape Skibidi and Cameraman",
      "image": "https://img.gamemonetize.com/czx277alw1r9ff0nxtjqp5wujdyi88kz/512x384.jpg",
      "categoryId": 1
    },
    {
      "id": "29428",
      "name": "Skibidi vs Grimace Climber Race",
      "image": "https://img.gamemonetize.com/ea9pxc7sygkekcm4vwludyadcaweojhx/512x384.jpg",
      "categoryId": 1
    },
    {
      "id": "29425",
      "name": "Toilet Monster Long Neck",
      "image": "https://img.gamemonetize.com/utz8cejau7u57kg8jj5eqieyx6q98td2/512x384.jpg",
      "categoryId": 1
    },
    {
      "id": "29418",
      "name": "Skibidi Toilet Only Up",
      "image": "https://img.gamemonetize.com/pnvv4xtk5ga8bny4140oyg4henh6pi9d/512x384.jpg",
      "categoryId": 1
    },
    {
      "id": "29401",
      "name": "Skibidi Toilet Hide And Seek",
      "image": "https://img.gamemonetize.com/pjys7avy5ex96in3w92s5xf3eq4b4coe/512x384.jpg",
      "categoryId": 1
    },
    {
      "id": "29398",
      "name": "Sausage Run",
      "image": "https://img.gamemonetize.com/pvgq9muc866itgvcy741foa0a2okfvhm/512x384.jpg",
      "categoryId": 1
    },
    {
      "id": "29389",
      "name": "Skibidi Toilet Hunter",
      "image": "https://img.gamemonetize.com/yjuaf7eewx4fe5tsn44pdnni5q60f34b/512x384.jpg",
      "categoryId": 1
    },
    {
      "id": "29367",
      "name": "Skibidi Toilet TopDown Survival",
      "image": "https://img.gamemonetize.com/24qjjyp87cdcqmru239v2md7zu6630mf/512x384.jpg",
      "categoryId": 1
    },
    {
      "id": "29354",
      "name": "Real Airplane Simulator",
      "image": "https://img.gamemonetize.com/l2mrm0gwkvuj1g0qy0acw6fj7xnzxmas/512x384.jpg",
      "categoryId": 1
    },
    {
      "id": "29341",
      "name": "Craft Doors: Horror Run",
      "image": "https://img.gamemonetize.com/hmehhcx22pfqp8nrqqw54srznwsbrkml/512x384.jpg",
      "categoryId": 1
    },
    {
      "id": "29307",
      "name": "Master Crazy Damage",
      "image": "https://img.gamemonetize.com/7a51z9rfrfc0najspxjmxpayslc0dfyh/512x384.jpg",
      "categoryId": 1
    },
    {
      "id": "29291",
      "name": "Commandos Battle for Survival 3D",
      "image": "https://img.gamemonetize.com/51q2ocu5l2tn4tj7ojd3axb0a38zmlwr/512x384.jpg",
      "categoryId": 1
    },
    {
      "id": "29278",
      "name": "Real Drone Simulator",
      "image": "https://img.gamemonetize.com/l6njclu75ig1nm323wh9hfda9vhf0kox/512x384.jpg",
      "categoryId": 1
    },
    {
      "id": "29276",
      "name": "Clown Park Hide and Seek",
      "image": "https://img.gamemonetize.com/x89je06j8zmspnm8azsllfiylp8ervox/512x384.jpg",
      "categoryId": 1
    }
  ]
}
