{
  "category": {
    "id": 1,
    "name": "Action",
    "alias": "action",
    "count": 300
  },
  "page": 9,
  "totalPages": 13,
  "totalItems": 300,
  "items": [
    {
      "id": "29272",
      "name": "SurvivalPixel.io",
      "image": "https://img.gamemonetize.com/vbf4xpvfzbh03r17mnu662ifpwojhfvx/512x384.jpg",
      "categoryId": 1
    },
    {
      "id": "29226",
      "name": "Stumble   Survival Guys ",
      "image": "https://img.gamemonetize.com/ebzhf7uwcukpaeb1z4ma3yu0mm2g0hrm/512x384.jpg",
      "categoryId": 1
    },
    {
      "id": "29214",
      "name": "Face Punch.io",
      "image": "https://img.gamemonetize.com/akub1gx5xgvtbhp6ozi3adxmwmmm6ej2/512x384.jpg",
      "categoryId": 1
    },
    {
      "id": "29209",
      "name": "Skibidi Toilet vs Cameramans",
      "image": "https://img.gamemonetize.com/bep9445b7vx5b3jjzojwsti679u76ck8/512x384.jpg",
      "categoryId": 1
    },
    {
      "id": "29163",
      "name": "Cyber Surfer Skateboard",
      "image": "https://img.gamemonetize.com/wplw5n1rp93fzw0o90xu88c1q4o3bw5o/512x384.jpg",
      "categoryId": 1
    },
    {
      "id": "29155",
      "name": "Only Up! Forward",
      "image": "https://img.gamemonetize.com/v7qy34ruk7kvsikgs57dmo5m78c5tvuy/512x384.jpg",
      "categoryId": 1
    },
    {
      "id": "29153",
      "name": "Weapon Duel",
      "image": "https://img.gamemonetize.com/177chanqfwt2tvf8e977m6evaa427vwb/512x384.jpg",
      "categoryId": 1
    },
    {
      "id": "29152",
      "name": "City Constructor Driver 3D Game",
      "image": "https://img.gamemonetize.com/nc4cfc03jf45qxuopvy5fgv0rf1bymno/512x384.jpg",
      "categoryId": 1
    },
    {
      "id": "29139",
      "name": "Car Stunts 2050",
      "image": "https://img.gamemonetize.com/ogu1hx06a2bkppkqulsyv99qk1tcu5po/512x384.jpg",
      "categoryId": 1
    },
    {
      "id": "29112",
      "name": "Stick Arena 3D",
      "image": "https://img.gamemonetize.com/x1jqtjkh9s1xfmzfe1wnv5j88b5szgmy/512x384.jpg",
      "categoryId": 1
    },
    {
      "id": "29111",
      "name": "3D Bubble Rush Game",
      "image": "https://img.gamemonetize.com/ru1cobxnywerysikpi5x2bl6olmw6xt9/512x384.jpg",
      "categoryId": 1
    },
    {
      "id": "29083",
      "name": "Fall Boys Skibidi Toilet",
      "image": "https://img.gamemonetize.com/8k16174hl3bg8ec1lk08thh3em9b6q0v/512x384.jpg",
      "categoryId": 1
    },
    {
      "id": "29068",
      "name": "Skibidi Toilet Bullet",
      "image": "https://img.gamemonetize.com/qt42nkifuxtcht0iqueutwx075evc257/512x384.jpg",
      "categoryId": 1
    },
    {
      "id": "29066",
      "name": "Helix Skibidi Toilet Jump",
      "image": "https://img.gamemonetize.com/v7qltxk0bu7v83kycu8anrrmub1nmtxr/512x384.jpg",
      "categoryId": 1
    },
    {
      "id": "29064",
      "name": "Skibidi Snake.io",
      "image": "https://img.gamemonetize.com/88kisw889g91pa7fv6hwqzi0v3g2dbkw/512x384.jpg",
      "categoryId": 1
    },
    {
      "id": "29054",
      "name": "Space Adventure: Noobiks Battle vs Zombies",
      "image": "https://img.gamemonetize.com/5dnl5edam018ab0ojzoanvld7k3x9nr1/512x384.jpg",
      "categoryId": 1
    },
    {
      "id": "29053",
      "name": "Agent Cameraman Skibidi Toilet",
      "image": "https://img.gamemonetize.com/6zstdny5gv6yo1evvxxy80ov0uwsvw2w/512x384.jpg",
      "categoryId": 1
    },
    {
      "id": "29050",
      "name": "Monster Trucks Stunts",
      "image": "https://img.gamemonetize.com/p6y6szhufhrmdrpwkdclke8hqhj7oasw/512x384.jpg",
      "categoryId": 1
    },
    {
      "id": "29016",
      "name": "Street Car Race Ultimate",
      "image": "https://img.gamemonetize.com/0h23x5drvwyehgkx28zhf7lvkb9fdhsl/512x384.jpg",
      "categoryId": 1
    },
    {
      "id": "29015",
      "name": "Skibidi Fight",
      "image": "https://img.gamemonetize.com/mz962cwg9dkhtmttz4xml9wspku1aa3o/512x384.jpg",
      "categoryId": 1
    },
    {
      "id": "29011",
      "name": "Rescue Master",
      "image": "https://img.gamemonetize.com/uk7y1arjjsnxoq5262fjbes4jmkhy10f/512x384.jpg",
      "categoryId": 1
    },
    {
      "id": "28974",
      "name": "Choo Choo Charles Revenge",
      "image": "https://img.gamemonetize.com/b56yhj6qofvbdsx2qll581bihogt15cc/512x384.jpg",
      "categoryId": 1
    },
    {
      "id": "28970",
      "name": "Freehead Skate",
      "image": "https://img.gamemonetize.com/museimxpj23qgd30oirvj1xlmc0vouem/512x384.jpg",
      "categoryId": 1
    },
    {
      "id": "28906",
      "name": "Bicycle Rush 3D",
      "image": "https://img.gamemonetize.com/wox48iadsukskgrs1fk9i5o2hxwm5azg/512x384.jpg",
      "categoryId": 1
    }
  ]
}
