{
  "category": {
    "id": 2,
    "name": "冒険です",
    "alias": "adventure",
    "count": 289
  },
  "page": 10,
  "totalPages": 13,
  "totalItems": 289,
  "items": [
    {
      "id": "23923",
      "name": "タワーランオンライン - スタックタワージャンプ",
      "image": "https://img.gamemonetize.com/gxp7ft7twcg3ah0f2z2j7pwyx0brlx79/512x384.jpg",
      "categoryId": 2
    },
    {
      "id": "23919",
      "name": "ロープラッパー",
      "image": "https://img.gamemonetize.com/81x6g0cawr5lidboarc7w7mifpy460ca/512x384.jpg",
      "categoryId": 2
    },
    {
      "id": "23918",
      "name": "モスキートラン",
      "image": "https://img.gamemonetize.com/s3qicdyy2yyxratdkgfotyf77fmhh2lz/512x384.jpg",
      "categoryId": 2
    },
    {
      "id": "23875",
      "name": "iPark my car",
      "image": "https://img.gamemonetize.com/gtx9lmhx9wf363bb75u31z450q31vaqr/512x384.jpg",
      "categoryId": 2
    },
    {
      "id": "23845",
      "name": "プリンスを救え",
      "image": "https://img.gamemonetize.com/fx3b6wg48gj24zjyay0dia8cwaw53qy3/512x384.jpg",
      "categoryId": 2
    },
    {
      "id": "23843",
      "name": "ポピー・ハギーの脱出 - Poppy Huggie Escape",
      "image": "https://img.gamemonetize.com/p0id50v38st61fiw9mp9ocpv7tx4og2p/512x384.jpg",
      "categoryId": 2
    },
    {
      "id": "23842",
      "name": "パスコントロールゲーム - Path Control Game",
      "image": "https://img.gamemonetize.com/ukfrwdlrsn3e7tv06b4m2n42bz2ewsyn/512x384.jpg",
      "categoryId": 2
    },
    {
      "id": "23740",
      "name": "ジョニー・トリガー3Dオンライン - アクションシューター - Johnny Trigger 3D Online - Action Shooter",
      "image": "https://img.gamemonetize.com/t1di77n0yp4tqxf3mhhv6ss772f9ad6r/512x384.jpg",
      "categoryId": 2
    },
    {
      "id": "23618",
      "name": "ラブストーリーを描く",
      "image": "https://img.gamemonetize.com/i81cy1smptdsvl740ib5mtwpmubczm8h/512x384.jpg",
      "categoryId": 2
    },
    {
      "id": "23591",
      "name": "ヘビークレーン運転シミュレーター",
      "image": "https://img.gamemonetize.com/6kpg6ueiq54ccpsoi1fq79acznbgqy3l/512x384.jpg",
      "categoryId": 2
    },
    {
      "id": "23590",
      "name": "フードロール3Dゲーム",
      "image": "https://img.gamemonetize.com/bnfrerh4b1xp319dpnuriti3g3i69luc/512x384.jpg",
      "categoryId": 2
    },
    {
      "id": "23589",
      "name": "ゾンビ大戦場",
      "image": "https://img.gamemonetize.com/isfzqkox2oxpvvem6o53qzmxlyx9nluq/512x384.jpg",
      "categoryId": 2
    },
    {
      "id": "23577",
      "name": "ジャイアントラン3D",
      "image": "https://img.gamemonetize.com/idef6t8sg5ydq25atn8zlok7z1caffhb/512x384.jpg",
      "categoryId": 2
    },
    {
      "id": "23558",
      "name": "マッチ20チャレンジ",
      "image": "https://img.gamemonetize.com/e10e4h1awfwdrhfhn4zuf0270trrwypa/512x384.jpg",
      "categoryId": 2
    },
    {
      "id": "23524",
      "name": "トラックドライバーシミュレーター - 3D運転ゲーム",
      "image": "https://img.gamemonetize.com/b4sgsi2kr87kj30021h5kjrmux4b23hn/512x384.jpg",
      "categoryId": 2
    },
    {
      "id": "23490",
      "name": "ズィゾアドベンチャー",
      "image": "https://img.gamemonetize.com/thrsaenukoai5v4oix9ot5spirhcmbag/512x384.jpg",
      "categoryId": 2
    },
    {
      "id": "23404",
      "name": "ピンを動かせ2ゲーム",
      "image": "https://img.gamemonetize.com/hqx9ru2z0d90grbrp7e6ryi8qoajop8l/512x384.jpg",
      "categoryId": 2
    },
    {
      "id": "23391",
      "name": "フードプッシャーバトルチャレンジ",
      "image": "https://img.gamemonetize.com/ndz15f03x4w7k4m92o3emh8ma69irvn4/512x384.jpg",
      "categoryId": 2
    },
    {
      "id": "23348",
      "name": "子猫のかくれんぼ",
      "image": "https://img.gamemonetize.com/6ye9v374cz58xvrnngw4hjxzhwya0n9c/512x384.jpg",
      "categoryId": 2
    },
    {
      "id": "23344",
      "name": "車のグラインディング",
      "image": "https://img.gamemonetize.com/442wt8281bzt59ml51tiu6itl2rpqsuu/512x384.jpg",
      "categoryId": 2
    },
    {
      "id": "23270",
      "name": "ワインをこぼせ",
      "image": "https://img.gamemonetize.com/eycori7uv01k1r5qah0tmoa1jtuia0bg/512x384.jpg",
      "categoryId": 2
    },
    {
      "id": "23215",
      "name": "ナイトメアラン",
      "image": "https://img.gamemonetize.com/32j30dy0q0jswv953dw3kcd5opvb7bg2/512x384.jpg",
      "categoryId": 2
    },
    {
      "id": "23153",
      "name": "グラブパック遊びタイムゲーム",
      "image": "https://img.gamemonetize.com/ucpv9md1lg9s6gnldkv2mhzq68ax7xfq/512x384.jpg",
      "categoryId": 2
    },
    {
      "id": "23089",
      "name": "世界最難の挑戦：冷蔵庫を満たせ",
      "image": "https://img.gamemonetize.com/ayjy06ryrmm02f0ajx0is5gz40aes5qv/512x384.jpg",
      "categoryId": 2
    }
  ]
}
