{
  "category": {
    "id": 2,
    "name": "冒険です",
    "alias": "adventure",
    "count": 289
  },
  "page": 11,
  "totalPages": 13,
  "totalItems": 289,
  "items": [
    {
      "id": "23083",
      "name": "異なる点を見つける",
      "image": "https://img.gamemonetize.com/64m5n5gohayx1st497w43hw3ygih8isp/512x384.jpg",
      "categoryId": 2
    },
    {
      "id": "23075",
      "name": "リコエットアロー ゲーム",
      "image": "https://img.gamemonetize.com/ln72wyu9nsa0ph1x7jwmxx4vriilgbfl/512x384.jpg",
      "categoryId": 2
    },
    {
      "id": "23051",
      "name": "ショットファクター",
      "image": "https://img.gamemonetize.com/yzukr60mm1ylh5gmyxnpk7thc0cuti3u/512x384.jpg",
      "categoryId": 2
    },
    {
      "id": "23038",
      "name": "Run Royale Knockout 3D ゲーム",
      "image": "https://img.gamemonetize.com/ca8mas9hmou1zy2r6xihjguec91sx2to/512x384.jpg",
      "categoryId": 2
    },
    {
      "id": "22985",
      "name": "Fastlane Road To Revenge Master - Car Racing",
      "image": "https://img.gamemonetize.com/fzvvjckvsyyzs0q5r2e4hml5byq5xgdi/512x384.jpg",
      "categoryId": 2
    },
    {
      "id": "22962",
      "name": "オフ・ザ・レールズ 3D - Train Game",
      "image": "https://img.gamemonetize.com/wmznekylgrskn8hbdngf2dw9plpa8hko/512x384.jpg",
      "categoryId": 2
    },
    {
      "id": "22936",
      "name": "ドットボットトー - アドベンチャーゲーム",
      "image": "https://img.gamemonetize.com/kti339m72isvmjjte7m7ubbamejbvo3d/512x384.jpg",
      "categoryId": 2
    },
    {
      "id": "22935",
      "name": "ハンマーマスター 3D ゲーム",
      "image": "https://img.gamemonetize.com/cojvpucdukgmpnslpe00gvucm7v832yj/512x384.jpg",
      "categoryId": 2
    },
    {
      "id": "22898",
      "name": "ソリティエ・マスター - クラシックカード",
      "image": "https://img.gamemonetize.com/ifqmxx7g15lbhe4csp1spltla5dxka3j/512x384.jpg",
      "categoryId": 2
    },
    {
      "id": "22885",
      "name": "ゾンビロード - 狂気のドライビングゲーム",
      "image": "https://img.gamemonetize.com/t0me96xry0vxb1fjznl09edrawt3x3bx/512x384.jpg",
      "categoryId": 2
    },
    {
      "id": "22884",
      "name": "Parking Jam Online 3D ゲーム",
      "image": "https://img.gamemonetize.com/6vp9le6bonhh86mg7y17cehhbbdi0395/512x384.jpg",
      "categoryId": 2
    },
    {
      "id": "22856",
      "name": "ゾンビキラー ドロー パズル",
      "image": "https://img.gamemonetize.com/i4nilyzw2eg1gq7ro407vgdy12qu2742/512x384.jpg",
      "categoryId": 2
    },
    {
      "id": "22816",
      "name": "Merge Rush 2048",
      "image": "https://img.gamemonetize.com/fo3sq9ajol3lbr0777yhcodnh8jz2qva/512x384.jpg",
      "categoryId": 2
    },
    {
      "id": "22775",
      "name": "Noob Ninja Guardian - 格闘ゲーム",
      "image": "https://img.gamemonetize.com/pqbpglwr8gujgrniastxdk1i0ih6ce1b/512x384.jpg",
      "categoryId": 2
    },
    {
      "id": "22774",
      "name": "Color Match 3D ゲーム",
      "image": "https://img.gamemonetize.com/ztptyed8evuy3ktwkrmu4rf7ta1s7ns5/512x384.jpg",
      "categoryId": 2
    },
    {
      "id": "22676",
      "name": "Pimple Pop Rush",
      "image": "https://img.gamemonetize.com/g9yoq5voqy3fxlo4lex0mvys25pus5ob/512x384.jpg",
      "categoryId": 2
    },
    {
      "id": "22659",
      "name": "SQUIDLY GAME HIDE AND SEEK",
      "image": "https://img.gamemonetize.com/kwhmnnutyf4nowesi4lutdj221wrupil/512x384.jpg",
      "categoryId": 2
    },
    {
      "id": "22619",
      "name": "Connect Dots Game",
      "image": "https://img.gamemonetize.com/72zzcm8h5i59x4dxpzy7m9oca72v660u/512x384.jpg",
      "categoryId": 2
    },
    {
      "id": "22616",
      "name": "迷路脱出3D",
      "image": "https://img.gamemonetize.com/2sp2ppt5wgmkivav67wapkxf6jh2ndhi/512x384.jpg",
      "categoryId": 2
    },
    {
      "id": "22611",
      "name": "ドロー・ファイター3D",
      "image": "https://img.gamemonetize.com/0llrc8noptrj2n0by9vcxuekcs458mvq/512x384.jpg",
      "categoryId": 2
    },
    {
      "id": "22581",
      "name": "ドーナツソートファン",
      "image": "https://img.gamemonetize.com/axscgda2s14qarsj192badug5e21l898/512x384.jpg",
      "categoryId": 2
    },
    {
      "id": "22570",
      "name": "消防士救助迷路",
      "image": "https://img.gamemonetize.com/pzwxcyss07bkyxyt5bwk1ko23hzdghtf/512x384.jpg",
      "categoryId": 2
    },
    {
      "id": "22548",
      "name": "スーパーバディラン 2 クレイジーシティ",
      "image": "https://img.gamemonetize.com/licll39ztgvvcq4fvw1nwlnpem14aq3w/512x384.jpg",
      "categoryId": 2
    },
    {
      "id": "22537",
      "name": "家の泥棒",
      "image": "https://img.gamemonetize.com/2rrkw819seyf50vsi2gq03ot7silw9oi/512x384.jpg",
      "categoryId": 2
    }
  ]
}
