{
  "category": {
    "id": 2,
    "name": "冒険です",
    "alias": "adventure",
    "count": 289
  },
  "page": 3,
  "totalPages": 13,
  "totalItems": 289,
  "items": [
    {
      "id": "29205",
      "name": "アイドルアーチャータワーディフェンスRPG",
      "image": "https://img.gamemonetize.com/l52877duuk1ge26w3ccw5re4bqbbq44b/512x384.jpg",
      "categoryId": 2
    },
    {
      "id": "29120",
      "name": "オブジェクトハンター",
      "image": "https://img.gamemonetize.com/xu647z6k294whfq6ajunb0lfkas88qdk/512x384.jpg",
      "categoryId": 2
    },
    {
      "id": "29116",
      "name": "コンバットコロボックス",
      "image": "https://img.gamemonetize.com/in3exfht3w9oohcmagtp0bmtxh2g4djw/512x384.jpg",
      "categoryId": 2
    },
    {
      "id": "29022",
      "name": "プラントズVSゾンビーズ：マージディフェンス",
      "image": "https://img.gamemonetize.com/ii67kla6ysrwd90rddusa7el27k43zvv/512x384.jpg",
      "categoryId": 2
    },
    {
      "id": "29000",
      "name": "ロブロックスカラーブック",
      "image": "https://img.gamemonetize.com/qyzbrptpe2yl2zz5nula589k2nvd4yq4/512x384.jpg",
      "categoryId": 2
    },
    {
      "id": "28964",
      "name": "ワールドオブタンクズブリッツ",
      "image": "https://img.gamemonetize.com/uq5ow69wgxydz7rzm0gefv6v91wmrksy/512x384.jpg",
      "categoryId": 2
    },
    {
      "id": "28956",
      "name": "ウォープレーンストライク：スカイコンバット",
      "image": "https://img.gamemonetize.com/ggcnpsldi1mbkoesjwee4unb1wc0b332/512x384.jpg",
      "categoryId": 2
    },
    {
      "id": "28909",
      "name": "マージマスター：スキビディボップ",
      "image": "https://img.gamemonetize.com/7cno37tfianlivq29hanilqqtqak2ghv/512x384.jpg",
      "categoryId": 2
    },
    {
      "id": "28840",
      "name": "アイススクリーム：ホラーエスケープ",
      "image": "https://img.gamemonetize.com/7jz6aysjuk90clvhm2us38y3mkdr3e8w/512x384.jpg",
      "categoryId": 2
    },
    {
      "id": "28810",
      "name": "バブル数字マージ",
      "image": "https://img.gamemonetize.com/2hy8rlzvcdrj7z84145tf9jhcubbd5is/512x384.jpg",
      "categoryId": 2
    },
    {
      "id": "28706",
      "name": "6つの違いを見つける",
      "image": "https://img.gamemonetize.com/wb2cwnqf7vbiw802zwbg3kx5twqkyrvj/512x384.jpg",
      "categoryId": 2
    },
    {
      "id": "28696",
      "name": "ストーリー削除ドップブレインパズル",
      "image": "https://img.gamemonetize.com/228a4b6vws3urlg8a74ef8aj8cf5xboi/512x384.jpg",
      "categoryId": 2
    },
    {
      "id": "28695",
      "name": "スティックレギオンズ",
      "image": "https://img.gamemonetize.com/jvv9e8al0014k2s1xgwut4058ltwh8ob/512x384.jpg",
      "categoryId": 2
    },
    {
      "id": "28605",
      "name": "スキビディトイレジグソーパズル",
      "image": "https://img.gamemonetize.com/waji22yyus1fkv5idlf0r2ze8bcvbhg5/512x384.jpg",
      "categoryId": 2
    },
    {
      "id": "28583",
      "name": "フライデーナイトファンキンカラーブッキングブックオンライン",
      "image": "https://img.gamemonetize.com/64bnf024xxaisptve9v4au2sb4axg2ca/512x384.jpg",
      "categoryId": 2
    },
    {
      "id": "28578",
      "name": "飛行機洗浄",
      "image": "https://img.gamemonetize.com/3y422nasb2cajmbqia9myyza1bwbbknz/512x384.jpg",
      "categoryId": 2
    },
    {
      "id": "28538",
      "name": "ピクセルブロック3D",
      "image": "https://img.gamemonetize.com/7tje6qsj53ygd3v8507hsyfbljiuezc1/512x384.jpg",
      "categoryId": 2
    },
    {
      "id": "28522",
      "name": "クラブペンギンカラーブッキングブック",
      "image": "https://img.gamemonetize.com/awokxzti5nqmsf6il1gtujenabvsy65g/512x384.jpg",
      "categoryId": 2
    },
    {
      "id": "28377",
      "name": "アイドルファイアーファイター3D",
      "image": "https://img.gamemonetize.com/a7yybi3y0s8rmpjhealrk0ptormqydtm/512x384.jpg",
      "categoryId": 2
    },
    {
      "id": "28376",
      "name": "フルーツナイフゲーム",
      "image": "https://img.gamemonetize.com/4kci7og3klgj0ivy2wz3gdvd9dth5e7n/512x384.jpg",
      "categoryId": 2
    },
    {
      "id": "28362",
      "name": "アイドルアリスミューラーシミュレーター",
      "image": "https://img.gamemonetize.com/1bv30jc4h4xc2qt3w1viukkv72sjjdcs/512x384.jpg",
      "categoryId": 2
    },
    {
      "id": "28335",
      "name": "モンスターヒーロー・レスキューシティ",
      "image": "https://img.gamemonetize.com/2fnknrl57ibu1i69deo4rkfdwsy1pxjc/512x384.jpg",
      "categoryId": 2
    },
    {
      "id": "28239",
      "name": "飛行機シューター",
      "image": "https://img.gamemonetize.com/3ca2r07eyx8wxpelwwit1uvpept15p5o/512x384.jpg",
      "categoryId": 2
    },
    {
      "id": "28170",
      "name": "プランクスター3D",
      "image": "https://img.gamemonetize.com/4yaw9ys0bmonsznh1a93vb8pysbk38ct/512x384.jpg",
      "categoryId": 2
    }
  ]
}
