{
  "category": {
    "id": 2,
    "name": "冒険です",
    "alias": "adventure",
    "count": 289
  },
  "page": 4,
  "totalPages": 13,
  "totalItems": 289,
  "items": [
    {
      "id": "28159",
      "name": "ハングリーフィッシュエボリューション",
      "image": "https://img.gamemonetize.com/a45hihs4nijhl1p5c97sw0uuh2dwx5sm/512x384.jpg",
      "categoryId": 2
    },
    {
      "id": "28139",
      "name": "ゴミ",
      "image": "https://img.gamemonetize.com/gqs5dyt4608c6dzgz2pfp1jrr8ge6jbz/512x384.jpg",
      "categoryId": 2
    },
    {
      "id": "28112",
      "name": "アーサー・ザ・ミステリアルハンター",
      "image": "https://img.gamemonetize.com/tgvcsev4518p24zsgmi242gwnfhojb8o/512x384.jpg",
      "categoryId": 2
    },
    {
      "id": "27975",
      "name": "エピックカー：トランスフォームレース",
      "categoryId": 2
    },
    {
      "id": "27861",
      "name": "私たちの土地",
      "categoryId": 2
    },
    {
      "id": "27791",
      "name": "マインクラフトカラーブッキングブックオンライン",
      "categoryId": 2
    },
    {
      "id": "27707",
      "name": "FNFキャラクターテストプレイグラウンドリメイク",
      "categoryId": 2
    },
    {
      "id": "27694",
      "name": "FNF対ハッギーワッギー",
      "categoryId": 2
    },
    {
      "id": "27693",
      "name": "FNFテールズ.EXE",
      "categoryId": 2
    },
    {
      "id": "27585",
      "name": "ハントオアハイド",
      "categoryId": 2
    },
    {
      "id": "27584",
      "name": "オフィスを壊せ",
      "categoryId": 2
    },
    {
      "id": "27480",
      "name": "バルーンスライサーゲーム",
      "categoryId": 2
    },
    {
      "id": "27479",
      "name": "おしっこを描いて",
      "image": "https://img.gamemonetize.com/bmvjz4g4csv8nimd9jb4j10rl2x8jreb/512x384.jpg",
      "categoryId": 2
    },
    {
      "id": "27447",
      "name": "ワオワオウブジー塗り絵ブック",
      "image": "https://img.gamemonetize.com/boo65pp9ye2hy8dcpfhkdb6zi3q2ktq2/512x384.jpg",
      "categoryId": 2
    },
    {
      "id": "27446",
      "name": "ドラえもん塗り絵ブック",
      "image": "https://img.gamemonetize.com/f566bafjq740n1c5sgkrw9lyb0tlc5qz/512x384.jpg",
      "categoryId": 2
    },
    {
      "id": "27441",
      "name": "ダンスマスターマット",
      "image": "https://img.gamemonetize.com/2w1s2aagytrk4elb7sk6ug5aocb5pnor/512x384.jpg",
      "categoryId": 2
    },
    {
      "id": "27408",
      "name": "マージディフェンス：ピクセルブロック",
      "image": "https://img.gamemonetize.com/fx3u236fbmq547qf9h4b5g2kjhnbmq98/512x384.jpg",
      "categoryId": 2
    },
    {
      "id": "27399",
      "name": "ドライブマッド",
      "image": "https://img.gamemonetize.com/dem77byztip4lfarz53fekbuiw3657jl/512x384.jpg",
      "categoryId": 2
    },
    {
      "id": "27374",
      "name": "レスキュードッグウェブ",
      "image": "https://img.gamemonetize.com/jtovfewyww2bfo3nhkgxzfylunojnph5/512x384.jpg",
      "categoryId": 2
    },
    {
      "id": "27372",
      "name": "ハッピーな満たされたガラス3ゲーム",
      "image": "https://img.gamemonetize.com/wk93r460mynef2m2ner0lki9c866csco/512x384.jpg",
      "categoryId": 2
    },
    {
      "id": "27310",
      "name": "シューティングキャノン：マージディフェンス",
      "image": "https://img.gamemonetize.com/mk4iqyllutxc5y1va4tiwehv4nv34it9/512x384.jpg",
      "categoryId": 2
    },
    {
      "id": "27308",
      "name": "ヒューマンガン！ゲーム",
      "image": "https://img.gamemonetize.com/jctu4wkt2d8ekv1vlq5dic8l4l7yyycx/512x384.jpg",
      "categoryId": 2
    },
    {
      "id": "27279",
      "name": "ファンシーパンツアドベンチャー",
      "image": "https://img.gamemonetize.com/q41s7o0dxctskgtc3l7ju13idlov3gu7/512x384.jpg",
      "categoryId": 2
    },
    {
      "id": "27213",
      "name": "すべてを配達するパズル",
      "image": "https://img.gamemonetize.com/hockj9avx4zyekon0s140acksxfcrk7f/512x384.jpg",
      "categoryId": 2
    }
  ]
}
