{
  "category": {
    "id": 2,
    "name": "冒険です",
    "alias": "adventure",
    "count": 289
  },
  "page": 7,
  "totalPages": 13,
  "totalItems": 289,
  "items": [
    {
      "id": "25921",
      "name": "カラーホープスタック",
      "image": "https://img.gamemonetize.com/gvy1oaer74yr8pwbpye3vu8sl0o3npe6/512x384.jpg",
      "categoryId": 2
    },
    {
      "id": "25916",
      "name": "残りを描けゲーム",
      "image": "https://img.gamemonetize.com/tjsfsf74vw7st0ax7rl4tpna8f29pe5v/512x384.jpg",
      "categoryId": 2
    },
    {
      "id": "25894",
      "name": "武器を描け",
      "image": "https://img.gamemonetize.com/is3azofwbcklm3q7fkxhmtbyt57pn970/512x384.jpg",
      "categoryId": 2
    },
    {
      "id": "25827",
      "name": "迷路隠れるか探すゲーム",
      "image": "https://img.gamemonetize.com/b2swz06jel2zk4in6up2ehvwia7nal7c/512x384.jpg",
      "categoryId": 2
    },
    {
      "id": "25812",
      "name": "ガンフェスゲーム",
      "image": "https://img.gamemonetize.com/gjkfqs5cnw18phqpyttd0qgiapapux8j/512x384.jpg",
      "categoryId": 2
    },
    {
      "id": "25811",
      "name": "ダンクダイガー",
      "image": "https://img.gamemonetize.com/orpmtfdfxkkjcj370cfqbduqhaprbr4h/512x384.jpg",
      "categoryId": 2
    },
    {
      "id": "25793",
      "name": "サマーダイノ",
      "image": "https://img.gamemonetize.com/dkf6wv2918g4lkt37ltzrgcgs8we4h1f/512x384.jpg",
      "categoryId": 2
    },
    {
      "id": "25757",
      "name": "クッキングストリート",
      "image": "https://img.gamemonetize.com/xysbj5rriulaue5gs5x15mum98quvvj3/512x384.jpg",
      "categoryId": 2
    },
    {
      "id": "25695",
      "name": "ワードゲーム",
      "image": "https://img.gamemonetize.com/yu55cnnpr6tgl2wz4ax29l1s48zgovhc/512x384.jpg",
      "categoryId": 2
    },
    {
      "id": "25689",
      "name": "カラードミネーション",
      "image": "https://img.gamemonetize.com/qj90udwf2i8dja28u8rbpxx7vcki08eg/512x384.jpg",
      "categoryId": 2
    },
    {
      "id": "25687",
      "name": "ハッピーな満たされたガラスゲーム",
      "image": "https://img.gamemonetize.com/xdpeldwwaocopnxk3z6alrtfiixtka5l/512x384.jpg",
      "categoryId": 2
    },
    {
      "id": "25686",
      "name": "インポッシブル10",
      "image": "https://img.gamemonetize.com/61jjn7pgssfgx1oy967tmy2u5cem9oix/512x384.jpg",
      "categoryId": 2
    },
    {
      "id": "25685",
      "name": "トラフィックランパズル",
      "image": "https://img.gamemonetize.com/a1iyxlib15f20topu7tv34tl24e8imyg/512x384.jpg",
      "categoryId": 2
    },
    {
      "id": "25676",
      "name": "ムーダー - 王になる",
      "image": "https://img.gamemonetize.com/0zr72bff00rfscgi5s3mdqk0n3f4ispm/512x384.jpg",
      "categoryId": 2
    },
    {
      "id": "25620",
      "name": "ハッピーな満たされたガラス2ゲーム",
      "image": "https://img.gamemonetize.com/r06mqqman6pt01xk6nctcw105y5fkyrb/512x384.jpg",
      "categoryId": 2
    },
    {
      "id": "25591",
      "name": "ステルスマスター3Dゲーム",
      "image": "https://img.gamemonetize.com/53nbhdb67pp8bsd0w3z2sohuy0bi9khl/512x384.jpg",
      "categoryId": 2
    },
    {
      "id": "25574",
      "name": "スーパーカー",
      "image": "https://img.gamemonetize.com/aokl5ddmd0a9a1nglxkq3ngbxa0ibbdw/512x384.jpg",
      "categoryId": 2
    },
    {
      "id": "25465",
      "name": "タワーアタックウォー3D",
      "image": "https://img.gamemonetize.com/rwq7l9l48d51vhfhwal1dgrqhco8hxri/512x384.jpg",
      "categoryId": 2
    },
    {
      "id": "25413",
      "name": "ブレーキをかけない - 高速道路交通",
      "image": "https://img.gamemonetize.com/cga7lxsy8squhevbxqckymhxvqit5a1a/512x384.jpg",
      "categoryId": 2
    },
    {
      "id": "25392",
      "name": "ダンジョンケイブ",
      "image": "https://img.gamemonetize.com/notjchywyv2ylec1bwl1192t03s87as2/512x384.jpg",
      "categoryId": 2
    },
    {
      "id": "25368",
      "name": "ティニーフィッシング - アイドルフィッシングゲーム",
      "image": "https://img.gamemonetize.com/hzvsxelbew3y0v09vyql2n40kgtziqyg/512x384.jpg",
      "categoryId": 2
    },
    {
      "id": "25366",
      "name": "ダンジョンマイナー - アイドルマイニングゲーム",
      "image": "https://img.gamemonetize.com/ugjtaa746vc8rl37miw74a2oesyoldm9/512x384.jpg",
      "categoryId": 2
    },
    {
      "id": "25313",
      "name": "プロテクトドローイット",
      "image": "https://img.gamemonetize.com/2ca9eo3a10owik5gszry36izybxq3da3/512x384.jpg",
      "categoryId": 2
    },
    {
      "id": "25259",
      "name": "ジェリーランナー3D",
      "image": "https://img.gamemonetize.com/f574j25znogelyxzfq31f768h875klgc/512x384.jpg",
      "categoryId": 2
    }
  ]
}
