{
  "category": {
    "id": 5,
    "name": "マッチマンです",
    "alias": "stickman",
    "count": 300
  },
  "page": 1,
  "totalPages": 13,
  "totalItems": 300,
  "items": [
    {
      "id": "33256",
      "name": "アサシンナイト",
      "image": "https://img.gamemonetize.com/ksq2yt870myyw9a0bzk6spzdxqzew0nv/512x384.jpg",
      "categoryId": 5
    },
    {
      "id": "33130",
      "name": "キャッスルウォーズ：セルバトル",
      "image": "https://img.gamemonetize.com/gq4qclr7cm0m08dakx3i7arzw5caq9tb/512x384.jpg",
      "categoryId": 5
    },
    {
      "id": "33057",
      "name": "ドローセーブパズル",
      "image": "https://img.gamemonetize.com/bl9mbkidqt65a2zi3akccumx2irkes65/512x384.jpg",
      "categoryId": 5
    },
    {
      "id": "33029",
      "name": "スプランキーマスター",
      "image": "https://img.gamemonetize.com/d81gftv0bjirnvsqazb705woirohi6id/512x384.jpg",
      "categoryId": 5
    },
    {
      "id": "32890",
      "name": "スプランキーレイジスティックマンインクレディボックス",
      "image": "https://img.gamemonetize.com/m8x6penzlmav9y79ypzlw9i10usli9ld/512x384.jpg",
      "categoryId": 5
    },
    {
      "id": "32887",
      "name": "タールボスラン",
      "image": "https://img.gamemonetize.com/skiossve1c9yi6q6lewmovlmntq35iis/512x384.jpg",
      "categoryId": 5
    },
    {
      "id": "32672",
      "name": "サンタスティック",
      "image": "https://img.gamemonetize.com/08g52hfq31xhdc73b4dr3zm6254ci1lq/512x384.jpg",
      "categoryId": 5
    },
    {
      "id": "32586",
      "name": "モブコントロールシュート",
      "image": "https://img.gamemonetize.com/mak258eeak9s5x0um9vjkb0zqgx4m3pv/512x384.jpg",
      "categoryId": 5
    },
    {
      "id": "32457",
      "name": "スティックアーチャーチャンピオン",
      "image": "https://img.gamemonetize.com/sau8efctplff566hb06hzx5jyhgu6xyd/512x384.jpg",
      "categoryId": 5
    },
    {
      "id": "32339",
      "name": "ドローセーブパズル",
      "image": "https://img.gamemonetize.com/76kn0zqb9ti95c31997em839qaaq0bj2/512x384.jpg",
      "categoryId": 5
    },
    {
      "id": "32305",
      "name": "スティックマンバトルファイティング",
      "image": "https://img.gamemonetize.com/lyqrzmhsa4gdejjhe2c1fadi6uw6gaen/512x384.jpg",
      "categoryId": 5
    },
    {
      "id": "32304",
      "name": "マッチマンを怒らせないで",
      "image": "https://img.gamemonetize.com/ab073sarz93hhpqep83h98auqq9o4yyf/512x384.jpg",
      "categoryId": 5
    },
    {
      "id": "31868",
      "name": "スティックマンVSゾンビマインクラフト",
      "image": "https://img.gamemonetize.com/bztju5apx957kapkxnzocq3au3f8kq3y/512x384.jpg",
      "categoryId": 5
    },
    {
      "id": "31840",
      "name": "ゾンビロワイヤルIO",
      "image": "https://img.gamemonetize.com/d3zex3l2rordlog1xeiq4id7521xskby/512x384.jpg",
      "categoryId": 5
    },
    {
      "id": "31823",
      "name": "シティラン.IO",
      "image": "https://img.gamemonetize.com/yffqin0i6g8wp9s0d2ceppd0nafsp15m/512x384.jpg",
      "categoryId": 5
    },
    {
      "id": "31819",
      "name": "スティックマンザ・フラッシュ",
      "image": "https://img.gamemonetize.com/qfh8jceadtfl6m0ilctnpy6elqpdp04p/512x384.jpg",
      "categoryId": 5
    },
    {
      "id": "31774",
      "name": "ウッドマンカッター",
      "image": "https://img.gamemonetize.com/9dn6qz1nr6ldwr082r4t7o55aeyo3owt/512x384.jpg",
      "categoryId": 5
    },
    {
      "id": "31716",
      "name": "ジャベリンバトル",
      "image": "https://img.gamemonetize.com/a006nqrea1p11ps579qsfeljddvark7m/512x384.jpg",
      "categoryId": 5
    },
    {
      "id": "31657",
      "name": "パーティーゲームミニシューターバトル",
      "image": "https://img.gamemonetize.com/ss99whqqix1wim1twd1aq59xtdqw8iu5/512x384.jpg",
      "categoryId": 5
    },
    {
      "id": "31558",
      "name": "プリンセスファッションメイクオーバー",
      "image": "https://img.gamemonetize.com/sc9ejt7r48hraoupnzd2kw0smy7j8wvu/512x384.jpg",
      "categoryId": 5
    },
    {
      "id": "31493",
      "name": "デザートジャンプ",
      "image": "https://img.gamemonetize.com/i3ki8ewmijq0g4lwi8u8wstx5toljd0c/512x384.jpg",
      "categoryId": 5
    },
    {
      "id": "31470",
      "name": "カウントエスケープラッシュ",
      "image": "https://img.gamemonetize.com/f09c7w9y94ke2bn2nlisnx1l7ad1mc23/512x384.jpg",
      "categoryId": 5
    },
    {
      "id": "31456",
      "name": "ファイタースティックヒーロー",
      "image": "https://img.gamemonetize.com/6is41jnk4xgxy8n18o6fkto7vasca5yj/512x384.jpg",
      "categoryId": 5
    },
    {
      "id": "31443",
      "name": "ポップイット3Dフィジットトイメーカー",
      "image": "https://img.gamemonetize.com/1n2sqpxhwi08qaxtp8fu8tcpagguqu3y/512x384.jpg",
      "categoryId": 5
    }
  ]
}
