{
  "category": {
    "id": 5,
    "name": "マッチマンです",
    "alias": "stickman",
    "count": 300
  },
  "page": 11,
  "totalPages": 13,
  "totalItems": 300,
  "items": [
    {
      "id": "8353",
      "name": "スティッククラッシュ",
      "image": "https://img.gamemonetize.com/w5rvh1u0djtz335cnu280rpwihvrnw5j/512x384.jpg",
      "categoryId": 5
    },
    {
      "id": "8229",
      "name": "ローリーボールズ2021",
      "image": "https://img.gamemonetize.com/gj5kmpm5pfmwhke924hz8ggwv1jie2du/512x384.jpg",
      "categoryId": 5
    },
    {
      "id": "8184",
      "name": "絵文字ゲーム",
      "image": "https://img.gamemonetize.com/3m7t5ko2qugbnr4y86jawj63hf7ynkhr/512x384.jpg",
      "categoryId": 5
    },
    {
      "id": "8132",
      "name": "私たちの中の偽者侍",
      "image": "https://img.gamemonetize.com/3dzg5owhgdnwrvxj8861sb828jtmhvbk/512x384.jpg",
      "categoryId": 5
    },
    {
      "id": "7944",
      "name": "面白い顔マッチ",
      "image": "https://img.gamemonetize.com/zr4edszqdqprn3hn6yswbqjv5vc2m3mm/512x384.jpg",
      "categoryId": 5
    },
    {
      "id": "7909",
      "name": "ボールソート3D",
      "image": "https://img.gamemonetize.com/pxegbdsbnhsylh76in58nwf85k37qvog/512x384.jpg",
      "categoryId": 5
    },
    {
      "id": "7851",
      "name": "スティックマンヒーローズファイト",
      "image": "https://img.gamemonetize.com/4c1hr39gf9q1iyi9drqr3kzcnijxesxi/512x384.jpg",
      "categoryId": 5
    },
    {
      "id": "7814",
      "name": "ドラゴンボールスティックマンZ",
      "image": "https://img.gamemonetize.com/jboag0pr5qal6wwdjow22ixsmqy9ymoi/512x384.jpg",
      "categoryId": 5
    },
    {
      "id": "7679",
      "name": "ジャンピングパズルマスター",
      "image": "https://img.gamemonetize.com/f3ntyizm5nf0tb4j2dmd44ycziiwqa96/512x384.jpg",
      "categoryId": 5
    },
    {
      "id": "7581",
      "name": "Light It Up - Glow",
      "image": "https://img.gamemonetize.com/8xnsqeirxedsh3kcudwg8gca7cgvzi67/512x384.jpg",
      "categoryId": 5
    },
    {
      "id": "7493",
      "name": "スティックキラー",
      "image": "https://img.gamemonetize.com/munhsn4ny8fsxhklmqe6mx0a19v7vkgh/512x384.jpg",
      "categoryId": 5
    },
    {
      "id": "7396",
      "name": "スティックマンシティシューティング",
      "image": "https://img.gamemonetize.com/7egf7ntv2q7up5mnd6kxmom7kwlfehtm/512x384.jpg",
      "categoryId": 5
    },
    {
      "id": "6492",
      "name": "ドライブヒルズ",
      "image": "https://img.gamemonetize.com/m62u3obbbzhqjiieiddqfe02ctktzx6m/512x384.jpg",
      "categoryId": 5
    },
    {
      "id": "6486",
      "name": "ジョニートリガー3Dオンライン",
      "image": "https://img.gamemonetize.com/r9yzglmdp6ghmiknhy6b31z3k0al2j3u/512x384.jpg",
      "categoryId": 5
    },
    {
      "id": "6406",
      "name": "スティックマンスナイパー",
      "image": "https://img.gamemonetize.com/z5v2w6zss3jjcfjws8vzzn58z7efxxuw/512x384.jpg",
      "categoryId": 5
    },
    {
      "id": "6364",
      "name": "スティックマンエピックバトル",
      "image": "https://img.gamemonetize.com/var3xfa8jqjxj1gb4327ymgnzkt8nhni/512x384.jpg",
      "categoryId": 5
    },
    {
      "id": "6244",
      "name": "スティックマンファイト",
      "image": "https://img.gamemonetize.com/xsnm9j5pt4edsiibqgn1vd8i0twqrclp/512x384.jpg",
      "categoryId": 5
    },
    {
      "id": "6018",
      "name": "ジュラシックワールドラン",
      "image": "https://img.gamemonetize.com/5e9r7xgwb0a06tr621u3rua9sxnqbrvg/512x384.jpg",
      "categoryId": 5
    },
    {
      "id": "5998",
      "name": "アマング・アス・スリング",
      "image": "https://img.gamemonetize.com/y0yexhmdc73924ga1ddmmihnd1bia9j9/512x384.jpg",
      "categoryId": 5
    },
    {
      "id": "5997",
      "name": "シフトレネゲードブロウル",
      "image": "https://img.gamemonetize.com/v9kun6or775k19iri6nhtxd1hrmv2zvx/512x384.jpg",
      "categoryId": 5
    },
    {
      "id": "5975",
      "name": "スティックマン3Dウィングスーツ",
      "image": "https://img.gamemonetize.com/w88kcmx6jtbjy9pbtmf4vxb1ioidp7dm/512x384.jpg",
      "categoryId": 5
    },
    {
      "id": "5961",
      "name": "スティックヒーロー",
      "image": "https://img.gamemonetize.com/inj89oore8r3mso7tbg8nr4ng1m2xhif/512x384.jpg",
      "categoryId": 5
    },
    {
      "id": "5912",
      "name": "スティックデュエル：中世戦争",
      "image": "https://img.gamemonetize.com/7yt89sszsvq0j0y7frzuxhuksbhneynl/512x384.jpg",
      "categoryId": 5
    },
    {
      "id": "5831",
      "name": "トップに登るタッチ",
      "image": "https://img.gamemonetize.com/ilnafv1nkh5b0qwxgiy8wv4haz2fy3fg/512x384.jpg",
      "categoryId": 5
    }
  ]
}
