{
  "category": {
    "id": 5,
    "name": "マッチマンです",
    "alias": "stickman",
    "count": 300
  },
  "page": 13,
  "totalPages": 13,
  "totalItems": 300,
  "items": [
    {
      "id": "1880",
      "name": "クラッシュオブスティックマンウォリアー",
      "image": "https://img.gamemonetize.com/8io41csob4hgrw0amj25lqms0ce73anc/512x384.jpg",
      "categoryId": 5
    },
    {
      "id": "1873",
      "name": "スティックソルジャー",
      "image": "https://img.gamemonetize.com/3hpeoxayy14qfpv0evqm00rbdadij4cm/512x384.jpg",
      "categoryId": 5
    },
    {
      "id": "1791",
      "name": "スティックマンファイター：スペースウォー",
      "image": "https://img.gamemonetize.com/1v7b0ohoudwo187vdpbkfds58dt319z2/512x384.jpg",
      "categoryId": 5
    },
    {
      "id": "1788",
      "name": "スティックマン忍者ウォリアーズ",
      "image": "https://img.gamemonetize.com/kfehmd1vmr9c2l9n72shvibrqbjejv33/512x384.jpg",
      "categoryId": 5
    },
    {
      "id": "1755",
      "name": "ミスターボウ",
      "image": "https://img.gamemonetize.com/sinzont82bnqz8a697g4biossp6wrfsk/512x384.jpg",
      "categoryId": 5
    },
    {
      "id": "1709",
      "name": "スティックマンチームフォース",
      "image": "https://img.gamemonetize.com/wdwndlx5wn7lyptgc8hck6drcfte2miz/512x384.jpg",
      "categoryId": 5
    },
    {
      "id": "1469",
      "name": "XMASホイール",
      "image": "https://img.gamemonetize.com/ayk2aqpgn246yfncnu1vxd3h7ahxlyfw/512x384.jpg",
      "categoryId": 5
    },
    {
      "id": "1466",
      "name": "ホイールバイク",
      "image": "https://img.gamemonetize.com/0x8t0mbhij0qu4bal4787s9jo5bcjpuj/512x384.jpg",
      "categoryId": 5
    },
    {
      "id": "1288",
      "name": "スティックマンスナイパー3",
      "image": "https://img.gamemonetize.com/46umfc49bzgl2nf80gm60x2r7puy2746/512x384.jpg",
      "categoryId": 5
    },
    {
      "id": "1218",
      "name": "スティックマングンシューター3D",
      "image": "https://img.gamemonetize.com/55uewxpgw5fg83ahhosllieq3819vzw0/512x384.jpg",
      "categoryId": 5
    },
    {
      "id": "973",
      "name": "スティックマンソー3D",
      "image": "https://img.gamemonetize.com/0i9u6lcbud4wtkl32km8ens7wfginpoo/512x384.jpg",
      "categoryId": 5
    },
    {
      "id": "919",
      "name": "スティックマンプリズンエスケープストーリー3D",
      "image": "https://img.gamemonetize.com/vdqwhxttg6ujyz9mkidhgn18j46mrm7m/512x384.jpg",
      "categoryId": 5
    }
  ]
}
