{
  "category": {
    "id": 5,
    "name": "マッチマンです",
    "alias": "stickman",
    "count": 300
  },
  "page": 7,
  "totalPages": 13,
  "totalItems": 300,
  "items": [
    {
      "id": "15374",
      "name": "スティックマンシューティング3：モンスターの中",
      "image": "https://img.gamemonetize.com/2lr8r7zgvsgccdenhk1a62oeuzzz5lqe/512x384.jpg",
      "categoryId": 5
    },
    {
      "id": "15330",
      "name": "スティックマンクライム",
      "image": "https://img.gamemonetize.com/p119i9rb086uekl7rfh6alonr8o2dyj2/512x384.jpg",
      "categoryId": 5
    },
    {
      "id": "15039",
      "name": "アーチャーピアレスレス.io",
      "image": "https://img.gamemonetize.com/m1pic4ayty2tp1p2uyatyrx1e9uesgsg/512x384.jpg",
      "categoryId": 5
    },
    {
      "id": "15037",
      "name": "クラウドプルロープ",
      "image": "https://img.gamemonetize.com/1mhi67ozg4ycdxwtnr6vpzs46h5caez4/512x384.jpg",
      "categoryId": 5
    },
    {
      "id": "15036",
      "name": "ハルクスマッシュブレーカーウォール",
      "image": "https://img.gamemonetize.com/6e72e041n8nq1biykx2m0ywjte2so8nu/512x384.jpg",
      "categoryId": 5
    },
    {
      "id": "14899",
      "name": "スティックマンシャドウヒーロー",
      "image": "https://img.gamemonetize.com/vo752qw0gt9a77j0e8sfkm5wso4vun4d/512x384.jpg",
      "categoryId": 5
    },
    {
      "id": "14770",
      "name": "マイドルフィッシュショー - ゲーム",
      "image": "https://img.gamemonetize.com/30xan59o1vddqirxpux9732ovug7z5az/512x384.jpg",
      "categoryId": 5
    },
    {
      "id": "14722",
      "name": "スティックマンエスケープパルクール",
      "image": "https://img.gamemonetize.com/ts7y4ik94if0lj7khxbt147a4oihslcl/512x384.jpg",
      "categoryId": 5
    },
    {
      "id": "14616",
      "name": "シャドウアーチャー",
      "image": "https://img.gamemonetize.com/4t5ud1unv0v4z6o106i7dk2xrck4prir/512x384.jpg",
      "categoryId": 5
    },
    {
      "id": "14583",
      "name": "バブルシューター - パズル",
      "image": "https://img.gamemonetize.com/6lfjdkrujhim8t417hsjv8r9a18f9yfo/512x384.jpg",
      "categoryId": 5
    },
    {
      "id": "14410",
      "name": "パンチヒーローマスター",
      "image": "https://img.gamemonetize.com/dk4tz5fcurlt6jecq2m478kmuqbnn4zs/512x384.jpg",
      "categoryId": 5
    },
    {
      "id": "14281",
      "name": "ニンジャスティック",
      "image": "https://img.gamemonetize.com/ug562lbaywh1th7dwbek2qaxu3hybyal/512x384.jpg",
      "categoryId": 5
    },
    {
      "id": "14227",
      "name": "スティックマンピースキーパー",
      "image": "https://img.gamemonetize.com/xfw5cdy6ksg3r0z9wd54iiyw731mx565/512x384.jpg",
      "categoryId": 5
    },
    {
      "id": "14198",
      "name": "ミスタースティックマン",
      "image": "https://img.gamemonetize.com/jndurw3pmdos9ehy9ca8jmwepxlkh0ja/512x384.jpg",
      "categoryId": 5
    },
    {
      "id": "14128",
      "name": "スティックマンストリートファイト",
      "image": "https://img.gamemonetize.com/vnl2say6v42wgl1g140h0j9a8aiawe8o/512x384.jpg",
      "categoryId": 5
    },
    {
      "id": "14073",
      "name": "スティックマンアーチャー4",
      "image": "https://img.gamemonetize.com/ygn25doepay8cbhkuqr2wg9xwr9rnyxm/512x384.jpg",
      "categoryId": 5
    },
    {
      "id": "14019",
      "name": "スナイパートリガーリベンジ",
      "image": "https://img.gamemonetize.com/ypkr83xou762l59mbcuopkxrhwwwulcl/512x384.jpg",
      "categoryId": 5
    },
    {
      "id": "13947",
      "name": "ファニーラグドールレスラー",
      "image": "https://img.gamemonetize.com/jds5fxchg40of8edr3ho3qhwpo703p9x/512x384.jpg",
      "categoryId": 5
    },
    {
      "id": "13933",
      "name": "スティックマンガンバトルシミュレーター",
      "image": "https://img.gamemonetize.com/vty93a9n4siz0l29etq402p3ktq5zmdj/512x384.jpg",
      "categoryId": 5
    },
    {
      "id": "13879",
      "name": "スティックマンマージ2",
      "image": "https://img.gamemonetize.com/0enartbxbeoct0y3pt4c3ffy1v5gks1l/512x384.jpg",
      "categoryId": 5
    },
    {
      "id": "13819",
      "name": "スティックマンジグソー",
      "image": "https://img.gamemonetize.com/fwbs1xo9ta2w0bafkkfppcnds3eq1mns/512x384.jpg",
      "categoryId": 5
    },
    {
      "id": "13814",
      "name": "スティックマントレーダーディフェンダー",
      "image": "https://img.gamemonetize.com/gtaprsmat7o4o6vkg3unma7vxbw1w7dg/512x384.jpg",
      "categoryId": 5
    },
    {
      "id": "13804",
      "name": "ホイールライド",
      "image": "https://img.gamemonetize.com/brupr143ni1os34nbmk1bgobvwxfpcwv/512x384.jpg",
      "categoryId": 5
    },
    {
      "id": "13802",
      "name": "スティックファイトゲーム",
      "image": "https://img.gamemonetize.com/hqjf5yakd0qajttjzydupbno3illn68t/512x384.jpg",
      "categoryId": 5
    }
  ]
}
