{
  "category": {
    "id": 5,
    "name": "マッチマンです",
    "alias": "stickman",
    "count": 300
  },
  "page": 9,
  "totalPages": 13,
  "totalItems": 300,
  "items": [
    {
      "id": "11812",
      "name": "スティックマンシャドウニンジャフォース",
      "image": "https://img.gamemonetize.com/dzu7wgkcldljvgh37v2kqqhnjedtu4g7/512x384.jpg",
      "categoryId": 5
    },
    {
      "id": "11336",
      "name": "スティックマンインクレディブルモンスターヒーローシティファイト",
      "image": "https://img.gamemonetize.com/4519hb3heq708m9y2j5yy32qj7xsf74j/512x384.jpg",
      "categoryId": 5
    },
    {
      "id": "11290",
      "name": "ウォーターフロー",
      "image": "https://img.gamemonetize.com/hhnbpg76uvlj0v25b7q8l9tlcrpnbfvt/512x384.jpg",
      "categoryId": 5
    },
    {
      "id": "11239",
      "name": "クラシック",
      "image": "https://img.gamemonetize.com/b1xhs9srby4hvh2r1kjeh5lns7hhehqp/512x384.jpg",
      "categoryId": 5
    },
    {
      "id": "11219",
      "name": "スティックマンバイク",
      "image": "https://img.gamemonetize.com/oeidb57q5fuk7k4h5eh9wy3ql6e5ru7g/512x384.jpg",
      "categoryId": 5
    },
    {
      "id": "10956",
      "name": "ゾンビシューター",
      "image": "https://img.gamemonetize.com/6xtkqsfxltm8jmkmqnzn65i83iwjb3yh/512x384.jpg",
      "categoryId": 5
    },
    {
      "id": "10938",
      "name": "FNAFピアノタイルズ",
      "image": "https://img.gamemonetize.com/t0zn7b0ekbzutts01kemoqtzvg8dqodk/512x384.jpg",
      "categoryId": 5
    },
    {
      "id": "10916",
      "name": "フリップスパイダーマンヒーロー - スパイダーマンフックオンラインゲーム",
      "image": "https://img.gamemonetize.com/ce9aw4d0l12vp74nwaqcxgr6cfk1a76n/512x384.jpg",
      "categoryId": 5
    },
    {
      "id": "10805",
      "name": "ウィングスーツスティックマン",
      "image": "https://img.gamemonetize.com/hwbdvp0nmxtqnexdy2n5say08jdj8ldp/512x384.jpg",
      "categoryId": 5
    },
    {
      "id": "10764",
      "name": "フィジータースピナーマスターゲーム",
      "image": "https://img.gamemonetize.com/k1z54y1cla9gogv8s6dvh64g5mo0ho62/512x384.jpg",
      "categoryId": 5
    },
    {
      "id": "10706",
      "name": "スタックマスター！",
      "image": "https://img.gamemonetize.com/qpr5whf8qeqad821vbltj7qclfbm38zt/512x384.jpg",
      "categoryId": 5
    },
    {
      "id": "10599",
      "name": "ドローライダーフリー - トップバイクスティックマンレースゲーム",
      "image": "https://img.gamemonetize.com/y3k63kz1i7a09u1elyvul94nwp2sh73f/512x384.jpg",
      "categoryId": 5
    },
    {
      "id": "10558",
      "name": "サンセットバイクレーサー - モトクロスゲーム",
      "image": "https://img.gamemonetize.com/u9hj2yjkvs8olk7vg4q8gthe98myv56p/512x384.jpg",
      "categoryId": 5
    },
    {
      "id": "10361",
      "name": "ワードパズルサーチ",
      "image": "https://img.gamemonetize.com/mjo2zxicdr3hs3w4t95gvx15augt3e8q/512x384.jpg",
      "categoryId": 5
    },
    {
      "id": "10342",
      "name": "ロビンフック（スパイダーマンエディション）",
      "image": "https://img.gamemonetize.com/3wcnzdcy1kwntl8v273u65k109psixil/512x384.jpg",
      "categoryId": 5
    },
    {
      "id": "10292",
      "name": "デンター・マスター",
      "image": "https://img.gamemonetize.com/9emeshsq8px3xrnoq674i574uykedu1n/512x384.jpg",
      "categoryId": 5
    },
    {
      "id": "10221",
      "name": "ハングラム",
      "image": "https://img.gamemonetize.com/jvwtf6um2neijb9hl7qr9nr3czl3jlh3/512x384.jpg",
      "categoryId": 5
    },
    {
      "id": "10210",
      "name": "ゲームクラッシュオブバイキング",
      "image": "https://img.gamemonetize.com/9etr0k3j53uzn4zekqreddhpcopqns2x/512x384.jpg",
      "categoryId": 5
    },
    {
      "id": "10208",
      "name": "モンスターラン2",
      "image": "https://img.gamemonetize.com/e92cng1nt012xfpz1vgeyr0hrxww2vkh/512x384.jpg",
      "categoryId": 5
    },
    {
      "id": "10085",
      "name": "ライトアップ - ニンジャジャンプアップ",
      "image": "https://img.gamemonetize.com/91q2e9v8rszvfwmdnc7re6etgfwfskq1/512x384.jpg",
      "categoryId": 5
    },
    {
      "id": "10056",
      "name": "サンクチュアリレスキュープラン",
      "image": "https://img.gamemonetize.com/27g4fhy0qft8gu9mdgk4p0hp0ez2lg9n/512x384.jpg",
      "categoryId": 5
    },
    {
      "id": "9917",
      "name": "スーパーヒーローフック",
      "image": "https://img.gamemonetize.com/783nkq8duj1b4f5i824ac07q9mizcs0j/512x384.jpg",
      "categoryId": 5
    },
    {
      "id": "9895",
      "name": "ナルトフリップゲームアドベンチャー - エンドレスフックオンライン",
      "image": "https://img.gamemonetize.com/trgtsl0el5lz7gyimf550d2bvws2172u/512x384.jpg",
      "categoryId": 5
    },
    {
      "id": "9894",
      "name": "ナルト:シップデンフリップゲーム - エンドレスフックオンライン",
      "image": "https://img.gamemonetize.com/aweys3im1ropdh8fggheiq2sxxvjifgs/512x384.jpg",
      "categoryId": 5
    }
  ]
}
