{
  "category": {
    "id": 2,
    "name": "Adventure",
    "alias": "adventure",
    "count": 300
  },
  "page": 1,
  "totalPages": 13,
  "totalItems": 300,
  "items": [
    {
      "id": "33278",
      "name": "Monster Game",
      "image": "https://img.gamemonetize.com/suh0kkvmzonbeft293c3elziytw0ugpc/512x384.jpg",
      "categoryId": 2
    },
    {
      "id": "32710",
      "name": "Nubiks build a defense vs zombies",
      "image": "https://img.gamemonetize.com/ypk4vwpjaia00rdje91pp17emhjv3tmb/512x384.jpg",
      "categoryId": 2
    },
    {
      "id": "32493",
      "name": "Cars Movement",
      "image": "https://img.gamemonetize.com/qyatso0vkjq5zz2e0lbzwua064bhfz3y/512x384.jpg",
      "categoryId": 2
    },
    {
      "id": "32376",
      "name": "Table Pong 2D",
      "image": "https://img.gamemonetize.com/ys1ivxz3lmwxz4k05gk3m20z7tzre5e5/512x384.jpg",
      "categoryId": 2
    },
    {
      "id": "32375",
      "name": "Little Panda Space Journey",
      "image": "https://img.gamemonetize.com/3c6ufox6i3i8cp5o8fdzl6dl8r2zvklf/512x384.jpg",
      "categoryId": 2
    },
    {
      "id": "32276",
      "name": "Cocktail Party 3D ",
      "image": "https://img.gamemonetize.com/llkmrfjrms7ea79b5v88qs7zdinboryu/512x384.jpg",
      "categoryId": 2
    },
    {
      "id": "32198",
      "name": "Robot Fighting Adventure",
      "image": "https://img.gamemonetize.com/riw72brknxjp2r5nx3oh8mh6pm2uqwd2/512x384.jpg",
      "categoryId": 2
    },
    {
      "id": "32169",
      "name": "Merge Animals Mutant Fight",
      "image": "https://img.gamemonetize.com/dmjqtzqhjmtqz28e0ov2vgtw1wdm61oz/512x384.jpg",
      "categoryId": 2
    },
    {
      "id": "32159",
      "name": "Block Craft 3D School",
      "image": "https://img.gamemonetize.com/cfju14fi5zca7zzt1gyefjvvi2crlbst/512x384.jpg",
      "categoryId": 2
    },
    {
      "id": "32055",
      "name": "Horseback Survival",
      "image": "https://img.gamemonetize.com/9pxqio485c6d6a5gc0k72wbjp3r9ewik/512x384.jpg",
      "categoryId": 2
    },
    {
      "id": "31990",
      "name": "Super Doctor Body Examination",
      "image": "https://img.gamemonetize.com/2iwba0rqln0grbzu8wxt3pphl1yrbe9e/512x384.jpg",
      "categoryId": 2
    },
    {
      "id": "31900",
      "name": "Elemental Gloves Magic Power",
      "image": "https://img.gamemonetize.com/y95ivh95bn3pnk7gaory8rz47ymeo9gp/512x384.jpg",
      "categoryId": 2
    },
    {
      "id": "31869",
      "name": "Skibronx Runner",
      "image": "https://img.gamemonetize.com/m3jdpqmzjs20ibx1nhos8m182x8yqsj3/512x384.jpg",
      "categoryId": 2
    },
    {
      "id": "31821",
      "name": "Guard The Baby 1",
      "image": "https://img.gamemonetize.com/q15f4tdzhm077b8igtdr7qli7y5ktaqm/512x384.jpg",
      "categoryId": 2
    },
    {
      "id": "31658",
      "name": "Real Flight Simulator",
      "image": "https://img.gamemonetize.com/qomp8q8bgmkbkwitrb5mc6ba7k3shj1m/512x384.jpg",
      "categoryId": 2
    },
    {
      "id": "31642",
      "name": "Plug Man Race",
      "image": "https://img.gamemonetize.com/kqanb5x38iamu5oqbd1mhkdk7yaoon0f/512x384.jpg",
      "categoryId": 2
    },
    {
      "id": "31641",
      "name": "misland online",
      "image": "https://img.gamemonetize.com/snpxjzlasrg7hfbe6r3538ys1h08gfe6/512x384.jpg",
      "categoryId": 2
    },
    {
      "id": "31617",
      "name": "Last Day On Earth Survival",
      "image": "https://img.gamemonetize.com/glwm38stfnks21wuqi1876t1yyn11zvx/512x384.jpg",
      "categoryId": 2
    },
    {
      "id": "31491",
      "name": "Fire Truck Driving Simulator",
      "image": "https://img.gamemonetize.com/0uxu5s9g496iapo2tnhx8wtjhecy0b8j/512x384.jpg",
      "categoryId": 2
    },
    {
      "id": "31434",
      "name": "Horror Granny Playtime",
      "image": "https://img.gamemonetize.com/gd6bqzul6asrs570yawzly7mqlj7vw2w/512x384.jpg",
      "categoryId": 2
    },
    {
      "id": "31423",
      "name": "Plants Vs Zombies War",
      "image": "https://img.gamemonetize.com/g0hi0kcpxu3w6yak9mk7s1z4ek5vs8q3/512x384.jpg",
      "categoryId": 2
    },
    {
      "id": "31310",
      "name": "Baby Games For Preschool Kids",
      "image": "https://img.gamemonetize.com/5bu76cvkktp8njixko4j4kucy70yc6mg/512x384.jpg",
      "categoryId": 2
    },
    {
      "id": "31276",
      "name": "Mech Monster Arena",
      "image": "https://img.gamemonetize.com/ty57ya9u7pfgz1ew0x0z4sj089nx4jtn/512x384.jpg",
      "categoryId": 2
    },
    {
      "id": "31240",
      "name": "Word Master Kids",
      "image": "https://img.gamemonetize.com/j83g3m352xc3u23qdupk5rsl1sj8vis8/512x384.jpg",
      "categoryId": 2
    }
  ]
}
