{
  "category": {
    "id": 2,
    "name": "Adventure",
    "alias": "adventure",
    "count": 300
  },
  "page": 10,
  "totalPages": 13,
  "totalItems": 300,
  "items": [
    {
      "id": "24198",
      "name": "2048 Balls",
      "image": "https://img.gamemonetize.com/3ast8g1b91pva2wzn83wgtmipkejdllt/512x384.jpg",
      "categoryId": 2
    },
    {
      "id": "24162",
      "name": "Master Fall Down Game",
      "image": "https://img.gamemonetize.com/csgje0ro1ef68mfx9ag93fq8qdptyur3/512x384.jpg",
      "categoryId": 2
    },
    {
      "id": "24103",
      "name": "Battlefield Elite 3D",
      "image": "https://img.gamemonetize.com/9urd2sprcg2cvcvg0nrmmk2wcxozli2k/512x384.jpg",
      "categoryId": 2
    },
    {
      "id": "24102",
      "name": "Samurai Flash 3D",
      "image": "https://img.gamemonetize.com/jpq431zlvg1ghurraejh5dizzb24e4rz/512x384.jpg",
      "categoryId": 2
    },
    {
      "id": "24090",
      "name": "Friday Night Funkin Online",
      "image": "https://img.gamemonetize.com/otsz45if9cwsklzm5slw1ficefz5yz0v/512x384.jpg",
      "categoryId": 2
    },
    {
      "id": "24022",
      "name": "Super Tower War",
      "image": "https://img.gamemonetize.com/jrr7acndi8zfc70i0cf0y5m74nci4zmm/512x384.jpg",
      "categoryId": 2
    },
    {
      "id": "24021",
      "name": "Stupid Zombies Game",
      "image": "https://img.gamemonetize.com/w40uqcj11jyv8bbtwwhm77jttlo31h13/512x384.jpg",
      "categoryId": 2
    },
    {
      "id": "24018",
      "name": "Bazooka Boy Adventure",
      "image": "https://img.gamemonetize.com/xl469cxrtiy9nok2s30y25llty5mkoa5/512x384.jpg",
      "categoryId": 2
    },
    {
      "id": "24017",
      "name": "Blumgi Rocket Game",
      "image": "https://img.gamemonetize.com/830q4dkk2atk7t6ioitf7qg3siq4d5w6/512x384.jpg",
      "categoryId": 2
    },
    {
      "id": "23981",
      "name": "Extreme Jelly Shift 3D Game",
      "image": "https://img.gamemonetize.com/8v7ijxx38ysk36xszqghgk4uml6law2e/512x384.jpg",
      "categoryId": 2
    },
    {
      "id": "23954",
      "name": "Mini Survival Challenge",
      "image": "https://img.gamemonetize.com/igozh959q4qhyl8kcxgnq3nrrkpdk1kj/512x384.jpg",
      "categoryId": 2
    },
    {
      "id": "23923",
      "name": "Tower Run Online - Stack Tower Jump",
      "image": "https://img.gamemonetize.com/gxp7ft7twcg3ah0f2z2j7pwyx0brlx79/512x384.jpg",
      "categoryId": 2
    },
    {
      "id": "23919",
      "name": "Rope Wrapper",
      "image": "https://img.gamemonetize.com/81x6g0cawr5lidboarc7w7mifpy460ca/512x384.jpg",
      "categoryId": 2
    },
    {
      "id": "23918",
      "name": "Mosquito Run 3D",
      "image": "https://img.gamemonetize.com/s3qicdyy2yyxratdkgfotyf77fmhh2lz/512x384.jpg",
      "categoryId": 2
    },
    {
      "id": "23875",
      "name": "iPark my car",
      "image": "https://img.gamemonetize.com/gtx9lmhx9wf363bb75u31z450q31vaqr/512x384.jpg",
      "categoryId": 2
    },
    {
      "id": "23845",
      "name": "Save The Prince",
      "image": "https://img.gamemonetize.com/fx3b6wg48gj24zjyay0dia8cwaw53qy3/512x384.jpg",
      "categoryId": 2
    },
    {
      "id": "23843",
      "name": "Poppy Huggie Escape",
      "image": "https://img.gamemonetize.com/p0id50v38st61fiw9mp9ocpv7tx4og2p/512x384.jpg",
      "categoryId": 2
    },
    {
      "id": "23842",
      "name": "Path Control Game",
      "image": "https://img.gamemonetize.com/ukfrwdlrsn3e7tv06b4m2n42bz2ewsyn/512x384.jpg",
      "categoryId": 2
    },
    {
      "id": "23740",
      "name": "Johnny Trigger 3D Online - Action Shooter",
      "image": "https://img.gamemonetize.com/t1di77n0yp4tqxf3mhhv6ss772f9ad6r/512x384.jpg",
      "categoryId": 2
    },
    {
      "id": "23618",
      "name": "Draw Love Story",
      "image": "https://img.gamemonetize.com/i81cy1smptdsvl740ib5mtwpmubczm8h/512x384.jpg",
      "categoryId": 2
    },
    {
      "id": "23591",
      "name": "Heavy Crane Driving Simulator",
      "image": "https://img.gamemonetize.com/6kpg6ueiq54ccpsoi1fq79acznbgqy3l/512x384.jpg",
      "categoryId": 2
    },
    {
      "id": "23590",
      "name": "Food Roll 3D Game",
      "image": "https://img.gamemonetize.com/bnfrerh4b1xp319dpnuriti3g3i69luc/512x384.jpg",
      "categoryId": 2
    },
    {
      "id": "23589",
      "name": "The Great Zombie Warzone",
      "image": "https://img.gamemonetize.com/isfzqkox2oxpvvem6o53qzmxlyx9nluq/512x384.jpg",
      "categoryId": 2
    },
    {
      "id": "23577",
      "name": "Giant Run 3D",
      "image": "https://img.gamemonetize.com/idef6t8sg5ydq25atn8zlok7z1caffhb/512x384.jpg",
      "categoryId": 2
    }
  ]
}
