{
  "category": {
    "id": 2,
    "name": "Adventure",
    "alias": "adventure",
    "count": 300
  },
  "page": 11,
  "totalPages": 13,
  "totalItems": 300,
  "items": [
    {
      "id": "23558",
      "name": "Match 20 Challenge",
      "image": "https://img.gamemonetize.com/e10e4h1awfwdrhfhn4zuf0270trrwypa/512x384.jpg",
      "categoryId": 2
    },
    {
      "id": "23524",
      "name": "Truck Driver Simulator - 3D Driving Game",
      "image": "https://img.gamemonetize.com/b4sgsi2kr87kj30021h5kjrmux4b23hn/512x384.jpg",
      "categoryId": 2
    },
    {
      "id": "23490",
      "name": "Zizo Adventure",
      "image": "https://img.gamemonetize.com/thrsaenukoai5v4oix9ot5spirhcmbag/512x384.jpg",
      "categoryId": 2
    },
    {
      "id": "23404",
      "name": "Move The Pin 2 Game",
      "image": "https://img.gamemonetize.com/hqx9ru2z0d90grbrp7e6ryi8qoajop8l/512x384.jpg",
      "categoryId": 2
    },
    {
      "id": "23391",
      "name": "Food Pusher Battle Challenge",
      "image": "https://img.gamemonetize.com/ndz15f03x4w7k4m92o3emh8ma69irvn4/512x384.jpg",
      "categoryId": 2
    },
    {
      "id": "23348",
      "name": "Kitten Hide And Seek",
      "image": "https://img.gamemonetize.com/6ye9v374cz58xvrnngw4hjxzhwya0n9c/512x384.jpg",
      "categoryId": 2
    },
    {
      "id": "23344",
      "name": "Car Grinding",
      "image": "https://img.gamemonetize.com/442wt8281bzt59ml51tiu6itl2rpqsuu/512x384.jpg",
      "categoryId": 2
    },
    {
      "id": "23270",
      "name": "Spill Wine",
      "image": "https://img.gamemonetize.com/eycori7uv01k1r5qah0tmoa1jtuia0bg/512x384.jpg",
      "categoryId": 2
    },
    {
      "id": "23215",
      "name": "Nightmare Run",
      "image": "https://img.gamemonetize.com/32j30dy0q0jswv953dw3kcd5opvb7bg2/512x384.jpg",
      "categoryId": 2
    },
    {
      "id": "23153",
      "name": "Grab Pack Playtime Game",
      "image": "https://img.gamemonetize.com/ucpv9md1lg9s6gnldkv2mhzq68ax7xfq/512x384.jpg",
      "categoryId": 2
    },
    {
      "id": "23089",
      "name": "Worlds Hardest Challenge: Fill Fridge",
      "image": "https://img.gamemonetize.com/ayjy06ryrmm02f0ajx0is5gz40aes5qv/512x384.jpg",
      "categoryId": 2
    },
    {
      "id": "23083",
      "name": "Find A Difference",
      "image": "https://img.gamemonetize.com/64m5n5gohayx1st497w43hw3ygih8isp/512x384.jpg",
      "categoryId": 2
    },
    {
      "id": "23075",
      "name": "Ricochet Arrow Game",
      "image": "https://img.gamemonetize.com/ln72wyu9nsa0ph1x7jwmxx4vriilgbfl/512x384.jpg",
      "categoryId": 2
    },
    {
      "id": "23051",
      "name": "Shot Factor",
      "image": "https://img.gamemonetize.com/yzukr60mm1ylh5gmyxnpk7thc0cuti3u/512x384.jpg",
      "categoryId": 2
    },
    {
      "id": "23038",
      "name": "Run Royale Knockout 3D Game",
      "image": "https://img.gamemonetize.com/ca8mas9hmou1zy2r6xihjguec91sx2to/512x384.jpg",
      "categoryId": 2
    },
    {
      "id": "22985",
      "name": "Fastlane Road To Revenge Master - Car Racing",
      "image": "https://img.gamemonetize.com/fzvvjckvsyyzs0q5r2e4hml5byq5xgdi/512x384.jpg",
      "categoryId": 2
    },
    {
      "id": "22962",
      "name": "Off The Rails 3D - Train Game",
      "image": "https://img.gamemonetize.com/wmznekylgrskn8hbdngf2dw9plpa8hko/512x384.jpg",
      "categoryId": 2
    },
    {
      "id": "22936",
      "name": "Dotto Botto - Adventure Game",
      "image": "https://img.gamemonetize.com/kti339m72isvmjjte7m7ubbamejbvo3d/512x384.jpg",
      "categoryId": 2
    },
    {
      "id": "22935",
      "name": "Hammer Master 3D Game",
      "image": "https://img.gamemonetize.com/cojvpucdukgmpnslpe00gvucm7v832yj/512x384.jpg",
      "categoryId": 2
    },
    {
      "id": "22898",
      "name": "Solitaire Master-Classic Card",
      "image": "https://img.gamemonetize.com/ifqmxx7g15lbhe4csp1spltla5dxka3j/512x384.jpg",
      "categoryId": 2
    },
    {
      "id": "22885",
      "name": "Zombie Road - Crazy Driving Game",
      "image": "https://img.gamemonetize.com/t0me96xry0vxb1fjznl09edrawt3x3bx/512x384.jpg",
      "categoryId": 2
    },
    {
      "id": "22884",
      "name": "Parking Jam Online 3D Game",
      "image": "https://img.gamemonetize.com/6vp9le6bonhh86mg7y17cehhbbdi0395/512x384.jpg",
      "categoryId": 2
    },
    {
      "id": "22856",
      "name": "Zombie Killer Draw Puzzle",
      "image": "https://img.gamemonetize.com/i4nilyzw2eg1gq7ro407vgdy12qu2742/512x384.jpg",
      "categoryId": 2
    },
    {
      "id": "22816",
      "name": "Merge Rush 2048",
      "image": "https://img.gamemonetize.com/fo3sq9ajol3lbr0777yhcodnh8jz2qva/512x384.jpg",
      "categoryId": 2
    }
  ]
}
