{
  "category": {
    "id": 2,
    "name": "Adventure",
    "alias": "adventure",
    "count": 300
  },
  "page": 12,
  "totalPages": 13,
  "totalItems": 300,
  "items": [
    {
      "id": "22775",
      "name": "Noob Ninja Guardian - Fighting Game",
      "image": "https://img.gamemonetize.com/pqbpglwr8gujgrniastxdk1i0ih6ce1b/512x384.jpg",
      "categoryId": 2
    },
    {
      "id": "22774",
      "name": "Color Match 3D Game",
      "image": "https://img.gamemonetize.com/ztptyed8evuy3ktwkrmu4rf7ta1s7ns5/512x384.jpg",
      "categoryId": 2
    },
    {
      "id": "22676",
      "name": "Pimple Pop Rush",
      "image": "https://img.gamemonetize.com/g9yoq5voqy3fxlo4lex0mvys25pus5ob/512x384.jpg",
      "categoryId": 2
    },
    {
      "id": "22659",
      "name": "SQUIDLY GAME HIDE AND SEEK",
      "image": "https://img.gamemonetize.com/kwhmnnutyf4nowesi4lutdj221wrupil/512x384.jpg",
      "categoryId": 2
    },
    {
      "id": "22619",
      "name": "Connect Dots Game",
      "image": "https://img.gamemonetize.com/72zzcm8h5i59x4dxpzy7m9oca72v660u/512x384.jpg",
      "categoryId": 2
    },
    {
      "id": "22616",
      "name": "Maze Escape 3D",
      "image": "https://img.gamemonetize.com/2sp2ppt5wgmkivav67wapkxf6jh2ndhi/512x384.jpg",
      "categoryId": 2
    },
    {
      "id": "22611",
      "name": "Draw Fighter 3D",
      "image": "https://img.gamemonetize.com/0llrc8noptrj2n0by9vcxuekcs458mvq/512x384.jpg",
      "categoryId": 2
    },
    {
      "id": "22581",
      "name": "Donut Sort Fun",
      "image": "https://img.gamemonetize.com/axscgda2s14qarsj192badug5e21l898/512x384.jpg",
      "categoryId": 2
    },
    {
      "id": "22570",
      "name": "Fireman Rescue Maze",
      "image": "https://img.gamemonetize.com/pzwxcyss07bkyxyt5bwk1ko23hzdghtf/512x384.jpg",
      "categoryId": 2
    },
    {
      "id": "22548",
      "name": "Super Buddy Run 2 Crazy City",
      "image": "https://img.gamemonetize.com/licll39ztgvvcq4fvw1nwlnpem14aq3w/512x384.jpg",
      "categoryId": 2
    },
    {
      "id": "22537",
      "name": "House Robber",
      "image": "https://img.gamemonetize.com/2rrkw819seyf50vsi2gq03ot7silw9oi/512x384.jpg",
      "categoryId": 2
    },
    {
      "id": "22501",
      "name": "Kart Rush - 3D Racing Game",
      "image": "https://img.gamemonetize.com/0fuptujfya8fgxv9nvb8dwb0tqtbofnx/512x384.jpg",
      "categoryId": 2
    },
    {
      "id": "22491",
      "name": "Animal Auto Repair Shop",
      "image": "https://img.gamemonetize.com/uzrl93p5qdsvinoqdcswvcibqljttlvg/512x384.jpg",
      "categoryId": 2
    },
    {
      "id": "22482",
      "name": "Sokonumber",
      "image": "https://img.gamemonetize.com/dvt7hq1mp08hfyjvdf02p5mgm1wvaoxb/512x384.jpg",
      "categoryId": 2
    },
    {
      "id": "22441",
      "name": "Ball Sort Color",
      "image": "https://img.gamemonetize.com/pxx9sk8oa2z80p7rl8o1z8v5vwbplhbe/512x384.jpg",
      "categoryId": 2
    },
    {
      "id": "22403",
      "name": "Noob vs Noob",
      "image": "https://img.gamemonetize.com/hsr0lqjv7z2dqa8tupezhruy6854suq3/512x384.jpg",
      "categoryId": 2
    },
    {
      "id": "22397",
      "name": "Boom Push",
      "image": "https://img.gamemonetize.com/bqeksh771ilb802lj76uta3m4s0qq0ff/512x384.jpg",
      "categoryId": 2
    },
    {
      "id": "22374",
      "name": "Rope Skipping - 3D Sports Game",
      "image": "https://img.gamemonetize.com/5zw8a3rbp8auddn2f15dgz488jqn9g3k/512x384.jpg",
      "categoryId": 2
    },
    {
      "id": "22373",
      "name": "Knock Rush - 3D Shooting Game",
      "image": "https://img.gamemonetize.com/a84fgq9htsb57w45rxxr5bfrjg7uspob/512x384.jpg",
      "categoryId": 2
    },
    {
      "id": "22371",
      "name": "Tower Defense : Super Heroes",
      "image": "https://img.gamemonetize.com/sxtsodwbq4be0yi036hkggzkii8f1cy1/512x384.jpg",
      "categoryId": 2
    },
    {
      "id": "22322",
      "name": "2048 Billiards 3D",
      "image": "https://img.gamemonetize.com/fakww7w90bty9pg4szee0h6toa8fszqc/512x384.jpg",
      "categoryId": 2
    },
    {
      "id": "22272",
      "name": "Turn Over Master - Driving Game",
      "image": "https://img.gamemonetize.com/aeygs3t3jlpweaeum797ulr1zxdnk0ai/512x384.jpg",
      "categoryId": 2
    },
    {
      "id": "22250",
      "name": "Francy",
      "image": "https://img.gamemonetize.com/glb7omfdo74qgstw9hypiwtn1up4h9ym/512x384.jpg",
      "categoryId": 2
    },
    {
      "id": "22241",
      "name": "Robot Car Emergency Rescue2",
      "image": "https://img.gamemonetize.com/k1bhcu8zyfo0exa90z8v289a77w50184/512x384.jpg",
      "categoryId": 2
    }
  ]
}
