{
  "category": {
    "id": 2,
    "name": "Adventure",
    "alias": "adventure",
    "count": 300
  },
  "page": 2,
  "totalPages": 13,
  "totalItems": 300,
  "items": [
    {
      "id": "31179",
      "name": "Vampire Survivors Dark",
      "image": "https://img.gamemonetize.com/5oizge6uwba44e1em9m9tsok5k7knoxg/512x384.jpg",
      "categoryId": 2
    },
    {
      "id": "31055",
      "name": "Driver Zombie Escape 2D",
      "image": "https://img.gamemonetize.com/pvp4gqoj5rzpahxyhbyn9artg00wbl8t/512x384.jpg",
      "categoryId": 2
    },
    {
      "id": "30936",
      "name": "City Zombie Survival 2D",
      "image": "https://img.gamemonetize.com/x6og16unfrtl0lysxhx00o33dwwh7jam/512x384.jpg",
      "categoryId": 2
    },
    {
      "id": "30348",
      "name": "LEG  Stretch  digital circus 3",
      "image": "https://img.gamemonetize.com/4tdbououp3ukjjse99g1uchooauf91uu/512x384.jpg",
      "categoryId": 2
    },
    {
      "id": "30340",
      "name": "Oil Tanker Truck Transport",
      "image": "https://img.gamemonetize.com/8a8zdsgou4lwpsx4b2cgpfios6h8p0q3/512x384.jpg",
      "categoryId": 2
    },
    {
      "id": "30317",
      "name": "Call to Lethal Company",
      "image": "https://img.gamemonetize.com/rtf7e669gd9ccw1tkcjncyb4vmmlbs21/512x384.jpg",
      "categoryId": 2
    },
    {
      "id": "30287",
      "name": "Boogers",
      "image": "https://img.gamemonetize.com/mdu5ueiwl6rjkw725980ug2kap3sraa4/512x384.jpg",
      "categoryId": 2
    },
    {
      "id": "30285",
      "name": "Police Car Line Driving",
      "image": "https://img.gamemonetize.com/njabpms143vcnswvfgx72emtf7x89t0h/512x384.jpg",
      "categoryId": 2
    },
    {
      "id": "30226",
      "name": "Village Farm Life",
      "image": "https://img.gamemonetize.com/fwbro63nct7si1iia09e0gn8el6ee8xh/512x384.jpg",
      "categoryId": 2
    },
    {
      "id": "30147",
      "name": "MagicTower",
      "image": "https://img.gamemonetize.com/86s69hjykukvfzw769mjgg2da7uurpfl/512x384.jpg",
      "categoryId": 2
    },
    {
      "id": "30144",
      "name": "Car Rush Fast Game",
      "image": "https://img.gamemonetize.com/o3qz5blqw700khul2j2d6vm2d1nlhb3u/512x384.jpg",
      "categoryId": 2
    },
    {
      "id": "30127",
      "name": "Excavator Simulator 3D",
      "image": "https://img.gamemonetize.com/7wov98mycit3fq1iqlxn1dxs020z4qnz/512x384.jpg",
      "categoryId": 2
    },
    {
      "id": "30119",
      "name": "Real JCB Excavator Simulator",
      "image": "https://img.gamemonetize.com/lrhrhwj6zkb8o1drgkszffgv1z8k94ra/512x384.jpg",
      "categoryId": 2
    },
    {
      "id": "30098",
      "name": "Alvin Super Hero",
      "image": "https://img.gamemonetize.com/d0fxy3q7cp54uq299iwx76xqywvtit1x/512x384.jpg",
      "categoryId": 2
    },
    {
      "id": "30087",
      "name": "Encanto Coloring Book",
      "image": "https://img.gamemonetize.com/kmuxtlomy1qvavnvpiac46m367fl69mc/512x384.jpg",
      "categoryId": 2
    },
    {
      "id": "30053",
      "name": "Craig of the Creek Learning the Body Online",
      "image": "https://img.gamemonetize.com/73ji3pqi1c0e4uki4badplna6vlph7p0/512x384.jpg",
      "categoryId": 2
    },
    {
      "id": "30049",
      "name": "Ba Da Bean Coloring Book ",
      "image": "https://img.gamemonetize.com/eh6qu75skbbrbzlkl0wjijmz0krts3b6/512x384.jpg",
      "categoryId": 2
    },
    {
      "id": "30018",
      "name": "Dark War",
      "image": "https://img.gamemonetize.com/henzg07w9l8dgdwrqsww9xydgpz2gpcs/512x384.jpg",
      "categoryId": 2
    },
    {
      "id": "29923",
      "name": "Retro Street Fighter",
      "image": "https://img.gamemonetize.com/jr7roso7r39aua71aijeuxoxlgluaqku/512x384.jpg",
      "categoryId": 2
    },
    {
      "id": "29873",
      "name": "Skibidi Man: Search of Skibidi Girl",
      "image": "https://img.gamemonetize.com/6ubohjfnkghbso76xbuikm2p8ldfnklr/512x384.jpg",
      "categoryId": 2
    },
    {
      "id": "29816",
      "name": "Spaceman Escape Adventure",
      "image": "https://img.gamemonetize.com/xatdw0u14xo45jxir654hnif9di0qk77/512x384.jpg",
      "categoryId": 2
    },
    {
      "id": "29627",
      "name": "Battle Warship Arena",
      "image": "https://img.gamemonetize.com/lvpy2a5xbyd2xj8h5oeqzspfevjiuy15/512x384.jpg",
      "categoryId": 2
    },
    {
      "id": "29391",
      "name": "Zombie defense: War Z Survival",
      "image": "https://img.gamemonetize.com/sj7s1t0c6x9u5k021ne0tp7wi3q90b5q/512x384.jpg",
      "categoryId": 2
    },
    {
      "id": "29227",
      "name": "Only Up! Parkour",
      "image": "https://img.gamemonetize.com/x0hb11h9lq2347nqv2kvk4bycdlxm9eb/512x384.jpg",
      "categoryId": 2
    }
  ]
}
