{
  "category": {
    "id": 2,
    "name": "Adventure",
    "alias": "adventure",
    "count": 300
  },
  "page": 4,
  "totalPages": 13,
  "totalItems": 300,
  "items": [
    {
      "id": "28159",
      "name": "Hungry Fish Evolution",
      "image": "https://img.gamemonetize.com/a45hihs4nijhl1p5c97sw0uuh2dwx5sm/512x384.jpg",
      "categoryId": 2
    },
    {
      "id": "28139",
      "name": "garbage",
      "image": "https://img.gamemonetize.com/gqs5dyt4608c6dzgz2pfp1jrr8ge6jbz/512x384.jpg",
      "categoryId": 2
    },
    {
      "id": "28112",
      "name": "Arthur The Mythical Hunter",
      "image": "https://img.gamemonetize.com/tgvcsev4518p24zsgmi242gwnfhojb8o/512x384.jpg",
      "categoryId": 2
    },
    {
      "id": "27975",
      "name": "Epic Car: Transform Race",
      "image": "https://img.gamemonetize.com/jevpm5eihd6mk0j5420vvqdsny1cj0yf/512x384.jpg",
      "categoryId": 2
    },
    {
      "id": "27930",
      "name": "Gemstones world",
      "image": "https://img.gamemonetize.com/btv9rtruojmevqcy5bco1fej64xkyu42/512x384.jpg",
      "categoryId": 2
    },
    {
      "id": "27861",
      "name": "Our Land",
      "image": "https://img.gamemonetize.com/bmk9a3en9l0fep2fpeeg9rhee5k5r9hf/512x384.jpg",
      "categoryId": 2
    },
    {
      "id": "27791",
      "name": "Minecraft Coloring Book Online",
      "image": "https://img.gamemonetize.com/kwo3ysut9wlhkbmnzs6uj7d7oj29cpf9/512x384.jpg",
      "categoryId": 2
    },
    {
      "id": "27707",
      "name": "FNF Character Test Playground Remake",
      "image": "https://img.gamemonetize.com/xhfxqiy5etdtrtc9uym1scj6h9vyi7b7/512x384.jpg",
      "categoryId": 2
    },
    {
      "id": "27694",
      "name": "FNF vs Huggy Wuggy",
      "image": "https://img.gamemonetize.com/o7x5rjl0cgcmpm9x889gz2mytdi6bb37/512x384.jpg",
      "categoryId": 2
    },
    {
      "id": "27693",
      "name": "FNF TAILS.EXE",
      "image": "https://img.gamemonetize.com/2ayrbxn8js5msgpv27naw4ineh599rjk/512x384.jpg",
      "categoryId": 2
    },
    {
      "id": "27585",
      "name": "Hunt Or Hide",
      "image": "https://img.gamemonetize.com/28bajqyjkey8jbliv3bclnh08a6vh7h2/512x384.jpg",
      "categoryId": 2
    },
    {
      "id": "27584",
      "name": "Smash The Office",
      "image": "https://img.gamemonetize.com/clda2n8vxrvjicvksf74kddhalohbwsw/512x384.jpg",
      "categoryId": 2
    },
    {
      "id": "27480",
      "name": "Balloon Slicer Game",
      "image": "https://img.gamemonetize.com/dow0on4smzfhu7nqqaftqsv03ty1rwke/512x384.jpg",
      "categoryId": 2
    },
    {
      "id": "27479",
      "name": "Draw To Pee Game",
      "image": "https://img.gamemonetize.com/bmvjz4g4csv8nimd9jb4j10rl2x8jreb/512x384.jpg",
      "categoryId": 2
    },
    {
      "id": "27447",
      "name": "Wow Wow Wubbzy Coloring Book",
      "image": "https://img.gamemonetize.com/boo65pp9ye2hy8dcpfhkdb6zi3q2ktq2/512x384.jpg",
      "categoryId": 2
    },
    {
      "id": "27446",
      "name": "Doraemon Coloring Book",
      "image": "https://img.gamemonetize.com/f566bafjq740n1c5sgkrw9lyb0tlc5qz/512x384.jpg",
      "categoryId": 2
    },
    {
      "id": "27441",
      "name": "Dance Master Mat",
      "image": "https://img.gamemonetize.com/2w1s2aagytrk4elb7sk6ug5aocb5pnor/512x384.jpg",
      "categoryId": 2
    },
    {
      "id": "27408",
      "name": "Merge Defense: Pixel Blocks",
      "image": "https://img.gamemonetize.com/fx3u236fbmq547qf9h4b5g2kjhnbmq98/512x384.jpg",
      "categoryId": 2
    },
    {
      "id": "27399",
      "name": "Drive Mad",
      "image": "https://img.gamemonetize.com/dem77byztip4lfarz53fekbuiw3657jl/512x384.jpg",
      "categoryId": 2
    },
    {
      "id": "27374",
      "name": "Rescue Dog Web",
      "image": "https://img.gamemonetize.com/jtovfewyww2bfo3nhkgxzfylunojnph5/512x384.jpg",
      "categoryId": 2
    },
    {
      "id": "27372",
      "name": "Happy Filled Glass 3 Game",
      "image": "https://img.gamemonetize.com/wk93r460mynef2m2ner0lki9c866csco/512x384.jpg",
      "categoryId": 2
    },
    {
      "id": "27310",
      "name": "Shooting Cannon: Merge Defense",
      "image": "https://img.gamemonetize.com/mk4iqyllutxc5y1va4tiwehv4nv34it9/512x384.jpg",
      "categoryId": 2
    },
    {
      "id": "27308",
      "name": "Human Gun! Game",
      "image": "https://img.gamemonetize.com/jctu4wkt2d8ekv1vlq5dic8l4l7yyycx/512x384.jpg",
      "categoryId": 2
    },
    {
      "id": "27279",
      "name": "Fancy Pants Adventure",
      "image": "https://img.gamemonetize.com/q41s7o0dxctskgtc3l7ju13idlov3gu7/512x384.jpg",
      "categoryId": 2
    }
  ]
}
