{
  "category": {
    "id": 2,
    "name": "Adventure",
    "alias": "adventure",
    "count": 300
  },
  "page": 5,
  "totalPages": 13,
  "totalItems": 300,
  "items": [
    {
      "id": "27213",
      "name": "Deliver All Puzzle",
      "image": "https://img.gamemonetize.com/hockj9avx4zyekon0s140acksxfcrk7f/512x384.jpg",
      "categoryId": 2
    },
    {
      "id": "27207",
      "name": "Super Archer: Catkeeper",
      "image": "https://img.gamemonetize.com/97xjkiukedu42nozszart8ep7ruf1blm/512x384.jpg",
      "categoryId": 2
    },
    {
      "id": "27103",
      "name": "Tangle Fun 3D Game",
      "image": "https://img.gamemonetize.com/u9ib8am14c28lxzzlcshba2x8i9q3ium/512x384.jpg",
      "categoryId": 2
    },
    {
      "id": "26976",
      "name": "Bikini Surfing Rescue",
      "image": "https://img.gamemonetize.com/ioq1zys15mh2np30dp8ifkmzbcpcpxc0/512x384.jpg",
      "categoryId": 2
    },
    {
      "id": "26966",
      "name": "Troll Thief - Stickman Puzzle",
      "image": "https://img.gamemonetize.com/gj8t7sa2xmr15vi7ln5hbpmg2hkf4rgs/512x384.jpg",
      "categoryId": 2
    },
    {
      "id": "26944",
      "name": "Breakers Football",
      "image": "https://img.gamemonetize.com/qacm048pxh685vegcv72lbdud8sqgw32/512x384.jpg",
      "categoryId": 2
    },
    {
      "id": "26906",
      "name": "Word Finder Revolution",
      "image": "https://img.gamemonetize.com/xw396z9atgsw1k1sgzu36sarn4c1ezyu/512x384.jpg",
      "categoryId": 2
    },
    {
      "id": "26870",
      "name": "Epic Defense Clash",
      "image": "https://img.gamemonetize.com/27urbt4pyqeqsctqutlp548ogm9a9zvr/512x384.jpg",
      "categoryId": 2
    },
    {
      "id": "26869",
      "name": "Parkour Block 3D Game",
      "image": "https://img.gamemonetize.com/hrsxh2clxg229ty294gdlbjzeejglgmp/512x384.jpg",
      "categoryId": 2
    },
    {
      "id": "26864",
      "name": "Spiderman Jump",
      "image": "https://img.gamemonetize.com/4rylili651eankr8srip1bgwv6xqvvn7/512x384.jpg",
      "categoryId": 2
    },
    {
      "id": "26831",
      "name": "Solitaire 2048",
      "image": "https://img.gamemonetize.com/9keexmu33kt0g09nk32aeox4a3b4tuzs/512x384.jpg",
      "categoryId": 2
    },
    {
      "id": "26830",
      "name": "Worlds Hardest Traffic Box ",
      "image": "https://img.gamemonetize.com/e8w68d4gu2e1xaz3u8tnha1uiq9npp3m/512x384.jpg",
      "categoryId": 2
    },
    {
      "id": "26817",
      "name": "B-Baller",
      "image": "https://img.gamemonetize.com/86r4o61kc5fbzy12snc4rtdaybhpdrd9/512x384.jpg",
      "categoryId": 2
    },
    {
      "id": "26812",
      "name": "Memory Match Game",
      "image": "https://img.gamemonetize.com/muqts0pyi9o3j67fjlo4v1zg5q3hi5oz/512x384.jpg",
      "categoryId": 2
    },
    {
      "id": "26809",
      "name": "Cannon Ball Shoot",
      "image": "https://img.gamemonetize.com/4ca18xqypa2c1undkn8po91f2e2ridek/512x384.jpg",
      "categoryId": 2
    },
    {
      "id": "26722",
      "name": "Freaky Monster Rush - Running Game",
      "image": "https://img.gamemonetize.com/xxrll0he6vfm1jri89qrrtus3jr606z4/512x384.jpg",
      "categoryId": 2
    },
    {
      "id": "26720",
      "name": "Treasure Hunt Adventure",
      "image": "https://img.gamemonetize.com/9ge0b4vydmzi3jc3j3ltjmvnxeefz4ba/512x384.jpg",
      "categoryId": 2
    },
    {
      "id": "26706",
      "name": "Balloons Creator Game",
      "image": "https://img.gamemonetize.com/mdzthfygegrdo4rh8dtevfoigrqrq60v/512x384.jpg",
      "categoryId": 2
    },
    {
      "id": "26702",
      "name": "Fit The Fat",
      "image": "https://img.gamemonetize.com/349zya0fti53lhg147zlp9oz9z8dz9yh/512x384.jpg",
      "categoryId": 2
    },
    {
      "id": "26645",
      "name": "Among Us Dungeon",
      "image": "https://img.gamemonetize.com/ahmryzr669sk4e9yur458nw0kpxxhvh4/512x384.jpg",
      "categoryId": 2
    },
    {
      "id": "26644",
      "name": "Help Imposter Escape",
      "image": "https://img.gamemonetize.com/jo8g2jlnkj0prq5upba4zvfl4nix7cll/512x384.jpg",
      "categoryId": 2
    },
    {
      "id": "26628",
      "name": "Ink Inc Tattoo",
      "image": "https://img.gamemonetize.com/1x4xoqguy3pbm3ah19631sr28nb0cbyf/512x384.jpg",
      "categoryId": 2
    },
    {
      "id": "26627",
      "name": "Draw To Kill",
      "image": "https://img.gamemonetize.com/p3o8y66xocezsbd2q1a0t1jvfvqcghhx/512x384.jpg",
      "categoryId": 2
    },
    {
      "id": "26619",
      "name": "War Airplane",
      "image": "https://img.gamemonetize.com/g6pvqwit8sdi0hmkndlrzsvogqimzdaz/512x384.jpg",
      "categoryId": 2
    }
  ]
}
