{
  "category": {
    "id": 2,
    "name": "Adventure",
    "alias": "adventure",
    "count": 300
  },
  "page": 6,
  "totalPages": 13,
  "totalItems": 300,
  "items": [
    {
      "id": "26602",
      "name": "Kitsune Zenko Adventure Game",
      "image": "https://img.gamemonetize.com/2jk2mkem3zsi6o2th0k89wk98l126pjz/512x384.jpg",
      "categoryId": 2
    },
    {
      "id": "26582",
      "name": "Super Martin Princess In Trouble",
      "image": "https://img.gamemonetize.com/dvb149vxae0fluzz40fiq5k93m0j0jbf/512x384.jpg",
      "categoryId": 2
    },
    {
      "id": "26570",
      "name": "Fight zombies",
      "image": "https://img.gamemonetize.com/dlfupkugwuz63v730qqc1kc9uqc3gyzy/512x384.jpg",
      "categoryId": 2
    },
    {
      "id": "26562",
      "name": "Space 3D",
      "image": "https://img.gamemonetize.com/u9aahksrezc3y5q3rjxt35fvj0nu0gdb/512x384.jpg",
      "categoryId": 2
    },
    {
      "id": "26561",
      "name": "Color Cannon Game",
      "image": "https://img.gamemonetize.com/m3zdk5skth9x230xv0pe3cnnu6wc1s7y/512x384.jpg",
      "categoryId": 2
    },
    {
      "id": "26530",
      "name": "Track Rotate",
      "image": "https://img.gamemonetize.com/iiaon8k4m3lk5sf7y0hcuom659v1nmog/512x384.jpg",
      "categoryId": 2
    },
    {
      "id": "26505",
      "name": "Charge Everything Game",
      "image": "https://img.gamemonetize.com/873xbdxn3j0dp4vn2dnd7tuhw0uka69k/512x384.jpg",
      "categoryId": 2
    },
    {
      "id": "26494",
      "name": "Building New House",
      "image": "https://img.gamemonetize.com/hw3hltevqw6492zx3prk4jjtkkvjuzlg/512x384.jpg",
      "categoryId": 2
    },
    {
      "id": "26489",
      "name": " Push Noob",
      "image": "https://img.gamemonetize.com/fhlcf538szfxuibgiux43y9qqhkga9ya/512x384.jpg",
      "categoryId": 2
    },
    {
      "id": "26458",
      "name": "Pizza Delivery Run",
      "image": "https://img.gamemonetize.com/qn3v9rfw4o45io2f3li1lgrzudco3de9/512x384.jpg",
      "categoryId": 2
    },
    {
      "id": "26420",
      "name": "Cat Condo",
      "image": "https://img.gamemonetize.com/ma5qumqgv721ldtkjs9cp6zejfj8c7tv/512x384.jpg",
      "categoryId": 2
    },
    {
      "id": "26387",
      "name": "Super Sugar Hallucination",
      "image": "https://img.gamemonetize.com/adsrz3ddva8yah2ijnmw9s69a6nii1lj/512x384.jpg",
      "categoryId": 2
    },
    {
      "id": "26380",
      "name": "Cutting Grass",
      "image": "https://img.gamemonetize.com/1mp3qnkd64owxs2fi9rrl4heqbsieojz/512x384.jpg",
      "categoryId": 2
    },
    {
      "id": "26379",
      "name": "Crash Fighters",
      "image": "https://img.gamemonetize.com/tat4l64axri2i3ks4bet9gof3hmgp1yk/512x384.jpg",
      "categoryId": 2
    },
    {
      "id": "26352",
      "name": "Pipe connection",
      "image": "https://img.gamemonetize.com/w70zt157us6asdxfmrg5awv13r3vtdpd/512x384.jpg",
      "categoryId": 2
    },
    {
      "id": "26057",
      "name": "Foot star",
      "image": "https://img.gamemonetize.com/haowxiyyvu7c7z3xwndu01593cns8398/512x384.jpg",
      "categoryId": 2
    },
    {
      "id": "26049",
      "name": "Hide And Seek Io",
      "image": "https://img.gamemonetize.com/q32ot8nkjpu9ldvsos4ki1b7k6q2y5b6/512x384.jpg",
      "categoryId": 2
    },
    {
      "id": "26026",
      "name": "Fidget Toys Pop It",
      "image": "https://img.gamemonetize.com/k8vrdwhwmb5qs8lojlpet5i9vub3bjov/512x384.jpg",
      "categoryId": 2
    },
    {
      "id": "26023",
      "name": "Fairy Tail Vs One Piece",
      "image": "https://img.gamemonetize.com/ocmey2etj17fkwz1c1fveb53ajcz40ev/512x384.jpg",
      "categoryId": 2
    },
    {
      "id": "26017",
      "name": "Colored Water &amp; Pin Game",
      "image": "https://img.gamemonetize.com/ycg9jf9jx78c5xbp4lnh6iuu1icold02/512x384.jpg",
      "categoryId": 2
    },
    {
      "id": "26016",
      "name": "Noob Hood",
      "image": "https://img.gamemonetize.com/m90m4vns4ozskzr9l6ri02cp2rry72dz/512x384.jpg",
      "categoryId": 2
    },
    {
      "id": "25995",
      "name": "Merge Battle 3D",
      "image": "https://img.gamemonetize.com/mrlmdnwffws2kunkminuh1gfp1x0103j/512x384.jpg",
      "categoryId": 2
    },
    {
      "id": "25987",
      "name": "Merge Number",
      "image": "https://img.gamemonetize.com/u7vzkl7ysv6vbmbb4gs0osv9rxw4b1m2/512x384.jpg",
      "categoryId": 2
    },
    {
      "id": "25971",
      "name": "Ninja flying boy",
      "image": "https://img.gamemonetize.com/hs657di7tnqcnzm0v49paum075887t5c/512x384.jpg",
      "categoryId": 2
    }
  ]
}
