{
  "category": {
    "id": 2,
    "name": "Adventure",
    "alias": "adventure",
    "count": 300
  },
  "page": 8,
  "totalPages": 13,
  "totalItems": 300,
  "items": [
    {
      "id": "25259",
      "name": "Jelly Runner 3D",
      "image": "https://img.gamemonetize.com/f574j25znogelyxzfq31f768h875klgc/512x384.jpg",
      "categoryId": 2
    },
    {
      "id": "25202",
      "name": "Rainbow Friend Cartoon Jigsaw",
      "image": "https://img.gamemonetize.com/ncyfmmjz57sc830dexbsqxizv5vpylsa/512x384.jpg",
      "categoryId": 2
    },
    {
      "id": "25196",
      "name": "Domino Smash 3D",
      "image": "https://img.gamemonetize.com/rzgh42zd0c2pey5ry5uf9bz3rkon7lu9/512x384.jpg",
      "categoryId": 2
    },
    {
      "id": "25175",
      "name": "Sonic Frontiers",
      "image": "https://img.gamemonetize.com/f0bqmxcgegzqs1msrn4dvjvjpu2anr95/512x384.jpg",
      "categoryId": 2
    },
    {
      "id": "25075",
      "name": "Rope Dude Game",
      "image": "https://img.gamemonetize.com/5wz4kbn1cuwq4jztgsfzjus9o3esd0g7/512x384.jpg",
      "categoryId": 2
    },
    {
      "id": "25063",
      "name": "Snake.io: Jeu Serpent",
      "image": "https://img.gamemonetize.com/0qiduv0zzvcrw4xi68xfllt8qykrvfqg/512x384.jpg",
      "categoryId": 2
    },
    {
      "id": "25017",
      "name": "Draw Fighter 3D Game",
      "image": "https://img.gamemonetize.com/d1zirlqjyvameacinzvrefdn5nfik5dc/512x384.jpg",
      "categoryId": 2
    },
    {
      "id": "25010",
      "name": " Moto Racing 登山摩托赛车",
      "image": "https://img.gamemonetize.com/ucoxjpdv5rhpr45asolipgpk0839n32g/512x384.jpg",
      "categoryId": 2
    },
    {
      "id": "24986",
      "name": "Naruto Runner Game",
      "image": "https://img.gamemonetize.com/2hlsevtjvlsiujc6hyy944cvxm90mig2/512x384.jpg",
      "categoryId": 2
    },
    {
      "id": "24985",
      "name": "Real Flight Simulator 3D",
      "image": "https://img.gamemonetize.com/wsrk235rokmvcr2nqwhrzwmtyqyry3fu/512x384.jpg",
      "categoryId": 2
    },
    {
      "id": "24984",
      "name": "Bus Parking - Driving Simulator Game",
      "image": "https://img.gamemonetize.com/rtscnoqny31csd0b3agpobft2aosyz7t/512x384.jpg",
      "categoryId": 2
    },
    {
      "id": "24981",
      "name": "JUMPER - THE TOWER DESTROYER",
      "image": "https://img.gamemonetize.com/t1tntjgegorin2hyr9pcwlsgx7uoq5tz/512x384.jpg",
      "categoryId": 2
    },
    {
      "id": "24956",
      "name": "TRZ Battleship",
      "image": "https://img.gamemonetize.com/4oenqdctq1nwzlf5bbvgipfmi57ozhid/512x384.jpg",
      "categoryId": 2
    },
    {
      "id": "24944",
      "name": "Shoot Ball 2048",
      "image": "https://img.gamemonetize.com/tbf0mpi0t5drs31uj7six2poy1nzr5w2/512x384.jpg",
      "categoryId": 2
    },
    {
      "id": "24907",
      "name": "Draw Couple",
      "image": "https://img.gamemonetize.com/o0hyhrgjacp7xkncjjsdhzzja84rfy4q/512x384.jpg",
      "categoryId": 2
    },
    {
      "id": "24888",
      "name": "City Taxi 3D Simulator Game",
      "image": "https://img.gamemonetize.com/3c8mnqi5bgs7cy19od9nhqehyqgha29f/512x384.jpg",
      "categoryId": 2
    },
    {
      "id": "24887",
      "name": "Drifty Master 3D Game",
      "image": "https://img.gamemonetize.com/rc2ebrmw31k1o6rqgdowbuu3kydhflcr/512x384.jpg",
      "categoryId": 2
    },
    {
      "id": "24878",
      "name": "Micro Golf Ball Game",
      "image": "https://img.gamemonetize.com/sn8fyt8hk1igz10s3e4a7iekwefza1z3/512x384.jpg",
      "categoryId": 2
    },
    {
      "id": "24870",
      "name": "Rescue Vanguard",
      "image": "https://img.gamemonetize.com/kpikszokydbajwjsydxg89qvaoyrcze2/512x384.jpg",
      "categoryId": 2
    },
    {
      "id": "24865",
      "name": "Giant Rush Online 3D",
      "image": "https://img.gamemonetize.com/zvn8gv24yngpds84lkovxpjc923byhzh/512x384.jpg",
      "categoryId": 2
    },
    {
      "id": "24864",
      "name": "Ropeman 3D Game",
      "image": "https://img.gamemonetize.com/pjhfkg0odnm39arxs8zgisd955gdtrzl/512x384.jpg",
      "categoryId": 2
    },
    {
      "id": "24862",
      "name": "Combat Reloaded 2",
      "image": "https://img.gamemonetize.com/qngjqt5qffzj4bl0uitsfitqk9wpjyb6/512x384.jpg",
      "categoryId": 2
    },
    {
      "id": "24841",
      "name": "Flappy Pumpkin",
      "image": "https://img.gamemonetize.com/5lsgas04qudmovmsbhyeutz4brmylsu6/512x384.jpg",
      "categoryId": 2
    },
    {
      "id": "24840",
      "name": "Elastic Car 3D",
      "image": "https://img.gamemonetize.com/kaart3m85trc6fnuv0zpsnrbayz1sjsj/512x384.jpg",
      "categoryId": 2
    }
  ]
}
