{
  "category": {
    "id": 2,
    "name": "Adventure",
    "alias": "adventure",
    "count": 300
  },
  "page": 9,
  "totalPages": 13,
  "totalItems": 300,
  "items": [
    {
      "id": "24839",
      "name": "Join Scroll Run",
      "image": "https://img.gamemonetize.com/s7evsulff64o59vqds6toepb7cgl0w43/512x384.jpg",
      "categoryId": 2
    },
    {
      "id": "24838",
      "name": "Trains.io 3D Game",
      "image": "https://img.gamemonetize.com/x6xllus6rl5cmuuv5mvf5c1caskepgob/512x384.jpg",
      "categoryId": 2
    },
    {
      "id": "24835",
      "name": "Sudoku Game",
      "image": "https://img.gamemonetize.com/eq71s0yfpagfhakn0byg77f7vlfm0c8r/512x384.jpg",
      "categoryId": 2
    },
    {
      "id": "24752",
      "name": "Draw Surfer Game",
      "image": "https://img.gamemonetize.com/aun5e95mft6dlndd98uofuhvb575x8en/512x384.jpg",
      "categoryId": 2
    },
    {
      "id": "24750",
      "name": "Giant Race 3D",
      "image": "https://img.gamemonetize.com/j6dfisini45uufileciyt4qjxljhubhl/512x384.jpg",
      "categoryId": 2
    },
    {
      "id": "24726",
      "name": "Save The Uncle",
      "image": "https://img.gamemonetize.com/sx0zudhjfyry6ae7ohodpybh3iez1e66/512x384.jpg",
      "categoryId": 2
    },
    {
      "id": "24723",
      "name": "Conduct This",
      "image": "https://img.gamemonetize.com/wa9gebfn9xvfcyj29kcsypoxgzkd872q/512x384.jpg",
      "categoryId": 2
    },
    {
      "id": "24675",
      "name": "Target Hit 3D",
      "image": "https://img.gamemonetize.com/qxnmdqlvmlb2wyn6msipu9fcnuz3t0ul/512x384.jpg",
      "categoryId": 2
    },
    {
      "id": "24656",
      "name": "Halloween Games",
      "image": "https://img.gamemonetize.com/h4e5i3rwr9ullfg9350kzvrsenc2i3t0/512x384.jpg",
      "categoryId": 2
    },
    {
      "id": "24608",
      "name": "Iron Snout - Fighting Game",
      "image": "https://img.gamemonetize.com/c5i34fdv6uy2e041roqidzp0erxqwqo5/512x384.jpg",
      "categoryId": 2
    },
    {
      "id": "24597",
      "name": "House Robber - Robbery Bob",
      "image": "https://img.gamemonetize.com/k4rrrpkd9oui5m12c4c6r3ppeazs3pqq/512x384.jpg",
      "categoryId": 2
    },
    {
      "id": "24576",
      "name": "Army Command",
      "image": "https://img.gamemonetize.com/3an5j347lahoutccvwlguf2d112gzx0z/512x384.jpg",
      "categoryId": 2
    },
    {
      "id": "24574",
      "name": "Filled Glass 4 Colors",
      "image": "https://img.gamemonetize.com/tj4zfcgdaw51qglz3a3svg4pspal3cjb/512x384.jpg",
      "categoryId": 2
    },
    {
      "id": "24449",
      "name": "Temple Run 2 - Running Game",
      "image": "https://img.gamemonetize.com/5gv9h1k4zl1ermgr93fvc2fqye2nyq8y/512x384.jpg",
      "categoryId": 2
    },
    {
      "id": "24419",
      "name": "Book of Ra",
      "image": "https://img.gamemonetize.com/50tyv4gw5hk84d2fekhm73aqjsp6mzms/512x384.jpg",
      "categoryId": 2
    },
    {
      "id": "24368",
      "name": "Hero Cant Fly",
      "image": "https://img.gamemonetize.com/96g6xgbven00zgomf4j4lt32hwabez8q/512x384.jpg",
      "categoryId": 2
    },
    {
      "id": "24355",
      "name": "Golf Field Game",
      "image": "https://img.gamemonetize.com/xmx3icrxw2ph5m1rp1d0s8qpacz139bl/512x384.jpg",
      "categoryId": 2
    },
    {
      "id": "24353",
      "name": "Combat Reloaded",
      "image": "https://img.gamemonetize.com/lfijb0bl3oiqhjq0217qgy0fdbrvf8s5/512x384.jpg",
      "categoryId": 2
    },
    {
      "id": "24352",
      "name": "Grand Prix Racing Hero",
      "image": "https://img.gamemonetize.com/d402vavvstmp8r1fccjc1b8twi7rt1us/512x384.jpg",
      "categoryId": 2
    },
    {
      "id": "24334",
      "name": "Killer City - Avoid Game",
      "image": "https://img.gamemonetize.com/2fs262w5g4zq8q82k926v1lirclkvpzy/512x384.jpg",
      "categoryId": 2
    },
    {
      "id": "24294",
      "name": "Dr Parking - Parking Master",
      "image": "https://img.gamemonetize.com/wdujq6zxbwzhrpeguyat0yitem75di45/512x384.jpg",
      "categoryId": 2
    },
    {
      "id": "24263",
      "name": "Who Is The Joker?",
      "image": "https://img.gamemonetize.com/pth9rd10qn3y5eg5kq7v05wke684cn6k/512x384.jpg",
      "categoryId": 2
    },
    {
      "id": "24236",
      "name": "Karate Boy",
      "image": "https://img.gamemonetize.com/bn5wchk31nydujq3ni428bpzp1eng4dp/512x384.jpg",
      "categoryId": 2
    },
    {
      "id": "24224",
      "name": "Poppy Dungeons - Poppy Playtime",
      "image": "https://img.gamemonetize.com/sv4ex0rcrwoxnvl6nzvas5ibn38z7b8n/512x384.jpg",
      "categoryId": 2
    }
  ]
}
