{
  "category": {
    "id": 1,
    "name": "動作です",
    "alias": "action",
    "count": 296
  },
  "page": 1,
  "totalPages": 13,
  "totalItems": 296,
  "items": [
    {
      "id": "33349",
      "name": "ジェットスカイポリゴン",
      "image": "https://img.gamemonetize.com/x3z44lsc502p45dsduewuulzii850r6g/512x384.jpg",
      "categoryId": 1
    },
    {
      "id": "33345",
      "name": "スネークライト",
      "image": "https://img.gamemonetize.com/57ug1vptmf6cuq3218p0bd7fa9ai5dxz/512x384.jpg",
      "categoryId": 1
    },
    {
      "id": "33326",
      "name": "貪欲なスネーク：脳穴爆発",
      "image": "https://img.gamemonetize.com/1yudmy36siiuyzs0xugdwfegza5n28x2/512x384.jpg",
      "categoryId": 1
    },
    {
      "id": "33305",
      "name": "ローグライクRPG",
      "image": "https://img.gamemonetize.com/osj1fq80durjih4vz0r09px0ovd6qsmq/512x384.jpg",
      "categoryId": 1
    },
    {
      "id": "33263",
      "name": "ファイブナイツアットスパイクス",
      "image": "https://img.gamemonetize.com/cv8uigzlwymvs7n9isr9i8n6yzuh90qc/512x384.jpg",
      "categoryId": 1
    },
    {
      "id": "33212",
      "name": "ガーテンオブバンバンハギーエスケープ",
      "image": "https://img.gamemonetize.com/zxrcgnvzd0omr9m89x69inz2564qhkim/512x384.jpg",
      "categoryId": 1
    },
    {
      "id": "33119",
      "name": "フリップシュートコントロール",
      "image": "https://img.gamemonetize.com/eokru2poii2000uh1ln1tigqmpfdw6mq/512x384.jpg",
      "categoryId": 1
    },
    {
      "id": "33102",
      "name": "tinywar.io",
      "image": "https://img.gamemonetize.com/fpegl6hk176yz1w1suj7fkw8g2ifi86o/512x384.jpg",
      "categoryId": 1
    },
    {
      "id": "33051",
      "name": "ガンシューティング＆ランニングゲーム",
      "image": "https://img.gamemonetize.com/fp4ft41vgzg1mi2zdkxp5shcro5aak8v/512x384.jpg",
      "categoryId": 1
    },
    {
      "id": "33017",
      "name": "ホラーシティマインクラフトサバイブ",
      "image": "https://img.gamemonetize.com/wfngjxdw09xwa6gfv4ovl7ocr7kxfm1k/512x384.jpg",
      "categoryId": 1
    },
    {
      "id": "32946",
      "name": "カルノーゲーム＆カジュアルフィジックス",
      "image": "https://img.gamemonetize.com/a8birtsbz2g4vwgeh1smsomlr9rwpoic/512x384.jpg",
      "categoryId": 1
    },
    {
      "id": "32859",
      "name": "スティックマンドラゴンファイティング",
      "image": "https://img.gamemonetize.com/3qjy06r1j5gwos4zqmqu4w86tn74pq7m/512x384.jpg",
      "categoryId": 1
    },
    {
      "id": "32815",
      "name": "張飛伝説",
      "image": "https://img.gamemonetize.com/w285bgoyt5q5sfeu9hwydx26u10z1ooc/512x384.jpg",
      "categoryId": 1
    },
    {
      "id": "32810",
      "name": "スレンダーマン ロストアットスクール",
      "image": "https://img.gamemonetize.com/24gnovw92p6d8dz6lr9jg0sp3ug9xrmd/512x384.jpg",
      "categoryId": 1
    },
    {
      "id": "32770",
      "name": "ディノシミュレーター シティアタック",
      "image": "https://img.gamemonetize.com/3jeh3dg86fnn2nlnjjqq2y8dsru7ld3c/512x384.jpg",
      "categoryId": 1
    },
    {
      "id": "32638",
      "name": "クリーナーレース",
      "image": "https://img.gamemonetize.com/y7pwif6rxy0sn74qsl8cb0o1m3h2y0nt/512x384.jpg",
      "categoryId": 1
    },
    {
      "id": "32585",
      "name": "モンスタートラック スタント メガランプ",
      "image": "https://img.gamemonetize.com/c7ch6q55gha9c8deporwsucmu9xft57q/512x384.jpg",
      "categoryId": 1
    },
    {
      "id": "32576",
      "name": "モンスタートラック エクストリームスタント",
      "image": "https://img.gamemonetize.com/v4n2fp1keev6q4w8tih0rcxgo0czdaf8/512x384.jpg",
      "categoryId": 1
    },
    {
      "id": "32569",
      "name": "カーゴトラック マウンテンシミュレーター",
      "image": "https://img.gamemonetize.com/dua7f3lyka1ousc42knq5s53pggj2011/512x384.jpg",
      "categoryId": 1
    },
    {
      "id": "32559",
      "name": "アメリカンシティ トラック輸送",
      "image": "https://img.gamemonetize.com/1nsf9mo5viy91o3xbwdrl6u2yhn5i5o0/512x384.jpg",
      "categoryId": 1
    },
    {
      "id": "32557",
      "name": "オフロード トラック輸送",
      "image": "https://img.gamemonetize.com/4bk844pemos2hamkblsoxh01dzxbqm3h/512x384.jpg",
      "categoryId": 1
    },
    {
      "id": "32543",
      "name": "飛行機墜落 ラグドールシミュレーター",
      "image": "https://img.gamemonetize.com/9vz6x0b5dmyk48s8nalz74iupnzh3tyq/512x384.jpg",
      "categoryId": 1
    },
    {
      "id": "32541",
      "name": "軍用トラック運転シミュレーター",
      "image": "https://img.gamemonetize.com/bi51p6ugftg8ngxfz4x18hw50jskk0fy/512x384.jpg",
      "categoryId": 1
    },
    {
      "id": "32531",
      "name": "オイルタンクトラック運転シミュレーター",
      "image": "https://img.gamemonetize.com/9u4hs7eoy90iuifdvh89k5l5h60x0tab/512x384.jpg",
      "categoryId": 1
    }
  ]
}
