{
  "category": {
    "id": 1,
    "name": "動作です",
    "alias": "action",
    "count": 296
  },
  "page": 3,
  "totalPages": 13,
  "totalItems": 296,
  "items": [
    {
      "id": "31953",
      "name": "Granny Chapter 3 High School",
      "image": "https://img.gamemonetize.com/ehnw198451t7cygffbjrs4ac50ue011k/512x384.jpg",
      "categoryId": 1
    },
    {
      "id": "31950",
      "name": "Swipe To Park The Cars",
      "image": "https://img.gamemonetize.com/0eii7f3a9spn9lw35vo3ovmpur1120tt/512x384.jpg",
      "categoryId": 1
    },
    {
      "id": "31943",
      "name": "StickMan Defense",
      "image": "https://img.gamemonetize.com/xnm06hp9o6dt48fua7g3jzoddqnkc5fs/512x384.jpg",
      "categoryId": 1
    },
    {
      "id": "31816",
      "name": "Knife WAR.IO",
      "image": "https://img.gamemonetize.com/xvcym1vb1aesda2konvlw79625pnkr6k/512x384.jpg",
      "categoryId": 1
    },
    {
      "id": "31801",
      "name": "クラフト窃盗戦争",
      "image": "https://img.gamemonetize.com/2w7rnj6q5cnt9jt81l0m7s27uqqyqq0f/512x384.jpg",
      "categoryId": 1
    },
    {
      "id": "31750",
      "name": "フォールボーイズ ウルトリミット 2024",
      "image": "https://img.gamemonetize.com/nxl2ybhls0ev61j3bf9zzfmlwnjzwe58/512x384.jpg",
      "categoryId": 1
    },
    {
      "id": "31749",
      "name": "ウェデンの迷宮脱出",
      "image": "https://img.gamemonetize.com/5fw8d2716dxf4t9semyy8pkkfmzpz0jh/512x384.jpg",
      "categoryId": 1
    },
    {
      "id": "31730",
      "name": "グリーマスの壁壊し屋",
      "image": "https://img.gamemonetize.com/wbebjp7c8sfc5qyi4zf74j8ozskpvv0z/512x384.jpg",
      "categoryId": 1
    },
    {
      "id": "31712",
      "name": "ウォーズシップ.io",
      "image": "https://img.gamemonetize.com/usz9gt1ag3jrfo42phs37ld1mgbzr0ax/512x384.jpg",
      "categoryId": 1
    },
    {
      "id": "31699",
      "name": "ブロックジュエル2024",
      "image": "https://img.gamemonetize.com/iru2w6olx1xubivscv7xkvu0ctwibq9u/512x384.jpg",
      "categoryId": 1
    },
    {
      "id": "31695",
      "name": "ウォーズアイランド管理",
      "image": "https://img.gamemonetize.com/nw2j1urwbjt67lz5j6jigeg3m5e2050n/512x384.jpg",
      "categoryId": 1
    },
    {
      "id": "31693",
      "name": "ブリッジファンレース",
      "image": "https://img.gamemonetize.com/d55mz3ys0ne1682kzxj5v9maq8grsuy9/512x384.jpg",
      "categoryId": 1
    },
    {
      "id": "31691",
      "name": "コマンドストライクFPSオフライン",
      "image": "https://img.gamemonetize.com/t7x6opco5bllwyx9zxsg4v0gtjylrauw/512x384.jpg",
      "categoryId": 1
    },
    {
      "id": "31689",
      "name": "フォールボーイズアンドガールズ2024",
      "image": "https://img.gamemonetize.com/ob8217a4c96k6thxcf7shl0rx5f0f8ay/512x384.jpg",
      "categoryId": 1
    },
    {
      "id": "31592",
      "name": "デュオハウスエスケープ",
      "image": "https://img.gamemonetize.com/54oyhnodfr4iphhyyuzxug495p22lgag/512x384.jpg",
      "categoryId": 1
    },
    {
      "id": "31576",
      "name": "泥棒と警察",
      "image": "https://img.gamemonetize.com/l3xdck3mhhur6v5xr3zmjco7mbw6f4lg/512x384.jpg",
      "categoryId": 1
    },
    {
      "id": "31562",
      "name": "マージパンチ",
      "image": "https://img.gamemonetize.com/ql5s71379ryheqb8agur0u7pjp7jn39i/512x384.jpg",
      "categoryId": 1
    },
    {
      "id": "31540",
      "name": "サンプルゼロ",
      "image": "https://img.gamemonetize.com/2703opaxlocb1zdy8juyd9t2yeuddpda/512x384.jpg",
      "categoryId": 1
    },
    {
      "id": "31530",
      "name": "クラブの王",
      "image": "https://img.gamemonetize.com/7qd3n9dqksf5kv9melr3cx96oo8rmjws/512x384.jpg",
      "categoryId": 1
    },
    {
      "id": "31518",
      "name": "ノーブvsオビー 2人プレイヤー",
      "image": "https://img.gamemonetize.com/jwh0jlov1vfgjg8lzicg4yjlyvn6kdw5/512x384.jpg",
      "categoryId": 1
    },
    {
      "id": "31480",
      "name": "車椅子運転シミュレーター",
      "image": "https://img.gamemonetize.com/fo1qx0xn7rh40g72oo6wcwxq1erensgj/512x384.jpg",
      "categoryId": 1
    },
    {
      "id": "31419",
      "name": "バトルユニバース2D",
      "image": "https://img.gamemonetize.com/nyidtrgpboumiiblnha470rfijyqg08e/512x384.jpg",
      "categoryId": 1
    },
    {
      "id": "31391",
      "name": "狙撃ミッションウォー",
      "image": "https://img.gamemonetize.com/lgrku412hrxdytv220yo4lr2ugh8sb6j/512x384.jpg",
      "categoryId": 1
    },
    {
      "id": "31386",
      "name": "メカビルダーマスター",
      "image": "https://img.gamemonetize.com/5e8hskucpg4t0lvmeo99avzjo2lkd6e3/512x384.jpg",
      "categoryId": 1
    }
  ]
}
