{
  "category": {
    "id": 1,
    "name": "動作です",
    "alias": "action",
    "count": 296
  },
  "page": 4,
  "totalPages": 13,
  "totalItems": 296,
  "items": [
    {
      "id": "31354",
      "name": "オフロードトラック動物輸送車",
      "image": "https://img.gamemonetize.com/y940rp3v2c2v61r3ulne6q4897xrunfc/512x384.jpg",
      "categoryId": 1
    },
    {
      "id": "31344",
      "name": "アフリカチーターハンティングシミュレーター",
      "image": "https://img.gamemonetize.com/imbgcp7ugx7zj4r81ckmvdw6x8w9mik0/512x384.jpg",
      "categoryId": 1
    },
    {
      "id": "31335",
      "name": "スケールキッドランアンドジャンプアップ",
      "image": "https://img.gamemonetize.com/dtwhbxaw1e4lfqr35bimm0jdmdmzaof8/512x384.jpg",
      "categoryId": 1
    },
    {
      "id": "31320",
      "name": "キングダム・キャッスルウォーズ",
      "image": "https://img.gamemonetize.com/1rzsntgk8js6ffz7y0vb3wa188u0xt7j/512x384.jpg",
      "categoryId": 1
    },
    {
      "id": "31296",
      "name": "スティックマン・チームリターン",
      "image": "https://img.gamemonetize.com/ayvxzb2goubgu6h8hr48zqrvrt5lz612/512x384.jpg",
      "categoryId": 1
    },
    {
      "id": "31282",
      "name": "アリスの世界 - ムーンジャンプ",
      "image": "https://img.gamemonetize.com/4e35ndcikq24arle7ncjq12usym1h46k/512x384.jpg",
      "categoryId": 1
    },
    {
      "id": "31239",
      "name": "ゾンビミッション・サバイバー",
      "image": "https://img.gamemonetize.com/2526u8wtqt6q67pmh4ueov0z3r4v0pr7/512x384.jpg",
      "categoryId": 1
    },
    {
      "id": "31238",
      "name": "フィッシュイーティンググロースメガ",
      "image": "https://img.gamemonetize.com/zr6lw7sy0w1pbsj0ousx838tufns0fjt/512x384.jpg",
      "categoryId": 1
    },
    {
      "id": "31211",
      "name": "サムライルーロウニーズウォーズ",
      "image": "https://img.gamemonetize.com/ikcfucm3o1k460mvkkmf15t8elkdhiwv/512x384.jpg",
      "categoryId": 1
    },
    {
      "id": "31200",
      "name": "ガレージストレージのモンスター",
      "image": "https://img.gamemonetize.com/y4sq4nrembaa82mlw961my3al5ynpo73/512x384.jpg",
      "categoryId": 1
    },
    {
      "id": "31113",
      "name": "GTAニューヨーク",
      "image": "https://img.gamemonetize.com/zt4qt847w9o5z06a4ayj5kwy2p9eyifi/512x384.jpg",
      "categoryId": 1
    },
    {
      "id": "31112",
      "name": "卵を盗め：銃の時代",
      "image": "https://img.gamemonetize.com/lwu8gifalrfo6crtlazf5i99gg2nq7w7/512x384.jpg",
      "categoryId": 1
    },
    {
      "id": "30995",
      "name": "ネクストボットの逃走",
      "image": "https://img.gamemonetize.com/9r3qeppg5l8x4vg43jyi3bzuvrwk56db/512x384.jpg",
      "categoryId": 1
    },
    {
      "id": "30977",
      "name": "ノーブウォーズ レッドとブルー",
      "image": "https://img.gamemonetize.com/a1bmbag62e95mxf0l0w252w20ipp6pzs/512x384.jpg",
      "categoryId": 1
    },
    {
      "id": "30938",
      "name": "ゲリラ.io",
      "image": "https://img.gamemonetize.com/112rtu0i5bxhf66h19pdgzxzqj0uhxzz/512x384.jpg",
      "categoryId": 1
    },
    {
      "id": "30932",
      "name": "グラインド.io",
      "image": "https://img.gamemonetize.com/oilojh3yxoenhphbpt70udjdvkvis77w/512x384.jpg",
      "categoryId": 1
    },
    {
      "id": "30925",
      "name": "ステートウォーズ",
      "image": "https://img.gamemonetize.com/ow2v99y6plh0nq6c7zsmrqahfq9avaam/512x384.jpg",
      "categoryId": 1
    },
    {
      "id": "30924",
      "name": "レッドとブルーの城塞戦",
      "image": "https://img.gamemonetize.com/bskdf3wrorqo4ihz2b5unrvqtvk2rbeo/512x384.jpg",
      "categoryId": 1
    },
    {
      "id": "30919",
      "name": "サイレンヘッド3ゲーム",
      "image": "https://img.gamemonetize.com/jwkd6mlipe9b4pt6yx160p7r62djopmj/512x384.jpg",
      "categoryId": 1
    },
    {
      "id": "30900",
      "name": "サンタのクリスマスマニア",
      "image": "https://img.gamemonetize.com/l6maeoq1rjvfimmos7s05z0ozksr4v40/512x384.jpg",
      "categoryId": 1
    },
    {
      "id": "30885",
      "name": "モンスターDIY作成",
      "image": "https://img.gamemonetize.com/alp1qgvb8i09llmagl5qwyni66akh7ic/512x384.jpg",
      "categoryId": 1
    },
    {
      "id": "30880",
      "name": "フレンズバトルガンウォーズ",
      "image": "https://img.gamemonetize.com/j4swgnqv0eymmfn74m66mkfara3xenxj/512x384.jpg",
      "categoryId": 1
    },
    {
      "id": "30860",
      "name": "ガンウォーズ",
      "image": "https://img.gamemonetize.com/hw44jvebabhr1tcbhnb4odadrotffxch/512x384.jpg",
      "categoryId": 1
    },
    {
      "id": "30849",
      "name": "寺院の戦い ライトセーバー",
      "image": "https://img.gamemonetize.com/jxzloimj2jepa67teod995ml70jeoapb/512x384.jpg",
      "categoryId": 1
    }
  ]
}
