{
  "category": {
    "id": 1,
    "name": "動作です",
    "alias": "action",
    "count": 296
  },
  "page": 5,
  "totalPages": 13,
  "totalItems": 296,
  "items": [
    {
      "id": "30847",
      "name": "ホラーゲームのファイブナイトズ",
      "image": "https://img.gamemonetize.com/nngvaejcv5w8qkis77vn842mfer20fm9/512x384.jpg",
      "categoryId": 1
    },
    {
      "id": "30834",
      "name": "グローボール フィードして成長",
      "image": "https://img.gamemonetize.com/hcx5y4cogxnwjvozussfta9q00905zv6/512x384.jpg",
      "categoryId": 1
    },
    {
      "id": "30830",
      "name": "フックウォーズ",
      "image": "https://img.gamemonetize.com/8j0k7hnlow6b6ygjrlrre3wp55isblgt/512x384.jpg",
      "categoryId": 1
    },
    {
      "id": "30812",
      "name": "エイジ・オブ・クエスト",
      "image": "https://img.gamemonetize.com/21w183pon5e08kuu66ta3irsrrjdqecj/512x384.jpg",
      "categoryId": 1
    },
    {
      "id": "30806",
      "name": "フレディーズリターン ビレッジエスケープ",
      "image": "https://img.gamemonetize.com/t2w13n4v5ua06i776d9rgbmn7t6c9vjb/512x384.jpg",
      "categoryId": 1
    },
    {
      "id": "30800",
      "name": "航空機バトル2024",
      "image": "https://img.gamemonetize.com/vdpxh1ejl80w4hp7p7psuimdw10jbb9n/512x384.jpg",
      "categoryId": 1
    },
    {
      "id": "30792",
      "name": "フレンズバトルウォーターダイ",
      "image": "https://img.gamemonetize.com/hfqndhz4mtabr586stwlbe6a6opb6une/512x384.jpg",
      "categoryId": 1
    },
    {
      "id": "30769",
      "name": "エッグウォーズ",
      "image": "https://img.gamemonetize.com/mmf9jqdtaj0eizuitxj19i7u6pp0tvyt/512x384.jpg",
      "categoryId": 1
    },
    {
      "id": "30755",
      "name": "オフロードマウンテンドライビング2024",
      "image": "https://img.gamemonetize.com/grnjvd7zlbj5ns8v2y3gx724h8bpsqyt/512x384.jpg",
      "categoryId": 1
    },
    {
      "id": "30754",
      "name": "カメラマンVSスキビディ戦闘ゲーム",
      "image": "https://img.gamemonetize.com/2cpjxqbza71fxcq9kd598ubqouvzgi5r/512x384.jpg",
      "categoryId": 1
    },
    {
      "id": "30729",
      "name": "スネークウォーズ",
      "image": "https://img.gamemonetize.com/0t0kyeqddg5haa8l91aoi2b98qeier71/512x384.jpg",
      "categoryId": 1
    },
    {
      "id": "30691",
      "name": "アイドルスワットテロリストゲーム",
      "image": "https://img.gamemonetize.com/hvfrneuqrfwxoikyl8o3i32yjy4xhgrq/512x384.jpg",
      "categoryId": 1
    },
    {
      "id": "30676",
      "name": "アメージングデジタルサーカスホラーエスケープ",
      "image": "https://img.gamemonetize.com/v0eqgq8djaleuf1y5jh3jtr9386njtgn/512x384.jpg",
      "categoryId": 1
    },
    {
      "id": "30648",
      "name": "バトルフィールドブロウル協力チャレンジ",
      "image": "https://img.gamemonetize.com/9ztoy27aazvyob6wq7qgea48eanbcbus/512x384.jpg",
      "categoryId": 1
    },
    {
      "id": "30633",
      "name": "ダークダンジョンの守護者",
      "image": "https://img.gamemonetize.com/myfjikexavuq54mb13hi89070p4qx7ja/512x384.jpg",
      "categoryId": 1
    },
    {
      "id": "30614",
      "name": "グランニー・リターンズ お化け屋敷",
      "image": "https://img.gamemonetize.com/pm5wjn3np4xl59y8ie3a85xqs1m1nyma/512x384.jpg",
      "categoryId": 1
    },
    {
      "id": "30608",
      "name": "シークレットキー",
      "image": "https://img.gamemonetize.com/cevjm8tbypn2u4i9kato9lwllqzowxjo/512x384.jpg",
      "categoryId": 1
    },
    {
      "id": "30598",
      "name": "ソードバトル.io",
      "image": "https://img.gamemonetize.com/m2yzvbmyf75dl11i5lrtzlykjkzrgb85/512x384.jpg",
      "categoryId": 1
    },
    {
      "id": "30582",
      "name": "カームッシュ",
      "image": "https://img.gamemonetize.com/h3b24m8uiyxmg3pz3vkfcea9887j53wm/512x384.jpg",
      "categoryId": 1
    },
    {
      "id": "30530",
      "name": "核大陸戦闘",
      "image": "https://img.gamemonetize.com/9s15hu7763srdi2hfmsbu8tcpgjrfazs/512x384.jpg",
      "categoryId": 1
    },
    {
      "id": "30517",
      "name": "マッスルシンク",
      "image": "https://img.gamemonetize.com/u5hhlak7rg5b69uwako4v9cnw51nt2ge/512x384.jpg",
      "categoryId": 1
    },
    {
      "id": "30509",
      "name": "ヘッドサッカー2D 2023",
      "image": "https://img.gamemonetize.com/t9wdukh7cv54thssreth3vmh6f6s120c/512x384.jpg",
      "categoryId": 1
    },
    {
      "id": "30496",
      "name": "スティックマン角度戦闘",
      "image": "https://img.gamemonetize.com/1r11ygneka6bu6iy7cnhj2x1wqznwree/512x384.jpg",
      "categoryId": 1
    },
    {
      "id": "30468",
      "name": "ボクシングギャングスターズ",
      "image": "https://img.gamemonetize.com/e0wtz9mesz8tuebf28ykoggtieokpc74/512x384.jpg",
      "categoryId": 1
    }
  ]
}
