{
  "category": {
    "id": 1,
    "name": "動作です",
    "alias": "action",
    "count": 296
  },
  "page": 7,
  "totalPages": 13,
  "totalItems": 296,
  "items": [
    {
      "id": "30042",
      "name": "ラグドールアリーナ2プレイヤー",
      "image": "https://img.gamemonetize.com/ympogr90zckrhth1abu4t2c0j3f3c65w/512x384.jpg",
      "categoryId": 1
    },
    {
      "id": "30028",
      "name": "スーパーランナー3Dゲーム",
      "image": "https://img.gamemonetize.com/swov3o7f8jo3inwleep867xn3bzgf1y2/512x384.jpg",
      "categoryId": 1
    },
    {
      "id": "30024",
      "name": "バイクスタントプロHTML5",
      "image": "https://img.gamemonetize.com/v9jayb60n11w8sg409kifm8orsum76cf/512x384.jpg",
      "categoryId": 1
    },
    {
      "id": "30023",
      "name": "バーバーショップIncオンライン",
      "image": "https://img.gamemonetize.com/4u9kkjguyfoycyp186ukvh8o0l4u9x5c/512x384.jpg",
      "categoryId": 1
    },
    {
      "id": "30016",
      "name": "スクーターブラザーズ",
      "image": "https://img.gamemonetize.com/2ht1jwm5vwhx1s17iytiqmp27df8k7u4/512x384.jpg",
      "categoryId": 1
    },
    {
      "id": "30013",
      "name": "ビルディングコンストラクション",
      "image": "https://img.gamemonetize.com/0pxd94iawcq5djp4gga1xhn2z08vbbnq/512x384.jpg",
      "categoryId": 1
    },
    {
      "id": "30012",
      "name": "サッカーチャンピオンシップ2023 HTML5",
      "image": "https://img.gamemonetize.com/pcjz3wh0nk5vdc626avfw2qf8pq4vsk2/512x384.jpg",
      "categoryId": 1
    },
    {
      "id": "29999",
      "name": "マージデジタルサーカスvsトイレ",
      "image": "https://img.gamemonetize.com/7czenc9qf3qtdyejc62009k9wat5xh87/512x384.jpg",
      "categoryId": 1
    },
    {
      "id": "29991",
      "name": "フィッシュスタブゲットビッグ",
      "image": "https://img.gamemonetize.com/s43t6t4u4vi2bxo4w061myb5jrbnr5e0/512x384.jpg",
      "categoryId": 1
    },
    {
      "id": "29988",
      "name": "バススタント3Dシミュレーター2024",
      "image": "https://img.gamemonetize.com/6oast3vyx8wjv2o4c44tdsczn3kexdpq/512x384.jpg",
      "categoryId": 1
    },
    {
      "id": "29979",
      "name": "アイランドバトル3D",
      "image": "https://img.gamemonetize.com/xt2j7aqkio7orm6km73231nh06tnmv9q/512x384.jpg",
      "categoryId": 1
    },
    {
      "id": "29933",
      "name": "バイクオフロードスタント2024",
      "image": "https://img.gamemonetize.com/m2gbuldfl4myy3u4sb6j3wdk0ofzlbdg/512x384.jpg",
      "categoryId": 1
    },
    {
      "id": "29912",
      "name": "バイクアタックレース2024",
      "image": "https://img.gamemonetize.com/11t28nnliejw8d7yde2fl8osjuai8zam/512x384.jpg",
      "categoryId": 1
    },
    {
      "id": "29885",
      "name": "貨物トラックオフロード",
      "image": "https://img.gamemonetize.com/bqypgh7mizibuctv597a3akm4cl3fd2d/512x384.jpg",
      "categoryId": 1
    },
    {
      "id": "29872",
      "name": "バイクスタント2024",
      "image": "https://img.gamemonetize.com/bmozm1zrhtvbe4d4us8whh6bywqmweam/512x384.jpg",
      "categoryId": 1
    },
    {
      "id": "29865",
      "name": "ギャングファイターズ",
      "image": "https://img.gamemonetize.com/dmjz4ty5drd9aww9yq588icmnenprlu6/512x384.jpg",
      "categoryId": 1
    },
    {
      "id": "29859",
      "name": "相撲バトル！",
      "image": "https://img.gamemonetize.com/7mdskoub4xtdgvith418pqnpxjv1ewx3/512x384.jpg",
      "categoryId": 1
    },
    {
      "id": "29855",
      "name": "軍用車両輸送",
      "image": "https://img.gamemonetize.com/9bs240ik4h7sx6u3ftzis7b6jrvz7nhj/512x384.jpg",
      "categoryId": 1
    },
    {
      "id": "29845",
      "name": "プジョー2008オフロードドライビング",
      "image": "https://img.gamemonetize.com/aex8hojuz54uc98vfzrcfa4492jyz4mh/512x384.jpg",
      "categoryId": 1
    },
    {
      "id": "29822",
      "name": "2dカーパーキング2023",
      "image": "https://img.gamemonetize.com/9lx3p9zy4t1avawxsrutro46dulssm32/512x384.jpg",
      "categoryId": 1
    },
    {
      "id": "29801",
      "name": "ミニファイターストライク",
      "image": "https://img.gamemonetize.com/try5tbigkk2s4hkx0azpr3ucxo24940r/512x384.jpg",
      "categoryId": 1
    },
    {
      "id": "29773",
      "name": "スーパージョン・ウィック",
      "image": "https://img.gamemonetize.com/5v9lcitp50ylhqzjxnf7w37n0q0dt78d/512x384.jpg",
      "categoryId": 1
    },
    {
      "id": "29759",
      "name": "ゴースティナイトハーベスト",
      "image": "https://img.gamemonetize.com/1h9grfehwwf24efl9f24ux2656bc57y7/512x384.jpg",
      "categoryId": 1
    },
    {
      "id": "29737",
      "name": "ポリスクラッシュ3D",
      "image": "https://img.gamemonetize.com/cr8vj2mekjhpjfakxecw0gquwgii0nr1/512x384.jpg",
      "categoryId": 1
    }
  ]
}
