{
  "category": {
    "id": 1,
    "name": "動作です",
    "alias": "action",
    "count": 296
  },
  "page": 8,
  "totalPages": 13,
  "totalItems": 296,
  "items": [
    {
      "id": "29716",
      "name": "ハングリーウォリアーファイト",
      "image": "https://img.gamemonetize.com/fwumbh5fj5obd6vho6p7ymv40xpm11hu/512x384.jpg",
      "categoryId": 1
    },
    {
      "id": "29684",
      "name": "ミニデュエルズバトル",
      "image": "https://img.gamemonetize.com/o7ktob2oilxl4yot4ksso7svsoxz0udb/512x384.jpg",
      "categoryId": 1
    },
    {
      "id": "29661",
      "name": "メガカークラッシュシミュレーター",
      "image": "https://img.gamemonetize.com/3uxkgiopjrkxmppgzgof64q5sgsc25rv/512x384.jpg",
      "categoryId": 1
    },
    {
      "id": "29649",
      "name": "ヘビートラクタートラッキング",
      "image": "https://img.gamemonetize.com/8vegqqzw0d9k0lj0e9y81afxv2wco261/512x384.jpg",
      "categoryId": 1
    },
    {
      "id": "29643",
      "name": "カーパーキングロット2023",
      "image": "https://img.gamemonetize.com/7t4u52tdicqex560gqzzkls0l5j55nhd/512x384.jpg",
      "categoryId": 1
    },
    {
      "id": "29638",
      "name": "タンクバトル 2プレイヤー",
      "image": "https://img.gamemonetize.com/6iozl4kuor3xettbokhiadh8fcxai1pv/512x384.jpg",
      "categoryId": 1
    },
    {
      "id": "29610",
      "name": "シュレックのホテルでの5夜",
      "image": "https://img.gamemonetize.com/90npw9ketxil8j0c5vfuxcwv67djgita/512x384.jpg",
      "categoryId": 1
    },
    {
      "id": "29578",
      "name": "ファイターレジェンズ デュオ",
      "image": "https://img.gamemonetize.com/8nv3jd35egnqso4tamip9k8u04mdfgun/512x384.jpg",
      "categoryId": 1
    },
    {
      "id": "29464",
      "name": "ナinjaスティックマンウォリアー HTML5",
      "image": "https://img.gamemonetize.com/qkf5109t7ye847az9c0p1jffbq031ikn/512x384.jpg",
      "categoryId": 1
    },
    {
      "id": "29449",
      "name": "モンスターのダンジョンバトル",
      "image": "https://img.gamemonetize.com/cb4lyqk01r8nugfoqxnaps191l2xvq9f/512x384.jpg",
      "categoryId": 1
    },
    {
      "id": "29433",
      "name": "グリマースキャッキュアーエスケープ スキビディとカメラマン",
      "image": "https://img.gamemonetize.com/czx277alw1r9ff0nxtjqp5wujdyi88kz/512x384.jpg",
      "categoryId": 1
    },
    {
      "id": "29428",
      "name": "スキビディトイレのみアップ",
      "image": "https://img.gamemonetize.com/pnvv4xtk5ga8bny4140oyg4henh6pi9d/512x384.jpg",
      "categoryId": 1
    },
    {
      "id": "29401",
      "name": "スキビディトイレのかくれんぼ",
      "image": "https://img.gamemonetize.com/pjys7avy5ex96in3w92s5xf3eq4b4coe/512x384.jpg",
      "categoryId": 1
    },
    {
      "id": "29398",
      "name": "ソーセージラン",
      "image": "https://img.gamemonetize.com/pvgq9muc866itgvcy741foa0a2okfvhm/512x384.jpg",
      "categoryId": 1
    },
    {
      "id": "29389",
      "name": "スキビディトイレハンター",
      "image": "https://img.gamemonetize.com/yjuaf7eewx4fe5tsn44pdnni5q60f34b/512x384.jpg",
      "categoryId": 1
    },
    {
      "id": "29367",
      "name": "スキビディトイレ トップダウンサバイバル",
      "image": "https://img.gamemonetize.com/24qjjyp87cdcqmru239v2md7zu6630mf/512x384.jpg",
      "categoryId": 1
    },
    {
      "id": "29354",
      "name": "リアル飛行機シミュレーター",
      "image": "https://img.gamemonetize.com/l2mrm0gwkvuj1g0qy0acw6fj7xnzxmas/512x384.jpg",
      "categoryId": 1
    },
    {
      "id": "29341",
      "name": "クラフトドア：ホラーラン",
      "image": "https://img.gamemonetize.com/hmehhcx22pfqp8nrqqw54srznwsbrkml/512x384.jpg",
      "categoryId": 1
    },
    {
      "id": "29307",
      "name": "マスタークレイジーダメージ",
      "image": "https://img.gamemonetize.com/7a51z9rfrfc0najspxjmxpayslc0dfyh/512x384.jpg",
      "categoryId": 1
    },
    {
      "id": "29291",
      "name": "コマンドオプス：サバイバル3D",
      "image": "https://img.gamemonetize.com/51q2ocu5l2tn4tj7ojd3axb0a38zmlwr/512x384.jpg",
      "categoryId": 1
    },
    {
      "id": "29278",
      "name": "クラウンパーク：ハイドアンドシーク",
      "image": "https://img.gamemonetize.com/x89je06j8zmspnm8azsllfiylp8ervox/512x384.jpg",
      "categoryId": 1
    },
    {
      "id": "29272",
      "name": "サバイバルピクセル.io",
      "image": "https://img.gamemonetize.com/vbf4xpvfzbh03r17mnu662ifpwojhfvx/512x384.jpg",
      "categoryId": 1
    },
    {
      "id": "29226",
      "name": "スタンブル・サバイバルガイズ",
      "image": "https://img.gamemonetize.com/ebzhf7uwcukpaeb1z4ma3yu0mm2g0hrm/512x384.jpg",
      "categoryId": 1
    },
    {
      "id": "29214",
      "name": "フェイスパンチ.io",
      "image": "https://img.gamemonetize.com/akub1gx5xgvtbhp6ozi3adxmwmmm6ej2/512x384.jpg",
      "categoryId": 1
    }
  ]
}
