{
  "category": {
    "id": 1,
    "name": "動作です",
    "alias": "action",
    "count": 296
  },
  "page": 9,
  "totalPages": 13,
  "totalItems": 296,
  "items": [
    {
      "id": "29209",
      "name": "スキビディトイレvsカメラマンズ",
      "image": "https://img.gamemonetize.com/bep9445b7vx5b3jjzojwsti679u76ck8/512x384.jpg",
      "categoryId": 1
    },
    {
      "id": "29163",
      "name": "サイバーサーファースケートボード",
      "image": "https://img.gamemonetize.com/wplw5n1rp93fzw0o90xu88c1q4o3bw5o/512x384.jpg",
      "categoryId": 1
    },
    {
      "id": "29155",
      "name": "オンリーアップ！フォワード",
      "image": "https://img.gamemonetize.com/v7qy34ruk7kvsikgs57dmo5m78c5tvuy/512x384.jpg",
      "categoryId": 1
    },
    {
      "id": "29153",
      "name": "ウェポンデュエル",
      "image": "https://img.gamemonetize.com/177chanqfwt2tvf8e977m6evaa427vwb/512x384.jpg",
      "categoryId": 1
    },
    {
      "id": "29152",
      "name": "シティコンストラクタードライバー3Dゲーム",
      "image": "https://img.gamemonetize.com/nc4cfc03jf45qxuopvy5fgv0rf1bymno/512x384.jpg",
      "categoryId": 1
    },
    {
      "id": "29139",
      "name": "カースタント2050",
      "image": "https://img.gamemonetize.com/ogu1hx06a2bkppkqulsyv99qk1tcu5po/512x384.jpg",
      "categoryId": 1
    },
    {
      "id": "29112",
      "name": "スティックアリーナ3D",
      "image": "https://img.gamemonetize.com/x1jqtjkh9s1xfmzfe1wnv5j88b5szgmy/512x384.jpg",
      "categoryId": 1
    },
    {
      "id": "29111",
      "name": "3Dバブルラッシュゲーム",
      "image": "https://img.gamemonetize.com/ru1cobxnywerysikpi5x2bl6olmw6xt9/512x384.jpg",
      "categoryId": 1
    },
    {
      "id": "29083",
      "name": "フォールボーイズ スキビディトイレ",
      "image": "https://img.gamemonetize.com/8k16174hl3bg8ec1lk08thh3em9b6q0v/512x384.jpg",
      "categoryId": 1
    },
    {
      "id": "29068",
      "name": "スキビディトイレ バレット",
      "image": "https://img.gamemonetize.com/qt42nkifuxtcht0iqueutwx075evc257/512x384.jpg",
      "categoryId": 1
    },
    {
      "id": "29066",
      "name": "ヘリックス スキビディトイレ ジャンプ",
      "image": "https://img.gamemonetize.com/v7qltxk0bu7v83kycu8anrrmub1nmtxr/512x384.jpg",
      "categoryId": 1
    },
    {
      "id": "29064",
      "name": "スキビディスネーク.io",
      "image": "https://img.gamemonetize.com/88kisw889g91pa7fv6hwqzi0v3g2dbkw/512x384.jpg",
      "categoryId": 1
    },
    {
      "id": "29054",
      "name": "スペースアドベンチャー：ノービックスバトル VS ゾンビ",
      "image": "https://img.gamemonetize.com/5dnl5edam018ab0ojzoanvld7k3x9nr1/512x384.jpg",
      "categoryId": 1
    },
    {
      "id": "29053",
      "name": "エージェントカメラマン スキビディトイレ",
      "image": "https://img.gamemonetize.com/6zstdny5gv6yo1evvxxy80ov0uwsvw2w/512x384.jpg",
      "categoryId": 1
    },
    {
      "id": "29050",
      "name": "モンスタートラックスタント",
      "image": "https://img.gamemonetize.com/p6y6szhufhrmdrpwkdclke8hqhj7oasw/512x384.jpg",
      "categoryId": 1
    },
    {
      "id": "29016",
      "name": "ストリートカーレースアルティメット",
      "image": "https://img.gamemonetize.com/0h23x5drvwyehgkx28zhf7lvkb9fdhsl/512x384.jpg",
      "categoryId": 1
    },
    {
      "id": "29015",
      "name": "スキビディファイト",
      "image": "https://img.gamemonetize.com/mz962cwg9dkhtmttz4xml9wspku1aa3o/512x384.jpg",
      "categoryId": 1
    },
    {
      "id": "29011",
      "name": "レスキューマスター",
      "image": "https://img.gamemonetize.com/uk7y1arjjsnxoq5262fjbes4jmkhy10f/512x384.jpg",
      "categoryId": 1
    },
    {
      "id": "28974",
      "name": "チュー チュー チャールズ リベンジ",
      "image": "https://img.gamemonetize.com/b56yhj6qofvbdsx2qll581bihogt15cc/512x384.jpg",
      "categoryId": 1
    },
    {
      "id": "28970",
      "name": "フリーヘッドスケート",
      "image": "https://img.gamemonetize.com/museimxpj23qgd30oirvj1xlmc0vouem/512x384.jpg",
      "categoryId": 1
    },
    {
      "id": "28906",
      "name": "バイシクルラッシュ 3D",
      "image": "https://img.gamemonetize.com/wox48iadsukskgrs1fk9i5o2hxwm5azg/512x384.jpg",
      "categoryId": 1
    },
    {
      "id": "28895",
      "name": "カーレース：3Dドライブマッド",
      "image": "https://img.gamemonetize.com/u92w5m8oarc9vrcbaya824qonh7lgij3/512x384.jpg",
      "categoryId": 1
    },
    {
      "id": "28894",
      "name": "スキビディ トイレ フレンズ",
      "image": "https://img.gamemonetize.com/jvgcmyn4aqpf23w7gmww6x8cdo9nzefi/512x384.jpg",
      "categoryId": 1
    },
    {
      "id": "28846",
      "name": "バス駐車場シティースケープデポ",
      "image": "https://img.gamemonetize.com/q1njcj2p3xvtvvd5zw5nm4lj2mig6871/512x384.jpg",
      "categoryId": 1
    }
  ]
}
