{
  "category": {
    "id": 4,
    "name": "Shooting",
    "alias": "shooting",
    "count": 300
  },
  "page": 1,
  "totalPages": 13,
  "totalItems": 300,
  "items": [
    {
      "id": "33315",
      "name": "Fierce Battle Breakout",
      "image": "https://img.gamemonetize.com/tp9g3xe8lgwtctbm8dzg8cr3iumb405n/512x384.jpg",
      "categoryId": 4
    },
    {
      "id": "33287",
      "name": "Shoot Some Fish!",
      "image": "https://img.gamemonetize.com/clv3nosn3zr04fn92j8oa70q18nqpkbe/512x384.jpg",
      "categoryId": 4
    },
    {
      "id": "33277",
      "name": "AllPeopleTUG",
      "image": "https://img.gamemonetize.com/cowuuyd0km85dvoithgg7h55hh076z6u/512x384.jpg",
      "categoryId": 4
    },
    {
      "id": "33266",
      "name": "Matrix Man",
      "image": "https://img.gamemonetize.com/4x2lh9xfsht8s81bh0fhut7987t49wbr/512x384.jpg",
      "categoryId": 4
    },
    {
      "id": "33247",
      "name": "Lone Sniper",
      "image": "https://img.gamemonetize.com/3j6mku04c81ibd0p9kw3weoocxdyo5f2/512x384.jpg",
      "categoryId": 4
    },
    {
      "id": "33233",
      "name": "Multiplayer Team Death Match",
      "image": "https://img.gamemonetize.com/h5hc9ltwjo3sk2g2upo4su465kf1kkgz/512x384.jpg",
      "categoryId": 4
    },
    {
      "id": "33207",
      "name": "Mega Cube 4096",
      "image": "https://img.gamemonetize.com/ipzthd2oefun4g83jo2grww732nmg3mi/512x384.jpg",
      "categoryId": 4
    },
    {
      "id": "33198",
      "name": "Counter Craft Classic",
      "image": "https://img.gamemonetize.com/6uub4x1kky7d9prlxkqydgpbm8zq82jv/512x384.jpg",
      "categoryId": 4
    },
    {
      "id": "33188",
      "name": "Craftsman Gangster Theft Auto",
      "image": "https://img.gamemonetize.com/arqa10jqzqzo1ybvfddu4bvucn7ny888/512x384.jpg",
      "categoryId": 4
    },
    {
      "id": "33183",
      "name": "Brawlers Arena Battle Stars",
      "image": "https://img.gamemonetize.com/06dvup7lg22ff4h1of9maottg9lkoawl/512x384.jpg",
      "categoryId": 4
    },
    {
      "id": "33126",
      "name": "World of Military Tanks",
      "image": "https://img.gamemonetize.com/43lj3s10anh7z2x6nov8ct4k795pacrv/512x384.jpg",
      "categoryId": 4
    },
    {
      "id": "33115",
      "name": "Sprunki ShootFly",
      "image": "https://img.gamemonetize.com/q1nu3ibvgyhgz08vzlf2a7r3hgo8015m/512x384.jpg",
      "categoryId": 4
    },
    {
      "id": "33095",
      "name": "Range Master Sniper Academy",
      "image": "https://img.gamemonetize.com/xodmdssx8ia8ihzfwndeo0zgkqs0rym3/512x384.jpg",
      "categoryId": 4
    },
    {
      "id": "33079",
      "name": "Construction Site Simulator",
      "image": "https://img.gamemonetize.com/dd8ci38uz1ljahpsc1etrmuovcc01qpo/512x384.jpg",
      "categoryId": 4
    },
    {
      "id": "33066",
      "name": "Sprunki Sniper Squid Game",
      "image": "https://img.gamemonetize.com/yi9sxfualiyp82aasu36jg043nruy1q9/512x384.jpg",
      "categoryId": 4
    },
    {
      "id": "33043",
      "name": "Nextbots: Backrooms Sandbox",
      "image": "https://img.gamemonetize.com/o39vb24sttpcpzgfpn9vc31vwuvni7l9/512x384.jpg",
      "categoryId": 4
    },
    {
      "id": "33039",
      "name": "Silent Asylum 2",
      "image": "https://img.gamemonetize.com/989gfipex9q4gh45iebr6k31qv79d5h3/512x384.jpg",
      "categoryId": 4
    },
    {
      "id": "33022",
      "name": "World of WarTanks",
      "image": "https://img.gamemonetize.com/pyzwy1olt0u0uhbhnfgho35l4rkun7nj/512x384.jpg",
      "categoryId": 4
    },
    {
      "id": "32996",
      "name": "Sprunki Bullet Blender",
      "image": "https://img.gamemonetize.com/ma2bj6dr8g04inp7ur1z38b101ay5qhx/512x384.jpg",
      "categoryId": 4
    },
    {
      "id": "32973",
      "name": "One Bullet To Sprunki",
      "image": "https://img.gamemonetize.com/tet2zkqsnx7kjnr5uc6zygfpw50vfxqe/512x384.jpg",
      "categoryId": 4
    },
    {
      "id": "32963",
      "name": "Stickman Sniper Western Gun",
      "image": "https://img.gamemonetize.com/58o5c66cu7kdk0y2pap14twa0dx24btb/512x384.jpg",
      "categoryId": 4
    },
    {
      "id": "32926",
      "name": "Sprunki 3D Shooter",
      "image": "https://img.gamemonetize.com/0rhnpvrwrmjevwvwf9ui223sfj9fikvc/512x384.jpg",
      "categoryId": 4
    },
    {
      "id": "32925",
      "name": "KnifeHit",
      "image": "https://img.gamemonetize.com/ew3rf9lnjvj5zgd745e4ta4s0065vthn/512x384.jpg",
      "categoryId": 4
    },
    {
      "id": "32906",
      "name": "FNAF Strike",
      "image": "https://img.gamemonetize.com/wuo4t5nhav1xvkwmy5vb1b25zhpsxn43/512x384.jpg",
      "categoryId": 4
    }
  ]
}
