{
  "category": {
    "id": 4,
    "name": "Shooting",
    "alias": "shooting",
    "count": 300
  },
  "page": 10,
  "totalPages": 13,
  "totalItems": 300,
  "items": [
    {
      "id": "29452",
      "name": "One Bullet To Grimace",
      "image": "https://img.gamemonetize.com/qdhbk8rmikytwo7d31x7nkyej7cvz6lk/512x384.jpg",
      "categoryId": 4
    },
    {
      "id": "29435",
      "name": "Zombie Frontier Shooter",
      "image": "https://img.gamemonetize.com/t5ja1jr6s0tib922yaoc1d86xb3oh49h/512x384.jpg",
      "categoryId": 4
    },
    {
      "id": "29403",
      "name": "Dead Aim: Skibidi Toilets Attack",
      "image": "https://img.gamemonetize.com/glr4degbtojrnmiudrcmmkw2o7b7gnqp/512x384.jpg",
      "categoryId": 4
    },
    {
      "id": "29368",
      "name": "Grimace Versus Skibidi",
      "image": "https://img.gamemonetize.com/wybt0jrneff6jkodzgnq7cnp3wbhxv9x/512x384.jpg",
      "categoryId": 4
    },
    {
      "id": "29344",
      "name": "Flying Grimace",
      "image": "https://img.gamemonetize.com/xbh3e5wb6bilzeu1l2r12otatxkc3uex/512x384.jpg",
      "categoryId": 4
    },
    {
      "id": "29321",
      "name": "Grimace Commando",
      "image": "https://img.gamemonetize.com/s5ckkqi51j69zm0nyghyuy03t8hoszyy/512x384.jpg",
      "categoryId": 4
    },
    {
      "id": "29309",
      "name": "Speakerman Vs Skibidi Toilet",
      "image": "https://img.gamemonetize.com/y27rb3r0b9saiz6ziakmy4alnxutpkjv/512x384.jpg",
      "categoryId": 4
    },
    {
      "id": "29306",
      "name": "Skibidi Invasion",
      "image": "https://img.gamemonetize.com/jd5s7us23loraqjc37qjtuasjfmzl1fm/512x384.jpg",
      "categoryId": 4
    },
    {
      "id": "29302",
      "name": "Kick Grimace",
      "image": "https://img.gamemonetize.com/ep9maa7wijhej1ymmob0oskwuwryjlz6/512x384.jpg",
      "categoryId": 4
    },
    {
      "id": "29299",
      "name": "Dog Sitter",
      "image": "https://img.gamemonetize.com/3bovn58l2fpwn9pv7aqun6isz704xon5/512x384.jpg",
      "categoryId": 4
    },
    {
      "id": "29283",
      "name": "Grimace Dead Island Shooting",
      "image": "https://img.gamemonetize.com/ykjxx02q8pq9mcyc81vs2n5k7v4spqq2/512x384.jpg",
      "categoryId": 4
    },
    {
      "id": "29266",
      "name": "Skibidi Laser Kill",
      "image": "https://img.gamemonetize.com/q67yaflcz7qvtox9udiqctmtmi0uv2uc/512x384.jpg",
      "categoryId": 4
    },
    {
      "id": "29251",
      "name": "Zombie Treasure Adventure",
      "image": "https://img.gamemonetize.com/mfi0mo2dk7e1kdfc0ehyuli9dnydxm8e/512x384.jpg",
      "categoryId": 4
    },
    {
      "id": "29232",
      "name": "Machine Gun Squad Brave Soldier",
      "image": "https://img.gamemonetize.com/qopbx1nlotnt69gyptvd70h8c0f9i8r4/512x384.jpg",
      "categoryId": 4
    },
    {
      "id": "29202",
      "name": "Sniper Dinosaur Hunting",
      "image": "https://img.gamemonetize.com/o8m5s0ichg906dv22mwxn24ww5ryszgc/512x384.jpg",
      "categoryId": 4
    },
    {
      "id": "29192",
      "name": "Cartoon Bricks Vip",
      "image": "https://img.gamemonetize.com/lmjtaexlxgiei2f1j8ejsmpk5ve7hfds/512x384.jpg",
      "categoryId": 4
    },
    {
      "id": "29184",
      "name": "Skibidi Toilet Shooting",
      "image": "https://img.gamemonetize.com/gmuug4m73z1p4in0qu6idpvhogz7q9s0/512x384.jpg",
      "categoryId": 4
    },
    {
      "id": "29182",
      "name": "Sniper Shooter",
      "image": "https://img.gamemonetize.com/wrvgnynolrj2gjf8jfndfyb1t6cjg3r1/512x384.jpg",
      "categoryId": 4
    },
    {
      "id": "29174",
      "name": "World War 2: Strategy Games",
      "image": "https://img.gamemonetize.com/nvegf67hboe2xsjfmz85m4i3y4c9xnpm/512x384.jpg",
      "categoryId": 4
    },
    {
      "id": "29169",
      "name": "Zombie Parade Defense 6",
      "image": "https://img.gamemonetize.com/z29uy1w1vesacxn31r485ivesj9a0snd/512x384.jpg",
      "categoryId": 4
    },
    {
      "id": "29167",
      "name": "Gun Mayhem Original",
      "image": "https://img.gamemonetize.com/qu3kkmif58laf9yj9ioq1ya631man0jn/512x384.jpg",
      "categoryId": 4
    },
    {
      "id": "29149",
      "name": "Shooting Survival Skibidi Toilet",
      "image": "https://img.gamemonetize.com/xg9q4ctueabftzhgjpeqxym0ki7488ms/512x384.jpg",
      "categoryId": 4
    },
    {
      "id": "29137",
      "name": "Skibidi Toilet vs Camer Man",
      "image": "https://img.gamemonetize.com/glss8lxu6kkk8r27huayc2crocpqrmiy/512x384.jpg",
      "categoryId": 4
    },
    {
      "id": "29087",
      "name": "Cannon Ball Strike",
      "image": "https://img.gamemonetize.com/6h2gqviwrjikjln2ihr15gcpvl4or7ol/512x384.jpg",
      "categoryId": 4
    }
  ]
}
