{
  "category": {
    "id": 4,
    "name": "Shooting",
    "alias": "shooting",
    "count": 300
  },
  "page": 11,
  "totalPages": 13,
  "totalItems": 300,
  "items": [
    {
      "id": "29086",
      "name": "Sayan Batle 2D",
      "image": "https://img.gamemonetize.com/eilmwampen28oygvmdmgujzxhf74b36o/512x384.jpg",
      "categoryId": 4
    },
    {
      "id": "29082",
      "name": "Sniper Survival Skibidi Toilet",
      "image": "https://img.gamemonetize.com/zhnkek8g3nf4gnsf5lnekiu30l8qh01o/512x384.jpg",
      "categoryId": 4
    },
    {
      "id": "29076",
      "name": "Play In Mall",
      "image": "https://img.gamemonetize.com/52g15pmd4ni6fcm12oit6r0rkcpj6niv/512x384.jpg",
      "categoryId": 4
    },
    {
      "id": "29048",
      "name": "Duty Call Modern Warfate 2",
      "image": "https://img.gamemonetize.com/i1h4zxt1z2bfk78s3xxbkhxon6pepuw7/512x384.jpg",
      "categoryId": 4
    },
    {
      "id": "29002",
      "name": "TopDown Skibidi Toilet Shooting",
      "image": "https://img.gamemonetize.com/m9yj7katuk538av1qlru2cqitmbbxmkc/512x384.jpg",
      "categoryId": 4
    },
    {
      "id": "28995",
      "name": "Spaceship War Zone ",
      "image": "https://img.gamemonetize.com/yfymir1v56e8t2al2pfv115e4jjn7dge/512x384.jpg",
      "categoryId": 4
    },
    {
      "id": "28983",
      "name": "Sniper Hunting Deadly Animal",
      "image": "https://img.gamemonetize.com/sgx5ha69v0rrku8lsttfil1vcsqu07xc/512x384.jpg",
      "categoryId": 4
    },
    {
      "id": "28976",
      "name": "Ping Pong Shooter",
      "image": "https://img.gamemonetize.com/dx0q0tkp11u0jw93wp13wq60wbl44qde/512x384.jpg",
      "categoryId": 4
    },
    {
      "id": "28958",
      "name": "Sniper Hunting Skibidi Toilet",
      "image": "https://img.gamemonetize.com/z7b5yixkzil2cmnfvmfo544tp8bt5qnl/512x384.jpg",
      "categoryId": 4
    },
    {
      "id": "28953",
      "name": "Skibidi Toilet Shooter",
      "image": "https://img.gamemonetize.com/szxoceh9mtkp0te9gx7vifxahguy75lc/512x384.jpg",
      "categoryId": 4
    },
    {
      "id": "28934",
      "name": "Plane Shooter",
      "image": "https://img.gamemonetize.com/9au6hds7l82msv86cxnmhn57heuc3udd/512x384.jpg",
      "categoryId": 4
    },
    {
      "id": "28933",
      "name": "Gun Run!   Gun Sprint",
      "image": "https://img.gamemonetize.com/67h1zmfqpw4my22n7s5kz0j6c4087uh0/512x384.jpg",
      "categoryId": 4
    },
    {
      "id": "28897",
      "name": "Tank Napoleon",
      "image": "https://img.gamemonetize.com/yt71j3xn3opwb6ablihy1nndq9rg3nsq/512x384.jpg",
      "categoryId": 4
    },
    {
      "id": "28884",
      "name": "Defend the Planet",
      "image": "https://img.gamemonetize.com/kxwa7wy554wr4k2hr01hpcka2si5rihc/512x384.jpg",
      "categoryId": 4
    },
    {
      "id": "28875",
      "name": "Skibidi Flappy Poppy",
      "image": "https://img.gamemonetize.com/fqbwaar44gcqnk3u9d21kornuujbge4j/512x384.jpg",
      "categoryId": 4
    },
    {
      "id": "28871",
      "name": "Spaceship Destruction",
      "image": "https://img.gamemonetize.com/g2e77ahalq8bmd3ued7ryp6m78lhfwrp/512x384.jpg",
      "categoryId": 4
    },
    {
      "id": "28822",
      "name": "Star of warfare ",
      "image": "https://img.gamemonetize.com/i1rug1a2wfumsk5a72vqmt7zry8ddjn4/512x384.jpg",
      "categoryId": 4
    },
    {
      "id": "28801",
      "name": "Private Zombie Wave 2",
      "image": "https://img.gamemonetize.com/yjmqujr6ywps0j7i6y1b2wtiw5gywnn0/512x384.jpg",
      "categoryId": 4
    },
    {
      "id": "28791",
      "name": "Tank Battle Tank War",
      "image": "https://img.gamemonetize.com/h2uu6i6jr0s10xftbb2icdkb8kom40hp/512x384.jpg",
      "categoryId": 4
    },
    {
      "id": "28785",
      "name": "Tank War Machines",
      "image": "https://img.gamemonetize.com/3ulpd2m1hkmcmaoruiq7abp1o5tlxnrw/512x384.jpg",
      "categoryId": 4
    },
    {
      "id": "28777",
      "name": "Noob Challenge Rush",
      "image": "https://img.gamemonetize.com/ci5xvcgajyi98nua8xpa0x0a3dzc55tn/512x384.jpg",
      "categoryId": 4
    },
    {
      "id": "28762",
      "name": "Skibidi Toilet Wars",
      "image": "https://img.gamemonetize.com/403vxgif7m80edggube7b52m1hu6ascx/512x384.jpg",
      "categoryId": 4
    },
    {
      "id": "28708",
      "name": "Target Triumph ",
      "image": "https://img.gamemonetize.com/u0ss0tdywly1w683rhu75mvfrpi64mvi/512x384.jpg",
      "categoryId": 4
    },
    {
      "id": "28694",
      "name": "Skibidi Toilet Shoot Out",
      "image": "https://img.gamemonetize.com/xfyxid84j269wdsllylsc044vd72mlzw/512x384.jpg",
      "categoryId": 4
    }
  ]
}
