{
  "category": {
    "id": 4,
    "name": "Shooting",
    "alias": "shooting",
    "count": 300
  },
  "page": 7,
  "totalPages": 13,
  "totalItems": 300,
  "items": [
    {
      "id": "30856",
      "name": "Awesome Tanks 3 Game",
      "image": "https://img.gamemonetize.com/0o2e0sr042m9ocle1lxcwjjsfi36mfgu/512x384.jpg",
      "categoryId": 4
    },
    {
      "id": "30855",
      "name": "Legends Arena",
      "image": "https://img.gamemonetize.com/vnwq5a365pcffyvfzohnspbhdh29vu6k/512x384.jpg",
      "categoryId": 4
    },
    {
      "id": "30831",
      "name": "City Simulator",
      "image": "https://img.gamemonetize.com/kugv3vk5yetx1e6klghyqvfcx9lh1v8n/512x384.jpg",
      "categoryId": 4
    },
    {
      "id": "30829",
      "name": "Call of Bravery Shooter",
      "image": "https://img.gamemonetize.com/r5arihemwlm6aqs4rt8z2yhmkmbb5zw4/512x384.jpg",
      "categoryId": 4
    },
    {
      "id": "30819",
      "name": "ZombieCrash",
      "image": "https://img.gamemonetize.com/lf6ttexnma1ism1qkm056cfjb8dvvxi7/512x384.jpg",
      "categoryId": 4
    },
    {
      "id": "30807",
      "name": "Classic Tank Wars Extreme HD",
      "image": "https://img.gamemonetize.com/symn69cisr0r1j9pfx6u4do3qsfht01m/512x384.jpg",
      "categoryId": 4
    },
    {
      "id": "30796",
      "name": "Stickman Shooter Bros",
      "image": "https://img.gamemonetize.com/4exn3rd6dienls8l86g030cqczylfalc/512x384.jpg",
      "categoryId": 4
    },
    {
      "id": "30772",
      "name": "Knife Throw Master",
      "image": "https://img.gamemonetize.com/t1783s824h69ceiigikxdoaruv2caf9t/512x384.jpg",
      "categoryId": 4
    },
    {
      "id": "30764",
      "name": "Advanced Air Combat Simulator",
      "image": "https://img.gamemonetize.com/02sqp3g43g1yul7ikvuh7k1zch23s3pa/512x384.jpg",
      "categoryId": 4
    },
    {
      "id": "30761",
      "name": "Space Shooter XR",
      "image": "https://img.gamemonetize.com/5r71eug7xzd4sr0bexhibottckptnar4/512x384.jpg",
      "categoryId": 4
    },
    {
      "id": "30753",
      "name": "Tanks in Space",
      "image": "https://img.gamemonetize.com/0iv1cgn91d4g3vys1nht57ey8s5gczc7/512x384.jpg",
      "categoryId": 4
    },
    {
      "id": "30737",
      "name": "Tail Gun Charlie",
      "image": "https://img.gamemonetize.com/k8xhtzn14z20lv5kpcurqtxn5v2uhdst/512x384.jpg",
      "categoryId": 4
    },
    {
      "id": "30735",
      "name": "Granny Pills: Defend Cactuses",
      "image": "https://img.gamemonetize.com/gv3pxm56g11d1pr2lvikqo26ic3chm7u/512x384.jpg",
      "categoryId": 4
    },
    {
      "id": "30730",
      "name": "Masked Special Forces",
      "image": "https://img.gamemonetize.com/1s10wsxntjub41qo2puh7jlx3qmbvh5t/512x384.jpg",
      "categoryId": 4
    },
    {
      "id": "30717",
      "name": "2D Zombie Age",
      "image": "https://img.gamemonetize.com/048gvkqi0fzr8s7vgtq2kw4kmmia3kvt/512x384.jpg",
      "categoryId": 4
    },
    {
      "id": "30713",
      "name": "MineRaid",
      "image": "https://img.gamemonetize.com/xhd8j2d0qrj2riqz1n708lo6f6leyyn5/512x384.jpg",
      "categoryId": 4
    },
    {
      "id": "30708",
      "name": "Biozombie of Evil 2",
      "image": "https://img.gamemonetize.com/nulw6de1lveb49jba0idt8w98pbcjtlb/512x384.jpg",
      "categoryId": 4
    },
    {
      "id": "30707",
      "name": "CobraZ io",
      "image": "https://img.gamemonetize.com/zq8jygdk9xuwh7puv21h1hvtn2m7xff9/512x384.jpg",
      "categoryId": 4
    },
    {
      "id": "30690",
      "name": "Armed Forces.io",
      "image": "https://img.gamemonetize.com/31sze1xgnq00dw16hvmett3re4q2qx9w/512x384.jpg",
      "categoryId": 4
    },
    {
      "id": "30639",
      "name": "Skibidi Toilet vs Cameraman Sniper",
      "image": "https://img.gamemonetize.com/z92hff1p2awvhpj88z86fox8arex1a95/512x384.jpg",
      "categoryId": 4
    },
    {
      "id": "30637",
      "name": "Counter Craft 4",
      "image": "https://img.gamemonetize.com/sc8t4x31jg4tb48h0ajz8lovljksu1jr/512x384.jpg",
      "categoryId": 4
    },
    {
      "id": "30596",
      "name": "Zombie Survival FPS : Defense Z Mart",
      "image": "https://img.gamemonetize.com/0o8izaqf1dgfgyqszj039u90a0apo95o/512x384.jpg",
      "categoryId": 4
    },
    {
      "id": "30594",
      "name": "Battle City Online",
      "image": "https://img.gamemonetize.com/clh4isvecl4undsvzkb2z5k6jo7xw637/512x384.jpg",
      "categoryId": 4
    },
    {
      "id": "30574",
      "name": "Bubble Ocean",
      "image": "https://img.gamemonetize.com/c6ga66lnynydlu6ycjpl5bxlhjmhy9le/512x384.jpg",
      "categoryId": 4
    }
  ]
}
