{
  "category": {
    "id": 4,
    "name": "Shooting",
    "alias": "shooting",
    "count": 300
  },
  "page": 9,
  "totalPages": 13,
  "totalItems": 300,
  "items": [
    {
      "id": "30044",
      "name": "Killer Santa",
      "image": "https://img.gamemonetize.com/ys147ejqihtss47n5hs9ax7wam7cnlu8/512x384.jpg",
      "categoryId": 4
    },
    {
      "id": "30007",
      "name": "Cat Robot Transform War",
      "image": "https://img.gamemonetize.com/yku2862csp6ye66344uo25v3tq1938dj/512x384.jpg",
      "categoryId": 4
    },
    {
      "id": "30000",
      "name": "Sniper Strike",
      "image": "https://img.gamemonetize.com/faj3w69flisi32koxs0ea4h1tawgogu8/512x384.jpg",
      "categoryId": 4
    },
    {
      "id": "29950",
      "name": "Skibidi Warzone Shooting Online",
      "image": "https://img.gamemonetize.com/mg6l8zq0fqhcowa25vm1hwk149tumgsl/512x384.jpg",
      "categoryId": 4
    },
    {
      "id": "29949",
      "name": "Skibidi Strike",
      "image": "https://img.gamemonetize.com/otdbe3ccst605qyfhnwnod62pnhnjjqb/512x384.jpg",
      "categoryId": 4
    },
    {
      "id": "29914",
      "name": "Cargo Truck: Transport &amp;amp; Hunt",
      "image": "https://img.gamemonetize.com/ng2igdvp92xohmlehl315mwqe3wt9caq/512x384.jpg",
      "categoryId": 4
    },
    {
      "id": "29889",
      "name": "Metal Slug Adventure",
      "image": "https://img.gamemonetize.com/fdngtbzxm6ilhy3f91n5edffnjhsa9ze/512x384.jpg",
      "categoryId": 4
    },
    {
      "id": "29870",
      "name": "Assault Time",
      "image": "https://img.gamemonetize.com/p59ss73bjptrct2bb63ci3xzjbra2r7r/512x384.jpg",
      "categoryId": 4
    },
    {
      "id": "29856",
      "name": "Agent Skibidi",
      "image": "https://img.gamemonetize.com/4kbn6y0aadz1fssql42d6op1m3zgk2a6/512x384.jpg",
      "categoryId": 4
    },
    {
      "id": "29825",
      "name": "Chernobyl Zombie Hell",
      "image": "https://img.gamemonetize.com/01yrjf2hqf2aesokf2jeq6o45k0puiet/512x384.jpg",
      "categoryId": 4
    },
    {
      "id": "29814",
      "name": "Stupid Zombies Online",
      "image": "https://img.gamemonetize.com/eesvler8sjxjkd8z35zczvloz5igtb3q/512x384.jpg",
      "categoryId": 4
    },
    {
      "id": "29810",
      "name": "Rebel Wings",
      "image": "https://img.gamemonetize.com/sakdarokyhzgz75r2ybmf80pmt4ebdcn/512x384.jpg",
      "categoryId": 4
    },
    {
      "id": "29720",
      "name": "Pacific Ocean Adventure",
      "image": "https://img.gamemonetize.com/b3gmh9go2cl19hbsmci17bh738xcloty/512x384.jpg",
      "categoryId": 4
    },
    {
      "id": "29683",
      "name": "Skibidi Attack",
      "image": "https://img.gamemonetize.com/d3rkszqi4fjxzuv900ibqo6v1cdo3xed/512x384.jpg",
      "categoryId": 4
    },
    {
      "id": "29654",
      "name": "ROBOTS ENIGMA",
      "image": "https://img.gamemonetize.com/ya5f3mwrtttq0lfgw9yuf8v3v88h5zo0/512x384.jpg",
      "categoryId": 4
    },
    {
      "id": "29633",
      "name": "Infinite Blocks",
      "image": "https://img.gamemonetize.com/yicypspzteeu2d06qfbr8o62nc9zsbu3/512x384.jpg",
      "categoryId": 4
    },
    {
      "id": "29626",
      "name": "Mountain Tank",
      "image": "https://img.gamemonetize.com/qrh3ov788e2pho4lisrwxjofjcmauvg1/512x384.jpg",
      "categoryId": 4
    },
    {
      "id": "29618",
      "name": "Tanks: Counteroffensive",
      "image": "https://img.gamemonetize.com/yytlybvqzcrfx0mh4igk52l3qf35o4z7/512x384.jpg",
      "categoryId": 4
    },
    {
      "id": "29615",
      "name": "Pumpkin Hunt",
      "image": "https://img.gamemonetize.com/2m1c5vmtlw1bl9fa5sdorbrtcqi359f5/512x384.jpg",
      "categoryId": 4
    },
    {
      "id": "29587",
      "name": "Cowboy vs Skibidi Toilets",
      "image": "https://img.gamemonetize.com/pdsguzyx3xhl0dekvbdi132bw3hzj44t/512x384.jpg",
      "categoryId": 4
    },
    {
      "id": "29567",
      "name": "Zombie Wars TopDown Survival",
      "image": "https://img.gamemonetize.com/y7tbihkovrbyz0ybxxd0o85s70b2h8er/512x384.jpg",
      "categoryId": 4
    },
    {
      "id": "29554",
      "name": "Skibidi Toilet FPS Shooting Survival",
      "image": "https://img.gamemonetize.com/eoeo4gswxn1whp6mkold64qn6dunff5w/512x384.jpg",
      "categoryId": 4
    },
    {
      "id": "29546",
      "name": "Battleground Survival 2023",
      "image": "https://img.gamemonetize.com/bbjdiu2s8se9muqkdbllq6by8qy4ds3t/512x384.jpg",
      "categoryId": 4
    },
    {
      "id": "29499",
      "name": "Grimace Bullet Blender",
      "image": "https://img.gamemonetize.com/74ijtek8l89t61rhi0x5f7f4feuhh78r/512x384.jpg",
      "categoryId": 4
    }
  ]
}
