{
  "category": {
    "id": 4,
    "name": "射撃です",
    "alias": "shooting",
    "count": 298
  },
  "page": 10,
  "totalPages": 13,
  "totalItems": 298,
  "items": [
    {
      "id": "29403",
      "name": "デッドエイム：スキビディトイレの攻撃",
      "image": "https://img.gamemonetize.com/glr4degbtojrnmiudrcmmkw2o7b7gnqp/512x384.jpg",
      "categoryId": 4
    },
    {
      "id": "29368",
      "name": "グリマースVSスキビディ",
      "image": "https://img.gamemonetize.com/wybt0jrneff6jkodzgnq7cnp3wbhxv9x/512x384.jpg",
      "categoryId": 4
    },
    {
      "id": "29344",
      "name": "フラインググリマース",
      "image": "https://img.gamemonetize.com/xbh3e5wb6bilzeu1l2r12otatxkc3uex/512x384.jpg",
      "categoryId": 4
    },
    {
      "id": "29321",
      "name": "グリマースコマンドオ",
      "image": "https://img.gamemonetize.com/s5ckkqi51j69zm0nyghyuy03t8hoszyy/512x384.jpg",
      "categoryId": 4
    },
    {
      "id": "29309",
      "name": "スピーカーマンVSスキビディトイレ",
      "image": "https://img.gamemonetize.com/y27rb3r0b9saiz6ziakmy4alnxutpkjv/512x384.jpg",
      "categoryId": 4
    },
    {
      "id": "29306",
      "name": "スキビディの侵攻",
      "image": "https://img.gamemonetize.com/jd5s7us23loraqjc37qjtuasjfmzl1fm/512x384.jpg",
      "categoryId": 4
    },
    {
      "id": "29302",
      "name": "グリマースを蹴る",
      "image": "https://img.gamemonetize.com/ep9maa7wijhej1ymmob0oskwuwryjlz6/512x384.jpg",
      "categoryId": 4
    },
    {
      "id": "29299",
      "name": "ドッグシッター",
      "image": "https://img.gamemonetize.com/3bovn58l2fpwn9pv7aqun6isz704xon5/512x384.jpg",
      "categoryId": 4
    },
    {
      "id": "29283",
      "name": "グリマースデッドアイランドシューティング",
      "image": "https://img.gamemonetize.com/ykjxx02q8pq9mcyc81vs2n5k7v4spqq2/512x384.jpg",
      "categoryId": 4
    },
    {
      "id": "29266",
      "name": "スキビディレーザーキル",
      "image": "https://img.gamemonetize.com/q67yaflcz7qvtox9udiqctmtmi0uv2uc/512x384.jpg",
      "categoryId": 4
    },
    {
      "id": "29251",
      "name": "ゾンビの宝探しアドベンチャー",
      "image": "https://img.gamemonetize.com/mfi0mo2dk7e1kdfc0ehyuli9dnydxm8e/512x384.jpg",
      "categoryId": 4
    },
    {
      "id": "29232",
      "name": "マシンガン小隊 勇敢な兵士",
      "image": "https://img.gamemonetize.com/qopbx1nlotnt69gyptvd70h8c0f9i8r4/512x384.jpg",
      "categoryId": 4
    },
    {
      "id": "29202",
      "name": "狙撃手ダイナソーハンティング",
      "image": "https://img.gamemonetize.com/o8m5s0ichg906dv22mwxn24ww5ryszgc/512x384.jpg",
      "categoryId": 4
    },
    {
      "id": "29192",
      "name": "カートゥーンブリックスVIP",
      "image": "https://img.gamemonetize.com/lmjtaexlxgiei2f1j8ejsmpk5ve7hfds/512x384.jpg",
      "categoryId": 4
    },
    {
      "id": "29184",
      "name": "スキビディトイレシューティング",
      "image": "https://img.gamemonetize.com/gmuug4m73z1p4in0qu6idpvhogz7q9s0/512x384.jpg",
      "categoryId": 4
    },
    {
      "id": "29182",
      "name": "スナイパーシューター",
      "image": "https://img.gamemonetize.com/wrvgnynolrj2gjf8jfndfyb1t6cjg3r1/512x384.jpg",
      "categoryId": 4
    },
    {
      "id": "29174",
      "name": "第二次世界大戦：戦略ゲーム",
      "image": "https://img.gamemonetize.com/nvegf67hboe2xsjfmz85m4i3y4c9xnpm/512x384.jpg",
      "categoryId": 4
    },
    {
      "id": "29169",
      "name": "ゾンビパレードディフェンス6",
      "image": "https://img.gamemonetize.com/z29uy1w1vesacxn31r485ivesj9a0snd/512x384.jpg",
      "categoryId": 4
    },
    {
      "id": "29167",
      "name": "ガンメイヘムオリジナル",
      "image": "https://img.gamemonetize.com/qu3kkmif58laf9yj9ioq1ya631man0jn/512x384.jpg",
      "categoryId": 4
    },
    {
      "id": "29149",
      "name": "シューティングサバイバルスキビディトイレ",
      "image": "https://img.gamemonetize.com/xg9q4ctueabftzhgjpeqxym0ki7488ms/512x384.jpg",
      "categoryId": 4
    },
    {
      "id": "29137",
      "name": "スキビディトイレvsカメラマン",
      "image": "https://img.gamemonetize.com/glss8lxu6kkk8r27huayc2crocpqrmiy/512x384.jpg",
      "categoryId": 4
    },
    {
      "id": "29087",
      "name": "キャノンボールストライク",
      "image": "https://img.gamemonetize.com/6h2gqviwrjikjln2ihr15gcpvl4or7ol/512x384.jpg",
      "categoryId": 4
    },
    {
      "id": "29086",
      "name": "サヤンバトル2D",
      "image": "https://img.gamemonetize.com/eilmwampen28oygvmdmgujzxhf74b36o/512x384.jpg",
      "categoryId": 4
    },
    {
      "id": "29082",
      "name": "スナイパーサバイバルスキビディトイレ",
      "image": "https://img.gamemonetize.com/zhnkek8g3nf4gnsf5lnekiu30l8qh01o/512x384.jpg",
      "categoryId": 4
    }
  ]
}
