{
  "category": {
    "id": 4,
    "name": "射撃です",
    "alias": "shooting",
    "count": 298
  },
  "page": 11,
  "totalPages": 13,
  "totalItems": 298,
  "items": [
    {
      "id": "29076",
      "name": "Play In Mall",
      "image": "https://img.gamemonetize.com/52g15pmd4ni6fcm12oit6r0rkcpj6niv/512x384.jpg",
      "categoryId": 4
    },
    {
      "id": "29048",
      "name": "デューティコールモダンウォーフェイト2",
      "image": "https://img.gamemonetize.com/i1h4zxt1z2bfk78s3xxbkhxon6pepuw7/512x384.jpg",
      "categoryId": 4
    },
    {
      "id": "29002",
      "name": "トップダウンスキビディトイレシューティング",
      "image": "https://img.gamemonetize.com/m9yj7katuk538av1qlru2cqitmbbxmkc/512x384.jpg",
      "categoryId": 4
    },
    {
      "id": "28995",
      "name": "スペースシップウォークロン",
      "image": "https://img.gamemonetize.com/yfymir1v56e8t2al2pfv115e4jjn7dge/512x384.jpg",
      "categoryId": 4
    },
    {
      "id": "28983",
      "name": "スナイパーハンティングデッドリーアニマル",
      "image": "https://img.gamemonetize.com/sgx5ha69v0rrku8lsttfil1vcsqu07xc/512x384.jpg",
      "categoryId": 4
    },
    {
      "id": "28976",
      "name": "ピンポンシューター",
      "image": "https://img.gamemonetize.com/dx0q0tkp11u0jw93wp13wq60wbl44qde/512x384.jpg",
      "categoryId": 4
    },
    {
      "id": "28958",
      "name": "スナイパーハンティングスキビディトイレ",
      "image": "https://img.gamemonetize.com/z7b5yixkzil2cmnfvmfo544tp8bt5qnl/512x384.jpg",
      "categoryId": 4
    },
    {
      "id": "28953",
      "name": "スキビディトイレシューター",
      "image": "https://img.gamemonetize.com/szxoceh9mtkp0te9gx7vifxahguy75lc/512x384.jpg",
      "categoryId": 4
    },
    {
      "id": "28934",
      "name": "飛行機シューター",
      "image": "https://img.gamemonetize.com/9au6hds7l82msv86cxnmhn57heuc3udd/512x384.jpg",
      "categoryId": 4
    },
    {
      "id": "28933",
      "name": "ガンラン！ガンスプリント",
      "image": "https://img.gamemonetize.com/67h1zmfqpw4my22n7s5kz0j6c4087uh0/512x384.jpg",
      "categoryId": 4
    },
    {
      "id": "28897",
      "name": "タンクナポレオン",
      "image": "https://img.gamemonetize.com/yt71j3xn3opwb6ablihy1nndq9rg3nsq/512x384.jpg",
      "categoryId": 4
    },
    {
      "id": "28884",
      "name": "惑星を守れ",
      "image": "https://img.gamemonetize.com/kxwa7wy554wr4k2hr01hpcka2si5rihc/512x384.jpg",
      "categoryId": 4
    },
    {
      "id": "28875",
      "name": "スキビディフラッピーポピー",
      "image": "https://img.gamemonetize.com/fqbwaar44gcqnk3u9d21kornuujbge4j/512x384.jpg",
      "categoryId": 4
    },
    {
      "id": "28871",
      "name": "宇宙船破壊",
      "image": "https://img.gamemonetize.com/g2e77ahalq8bmd3ued7ryp6m78lhfwrp/512x384.jpg",
      "categoryId": 4
    },
    {
      "id": "28822",
      "name": "戦争の星",
      "image": "https://img.gamemonetize.com/i1rug1a2wfumsk5a72vqmt7zry8ddjn4/512x384.jpg",
      "categoryId": 4
    },
    {
      "id": "28801",
      "name": "プライベートゾンビウェーブ2",
      "image": "https://img.gamemonetize.com/yjmqujr6ywps0j7i6y1b2wtiw5gywnn0/512x384.jpg",
      "categoryId": 4
    },
    {
      "id": "28791",
      "name": "タンクバトル トランクウォー",
      "image": "https://img.gamemonetize.com/h2uu6i6jr0s10xftbb2icdkb8kom40hp/512x384.jpg",
      "categoryId": 4
    },
    {
      "id": "28785",
      "name": "タンクウォーマシンズ",
      "image": "https://img.gamemonetize.com/3ulpd2m1hkmcmaoruiq7abp1o5tlxnrw/512x384.jpg",
      "categoryId": 4
    },
    {
      "id": "28777",
      "name": "ノーブチャレンジラッシュ",
      "image": "https://img.gamemonetize.com/ci5xvcgajyi98nua8xpa0x0a3dzc55tn/512x384.jpg",
      "categoryId": 4
    },
    {
      "id": "28762",
      "name": "スキビディトイレウォーズ",
      "image": "https://img.gamemonetize.com/403vxgif7m80edggube7b52m1hu6ascx/512x384.jpg",
      "categoryId": 4
    },
    {
      "id": "28708",
      "name": "ターゲットトリウムフィ",
      "image": "https://img.gamemonetize.com/u0ss0tdywly1w683rhu75mvfrpi64mvi/512x384.jpg",
      "categoryId": 4
    },
    {
      "id": "28694",
      "name": "スキビディトイレシューターアウト",
      "image": "https://img.gamemonetize.com/xfyxid84j269wdsllylsc044vd72mlzw/512x384.jpg",
      "categoryId": 4
    },
    {
      "id": "28685",
      "name": "ラストワールド",
      "image": "https://img.gamemonetize.com/ddhn38ohhoqlfuamqme6y51ae2srjtqd/512x384.jpg",
      "categoryId": 4
    },
    {
      "id": "28670",
      "name": "スキビディトイレズアタック",
      "image": "https://img.gamemonetize.com/4izuw5dyxtlzwjwr8iqq04yln9zh4fy4/512x384.jpg",
      "categoryId": 4
    }
  ]
}
