{
  "category": {
    "id": 4,
    "name": "射撃です",
    "alias": "shooting",
    "count": 298
  },
  "page": 4,
  "totalPages": 13,
  "totalItems": 298,
  "items": [
    {
      "id": "32020",
      "name": "スーパータンクヒーロー",
      "image": "https://img.gamemonetize.com/0uxm1wr0oe3hjhotghpwp2w8n0tfdnkl/512x384.jpg",
      "categoryId": 4
    },
    {
      "id": "31978",
      "name": "F16ウォー",
      "image": "https://img.gamemonetize.com/qazqmjmxfero3v1mka1zuuks0zj8o4kr/512x384.jpg",
      "categoryId": 4
    },
    {
      "id": "31961",
      "name": "スマッシュフルーツ",
      "image": "https://img.gamemonetize.com/g11wdrnqj3qskf4isu56rcpr3db2ygaj/512x384.jpg",
      "categoryId": 4
    },
    {
      "id": "31944",
      "name": "スペースサバイバーシューティング",
      "image": "https://img.gamemonetize.com/fgc6kf9h3gtckyse3xsoqx3tubxzg4g5/512x384.jpg",
      "categoryId": 4
    },
    {
      "id": "31939",
      "name": "ミセスゾンビ",
      "image": "https://img.gamemonetize.com/pmqat5se5i4j77bnxfkqdyijp2il02xt/512x384.jpg",
      "categoryId": 4
    },
    {
      "id": "31934",
      "name": "ガンアップウェポンシューター",
      "image": "https://img.gamemonetize.com/fo4t0uu0sdcd78l71ntdtam2j8bd5s68/512x384.jpg",
      "categoryId": 4
    },
    {
      "id": "31920",
      "name": "ウトカクラッシュ",
      "image": "https://img.gamemonetize.com/zmxjbnv63ylnzq5qvynsjj9e9h9c5mqr/512x384.jpg",
      "categoryId": 4
    },
    {
      "id": "31902",
      "name": "鳥を助ける",
      "image": "https://img.gamemonetize.com/fayesw6sf0zvgh9lqdqbcja048bzyvtt/512x384.jpg",
      "categoryId": 4
    },
    {
      "id": "31888",
      "name": "デジタルシューター1",
      "image": "https://img.gamemonetize.com/9c323gqdrw31aduhihjg59lerxnrmjl6/512x384.jpg",
      "categoryId": 4
    },
    {
      "id": "31875",
      "name": "GTAカーチェイス",
      "image": "https://img.gamemonetize.com/372nv4l7g2l1vexifnwld5z4rftwcz82/512x384.jpg",
      "categoryId": 4
    },
    {
      "id": "31834",
      "name": "シティエンカウンター",
      "image": "https://img.gamemonetize.com/bbb0kd8l3uj5h0ig5ymy6rcnni6cz9ad/512x384.jpg",
      "categoryId": 4
    },
    {
      "id": "31832",
      "name": "パガンズパッセージ",
      "image": "https://img.gamemonetize.com/gvo42hg07bi459z2zmeciw5d2khq2wrn/512x384.jpg",
      "categoryId": 4
    },
    {
      "id": "31829",
      "name": "スティックマンハンター",
      "image": "https://img.gamemonetize.com/vjjxb3kbxqfrdgom6d8sf2qbliboogai/512x384.jpg",
      "categoryId": 4
    },
    {
      "id": "31805",
      "name": "ブーンスティックバズーカ2パズル",
      "image": "https://img.gamemonetize.com/nr4piqtonxo1bfiolcy70aeo7itsxdr3/512x384.jpg",
      "categoryId": 4
    },
    {
      "id": "31798",
      "name": "ホラーホスピタル",
      "image": "https://img.gamemonetize.com/8mo1t9s8ipnqkl00bhkusf7put6rozwl/512x384.jpg",
      "categoryId": 4
    },
    {
      "id": "31758",
      "name": "ウォーカーズアタック",
      "image": "https://img.gamemonetize.com/dh44famn4u2o274rck303nkfmyyx3i1k/512x384.jpg",
      "categoryId": 4
    },
    {
      "id": "31757",
      "name": "3D FPSターゲットシューティング",
      "image": "https://img.gamemonetize.com/s7isvw59vx79rpt2zm4cuhinpq9gg60w/512x384.jpg",
      "categoryId": 4
    },
    {
      "id": "31734",
      "name": "カウンタークラフト：バトルロイヤル",
      "image": "https://img.gamemonetize.com/py4pbr4l63jb6l3dtxcjyuhi1uqtxrep/512x384.jpg",
      "categoryId": 4
    },
    {
      "id": "31728",
      "name": "アニマルセイバー",
      "image": "https://img.gamemonetize.com/zesc9vypdtqy5vjqmehnkkm7urf4pmpv/512x384.jpg",
      "categoryId": 4
    },
    {
      "id": "31721",
      "name": "ブロッククラフト3D 2",
      "image": "https://img.gamemonetize.com/b12tpl9hyn1zh9yuj8vyyjj3b0z74rrj/512x384.jpg",
      "categoryId": 4
    },
    {
      "id": "31719",
      "name": "アーチェリーレジェンド",
      "image": "https://img.gamemonetize.com/i5874tp87atboegughahctutv036l0a5/512x384.jpg",
      "categoryId": 4
    },
    {
      "id": "31681",
      "name": "グランパのロードチェイス：リアルなシューター",
      "image": "https://img.gamemonetize.com/09v05p7k4n8t2dlxcmke1qe42rayser4/512x384.jpg",
      "categoryId": 4
    },
    {
      "id": "31674",
      "name": "宇宙シューターVSアリエンターズとアステロイド",
      "image": "https://img.gamemonetize.com/mmqja7cgx7qxrqz0f2e9t481p0yprjii/512x384.jpg",
      "categoryId": 4
    },
    {
      "id": "31673",
      "name": "ダイノウォーバード",
      "image": "https://img.gamemonetize.com/3z4mss6go0qkmba3wrx7vj6z6kwizy27/512x384.jpg",
      "categoryId": 4
    }
  ]
}
