{
  "category": {
    "id": 4,
    "name": "射撃です",
    "alias": "shooting",
    "count": 298
  },
  "page": 8,
  "totalPages": 13,
  "totalItems": 298,
  "items": [
    {
      "id": "30472",
      "name": "ホットガールシューター",
      "image": "https://img.gamemonetize.com/31lgegym60ey47s6ot8w763s8ism8j6j/512x384.jpg",
      "categoryId": 4
    },
    {
      "id": "30449",
      "name": "マジカルアーチャー",
      "image": "https://img.gamemonetize.com/snyx35svpq1e0s7354g7c4chq8ofuabi/512x384.jpg",
      "categoryId": 4
    },
    {
      "id": "30426",
      "name": "シュートブロックラッシュ3D",
      "image": "https://img.gamemonetize.com/iqe4no55e9i6pvg1eaqct96e3xoo6d4c/512x384.jpg",
      "categoryId": 4
    },
    {
      "id": "30424",
      "name": "クリムゾンスリープギャングスターパラダイス",
      "image": "https://img.gamemonetize.com/z5py0263ltj5xsk4bqvnzqce21pra5da/512x384.jpg",
      "categoryId": 4
    },
    {
      "id": "30413",
      "name": "ホークアイスナイパー",
      "image": "https://img.gamemonetize.com/mtdepw7ngtwtvfy3348x68n1hihtopc7/512x384.jpg",
      "categoryId": 4
    },
    {
      "id": "30396",
      "name": "デフォームイット",
      "image": "https://img.gamemonetize.com/cnrxdusp5voxrfahhgtyme4twzz0o4u6/512x384.jpg",
      "categoryId": 4
    },
    {
      "id": "30394",
      "name": "テレキネシスアタック",
      "image": "https://img.gamemonetize.com/mdwhevqlrf9seap60s9gr6bbl18njy4u/512x384.jpg",
      "categoryId": 4
    },
    {
      "id": "30393",
      "name": "バックルームズ：スキビディシューター",
      "image": "https://img.gamemonetize.com/upfnrhlbt1moynrycl070zdkuj602pvm/512x384.jpg",
      "categoryId": 4
    },
    {
      "id": "30368",
      "name": "トーマスランナー",
      "image": "https://img.gamemonetize.com/vawfi05aa5yrj0czd4mlmxvttep92ngd/512x384.jpg",
      "categoryId": 4
    },
    {
      "id": "30323",
      "name": "オペレーションサンダーストライク",
      "image": "https://img.gamemonetize.com/cnit0h0j4yxj12q7mkk0v38atyownjn4/512x384.jpg",
      "categoryId": 4
    },
    {
      "id": "30300",
      "name": "ジェットパックライダー",
      "image": "https://img.gamemonetize.com/xycugfmpo73v5eh3oujbqy808hrnyx07/512x384.jpg",
      "categoryId": 4
    },
    {
      "id": "30298",
      "name": "タワーディフェンスキングダムズ",
      "image": "https://img.gamemonetize.com/sl90beby7k9mcd61gdkjskhj7qm4qaqq/512x384.jpg",
      "categoryId": 4
    },
    {
      "id": "30269",
      "name": "サンタスターシューター",
      "image": "https://img.gamemonetize.com/6j6voum4j8qmvne4suw9fhcr734ge6nb/512x384.jpg",
      "categoryId": 4
    },
    {
      "id": "30263",
      "name": "カメラマンVSスキビディモンスター：楽しいバトル",
      "image": "https://img.gamemonetize.com/idro0bv73k70uwwenrs2mkjua5cjbci8/512x384.jpg",
      "categoryId": 4
    },
    {
      "id": "30201",
      "name": "ゾンビの日",
      "image": "https://img.gamemonetize.com/lr3qt0rzp8b8f97atvaiut5as8m4icfy/512x384.jpg",
      "categoryId": 4
    },
    {
      "id": "30195",
      "name": "ストライクギャラクシーアタック",
      "image": "https://img.gamemonetize.com/5qoll80lcrsvumk53nurp6e1j40djm16/512x384.jpg",
      "categoryId": 4
    },
    {
      "id": "30162",
      "name": "歩兵攻撃：バトル3D FPS",
      "image": "https://img.gamemonetize.com/foof3euvtu1r928pcec4j0vtslnqqqy6/512x384.jpg",
      "categoryId": 4
    },
    {
      "id": "30131",
      "name": "海賊ブロッククラフトモンスターシューター",
      "image": "https://img.gamemonetize.com/lhmi1jgygea8lv7arg44d30z2hnrel7p/512x384.jpg",
      "categoryId": 4
    },
    {
      "id": "30118",
      "name": "デッドシティゾンビインベーダー2023",
      "image": "https://img.gamemonetize.com/jxdno88jafvyr9vfma8p4g8gxr8zb4tn/512x384.jpg",
      "categoryId": 4
    },
    {
      "id": "30117",
      "name": "スキビディヒットマスター",
      "image": "https://img.gamemonetize.com/5v5di5766lz4kax3unxtr0qqaylr4me9/512x384.jpg",
      "categoryId": 4
    },
    {
      "id": "30091",
      "name": "ライフルアサルト",
      "image": "https://img.gamemonetize.com/008zinna5lvgtoc89x5zoau2nsr2g27t/512x384.jpg",
      "categoryId": 4
    },
    {
      "id": "30073",
      "name": "アーセナルオンライン",
      "image": "https://img.gamemonetize.com/fadsdximj0ao2vsyuswwntlarkxe1ns5/512x384.jpg",
      "categoryId": 4
    },
    {
      "id": "30044",
      "name": "キラーサンタ",
      "image": "https://img.gamemonetize.com/ys147ejqihtss47n5hs9ax7wam7cnlu8/512x384.jpg",
      "categoryId": 4
    },
    {
      "id": "30007",
      "name": "猫ロボット変形戦争",
      "image": "https://img.gamemonetize.com/yku2862csp6ye66344uo25v3tq1938dj/512x384.jpg",
      "categoryId": 4
    }
  ]
}
